<?xml version="1.0" encoding="UTF-8" standalone="no"?>
<svg
   width="1000"
   height="1000"
   version="1.1"
   viewBox="0 0 750 750"
   id="svg1556"
   sodipodi:docname="1655470220178.svg"
   inkscape:version="1.2.1 (9c6d41e410, 2022-07-14, custom)"
   xmlns:inkscape="http://www.inkscape.org/namespaces/inkscape"
   xmlns:sodipodi="http://sodipodi.sourceforge.net/DTD/sodipodi-0.dtd"
   xmlns="http://www.w3.org/2000/svg"
   xmlns:svg="http://www.w3.org/2000/svg">
  <defs
     id="defs1560" />
  <sodipodi:namedview
     id="namedview1558"
     pagecolor="#ffffff"
     bordercolor="#666666"
     borderopacity="1.0"
     inkscape:showpageshadow="false"
     inkscape:pageopacity="0.0"
     inkscape:pagecheckerboard="0"
     inkscape:deskcolor="#d1d1d1"
     inkscape:document-units="pt"
     showgrid="false"
     showborder="false"
     inkscape:zoom="0.59309522"
     inkscape:cx="424.88962"
     inkscape:cy="402.97071"
     inkscape:window-width="1840"
     inkscape:window-height="1027"
     inkscape:window-x="80"
     inkscape:window-y="0"
     inkscape:window-maximized="1"
     inkscape:current-layer="svg1556" />
  <path
     style="fill:#ffffff;stroke:#000000;stroke-width:0.75px;stroke-linecap:butt;stroke-linejoin:miter;stroke-opacity:1"
     d="m 24.197108,394.33666 8.127705,11.94108 18.72443,2.92225 25.266174,-8.06857 23.905613,-26.87418 6.85594,-30.62856 -4.09793,-37.88834 2.74681,-43.25578 11.02709,-41.89998 13.81484,-21.79749 23.71198,-23.75989 29.71758,-8.82206 h 25.28005 l 22.49602,6.94287 16.93167,9.20599 15.79986,22.41644 12.26772,30.47867 -0.88599,6.89186 -13.49551,24.85114 -12.45591,32.65496 -7.33939,36.48642 -1.12465,34.7105 5.78847,48.24738 16.0924,46.36881 5.58084,12.20388 -31.44798,9.82611 -37.98233,4.25357 -13.79565,-4.8013 -13.94351,-15.37107 -11.21406,-5.40374 -13.68522,1.88947 -7.80848,6.4534 -2.92282,4.92314 -9.06383,3.18098 -6.80313,11.2539 0.67904,17.87256 10.09719,17.08396 15.14313,10.47706 20.10086,7.54958 23.93425,5.89467 31.02574,5.17168 42.13391,3.03751 27.81693,0.61819 81.67494,0.52071 41.35767,3.83503 44.80592,-1.31668 49.67023,-0.0765 52.98795,-9.34889 6.68772,-2.84874 2.21957,-8.98742 -4.74136,-9.1545 -11.48499,-6.10517 -18.68083,-6.83011 4.52642,-26.00603 -5.2417,-19.47455 -9.7112,-15.85473 -14.51682,-19.13742 -15.42082,-14.44059 -19.30516,-1.46589 -19.7938,4.60494 -13.73104,9.19248 -13.78716,-3.78892 -9.79055,-14.64486 -1.66631,-23.2055 9.63525,-16.5839 13.79013,-7.86473 28.18179,4.52773 37.45653,-5.22081 62.81493,18.64474 32.62852,18.88569 24.08593,20.54451 8.56633,32.29607 9.67605,24.77251 28.81912,3.77121 18.25445,-18.06139 1.88133,-21.20829 20.83147,4.1299 14.30822,-16.10128 -5.6709,-26.47198 -16.89833,-42.63591 -24.77983,-32.69971 -34.39088,-31.61494 -58.87709,-49.33248 -57.46424,-36.66514 -57.5382,-37.93082 -54.40937,-10.95297 -50.40095,7.05209 -49.53446,20.97711 -15.54074,-26.89403 -30.12352,-29.85526 -50.45688,-18.68161 -46.96352,-1.72222 -42.63996,12.13351 -28.75142,24.78299 -27.09729,35.68485 -8.958134,45.72234 -3.652626,39.22965 2.100213,41.95093 -6.301817,32.11534 -20.111407,19.75292 -13.390155,10.83392 -1.58069,11.97495 z"
     id="path2055" />
  <g
     id="g1554"
     transform="matrix(1.5836722,0,0,1.5836722,-220.45716,-252.01672)">
    <path
       d="m 599.77,423.93 c -6.2031,-33.176 -36.023,-61.086 -37.293,-62.258 -30.324,-28.086 -66.445,-54.973 -107.36,-79.902 -0.008,-0.004 -0.0156,-0.004 -0.0234,-0.008 -5.2422,-3.7188 -9.707,-6.1797 -12.168,-7.4297 -0.65625,-0.33203 -1.3125,-0.63672 -1.9688,-0.94141 l -2.3672,-1.5312 c -0.61719,-0.42578 -1.375,-0.58984 -2.1094,-0.48047 -46.059,-19.016 -91.082,7.2344 -93,8.375 -0.95312,0.56641 -1.9102,1.1641 -2.9141,1.8203 -0.67188,-1.7852 -1.4102,-3.5117 -2.2266,-5.2188 -10.621,-22.137 -30.242,-31.586 -36.691,-34.691 -23.82,-11.48 -60.32,-14.074 -88.168,6.0195 -9.4883,6.8438 -22.484,19.738 -30.484,42.289 -5.0547,14.238 -5.6523,27.711 -5.8789,32.785 -0.42969,9.7148 0.0273,15.531 0.46484,21.156 0.42578,5.4414 0.83203,10.582 0.34375,18.957 -0.52734,9.082 -1.9688,19.121 -8.6758,24.699 -1.7227,1.4336 -3.8398,2.668 -6.0859,3.9844 -5.3047,3.0977 -11.312,6.6094 -12.055,13.57 -0.55469,5.2031 2.5586,10.523 7.7461,13.234 3.8516,2.0195 8.6445,2.6328 14.238,1.8477 17.164,-2.418 31.742,-16.574 34.664,-33.668 1.1328,-6.6367 0.59375,-13.316 0.0703,-19.773 l -0.11328,-1.4062 c -2.0898,-26.262 0.73828,-47.883 8.4023,-64.27 4.1641,-8.9023 11.133,-23.805 27.441,-30.719 17.285,-7.3398 38.234,-3.4648 52.117,9.6328 10.574,9.9766 13.961,22.379 14.887,31.375 -12.387,18.773 -19.727,42.305 -21.82,69.953 -0.57813,7.625 -2.0156,42.898 16.34,77.758 -15.344,6.0156 -26.051,6.8516 -33.164,7.3867 l -0.36719,0.0273 c -2.2617,0.17188 -4.6562,0.25781 -6.8125,-0.28516 -5.6484,-1.4102 -8.9219,-4.6953 -12.09,-7.875 -3.3438,-3.3594 -6.8047,-6.832 -12.535,-7.5156 -6.5938,-0.78516 -13.621,2.5312 -16.809,7.75 -2.668,0.66406 -5.0508,2.1914 -6.9609,4.5664 -3.3125,4.125 -4.8828,10.465 -3.9961,16.152 1.1211,7.1992 4.9453,14.031 10.492,18.746 6.1484,5.2305 14.055,7.7578 21.68,9.7109 42.926,11.004 87.426,9.9688 130.47,8.9375 8.7305,1.9102 17.43,2.5 26.27,2.5 7.1523,0 14.398,-0.38672 21.824,-0.78906 l 5.1367,-0.28906 c 21.574,1.5859 43.199,0.0547 64.258,-4.5469 1.9688,-0.42969 4.9492,-1.0781 7.1445,-3.2109 1.7422,-1.6875 2.6953,-4.0625 2.6836,-6.6836 -0.0156,-3.2305 -1.5117,-6.6562 -3.9023,-8.9336 -3.293,-3.1328 -7.6328,-4.4766 -11.461,-5.668 l -1.1406,-0.35547 c -1.3359,-0.42188 -2.7188,-0.90234 -4.1836,-1.4492 -0.12109,-0.33984 -0.28906,-0.64844 -0.51953,-0.91797 1.9609,-6.543 2.0781,-11.766 2.0742,-12.879 -0.043,-13.41 -7.1602,-22.441 -16.164,-33.883 l -0.45312,-0.57422 c -2.1055,-2.6758 -4.0469,-5.1289 -6.0664,-7.2539 l 7.4766,-8.875 c 1.0547,-1.2539 0.89453,-3.1211 -0.35938,-4.1719 -1.25,-1.0547 -3.1172,-0.89062 -4.1719,0.35547 l -7.4062,8.7969 c -1.1602,-0.8125 -2.3945,-1.5039 -3.7266,-2.0781 1.1836,-4.6953 2.7188,-9.3281 4.6055,-13.789 0.64062,-1.5039 -0.0664,-3.2422 -1.5703,-3.8828 -1.5117,-0.64063 -3.2461,0.0664 -3.8828,1.5742 -1.9922,4.7031 -3.6094,9.5898 -4.8672,14.539 -8.6484,-1.1172 -17.152,2.4688 -18.895,3.2617 -2.3242,1.0625 -4.0938,2.1797 -5.5117,3.0781 -2.4805,1.5664 -3.5508,2.207 -5.4297,2.0664 -3.4961,-0.23828 -6.2109,-3.1016 -7.2344,-4.3477 -2.707,-3.3008 -3.9375,-8.6797 -3.2852,-14.395 0.65234,-5.7109 3.0898,-10.695 6.5117,-13.336 3.1055,-2.3867 5.8672,-2.1094 11.84,-1.2617 5.0156,0.71484 11.262,1.6055 20.023,0.52344 2.5781,-0.31641 7.8125,-0.96875 13.863,-2.7852 12.477,3.2305 22.098,6.2227 31.098,9.6641 11.32,4.3281 23.023,8.8047 32.723,16.152 6.1328,4.6445 10.148,9.6484 11.941,14.875 1.0312,3.0039 1.4219,6.2617 1.832,9.7109 0.59375,4.9609 1.2109,10.09 3.8477,14.727 2.9648,5.2109 8.3984,8.7852 14.914,9.8086 6.4297,1.0078 12.855,-0.77344 17.211,-4.7656 4.7266,-4.332 7.4648,-11.039 7.6797,-18.539 2.1875,0.64844 4.8281,1.1992 7.5312,1.1992 3.03521,0 6.12891,-0.69531 8.6875,-2.7227 7.11721,-5.6445 4.89841,-17.508 3.8281,-23.211 z m -44.012,42.184 c -4.6562,-0.73047 -8.6523,-3.3047 -10.688,-6.8828 -2.0469,-3.6016 -2.5664,-7.9258 -3.1133,-12.5 -0.42969,-3.6055 -0.875,-7.332 -2.1133,-10.926 -2.1836,-6.3594 -6.8828,-12.309 -13.969,-17.676 -10.371,-7.8555 -22.477,-12.488 -34.184,-16.961 -9.4102,-3.6016 -19.449,-6.7109 -32.547,-10.078 -0.53516,-0.13672 -1.0977,-0.12109 -1.625,0.043 -5.8789,1.8477 -11.117,2.5 -13.633,2.8125 -7.9766,0.98438 -13.789,0.15234 -18.461,-0.50781 -1.457,-0.21094 -2.8672,-0.41016 -4.2383,-0.53516 -0.39453,-0.26562 -0.83203,-0.46875 -1.3398,-0.51953 -13.25,-1.3008 -24.859,-12.191 -27.008,-25.336 -0.26172,-1.6094 -1.7656,-2.7109 -3.4023,-2.4453 -1.6133,0.26172 -2.707,1.7891 -2.4453,3.4023 2.0078,12.305 10.973,22.93 22.371,27.715 -0.0781,0.0586 -0.15234,0.0937 -0.23047,0.15234 -4.7422,3.6484 -7.9414,9.9766 -8.7852,17.355 -0.83203,7.2734 0.88672,14.312 4.6172,18.855 1.8516,2.2539 5.793,6.0859 11.379,6.4688 3.8789,0.26562 6.3594,-1.3086 8.9961,-2.9688 0.66406,-0.41797 1.375,-0.86719 2.1602,-1.3203 -0.52344,2.1719 -0.55859,4.4648 0.0195,6.6445 0.35156,1.3281 1.5508,2.2031 2.8633,2.2031 l 0.76172,-0.0977 c 1.5781,-0.41797 2.5234,-2.043 2.1016,-3.6211 -0.83203,-3.1406 0.59375,-6.8359 3.3125,-8.6094 3.25,-0.76172 7.2812,-1.2461 11.008,-0.37109 5.4805,1.2852 8.6875,5.0938 14.336,12.27 l 0.46094,0.58594 c 8.9453,11.359 14.855,18.871 14.895,30.234 0.004,0.58594 -0.0586,5.2188 -1.7969,11.07 -4.582,-1.0156 -9.0508,-2.5 -13.312,-4.4609 -1.4844,-0.6875 -3.2461,-0.0352 -3.9297,1.4531 -0.68359,1.4883 -0.0312,3.2461 1.4531,3.9297 4.8555,2.2344 9.957,3.8867 15.184,4.9922 0.3125,0.41797 0.69922,0.78906 1.2188,0.99609 2.9375,1.1875 5.543,2.1367 7.957,2.8984 l 1.168,0.36328 c 3.5195,1.0898 6.8438,2.1211 9.1289,4.2969 1.2461,1.1875 2.0547,3.0234 2.0664,4.6719 0.004,1.0234 -0.29297,1.832 -0.88672,2.4062 -0.90625,0.88281 -2.5469,1.2969 -4.2852,1.6758 -20.559,4.4922 -41.672,5.9805 -62.746,4.4102 l -0.39453,-0.004 -5.3086,0.29688 c -16.316,0.88281 -31.727,1.707 -46.844,-1.6602 l -0.64453,-0.0703 h -0.0703 c -42.758,1.0312 -86.965,2.0898 -129.22,-8.7422 -6.4648,-1.6562 -13.816,-3.8125 -19.312,-8.4844 -4.4805,-3.8086 -7.5703,-9.3281 -8.4766,-15.145 -0.63281,-4.0547 0.47656,-8.6914 2.7578,-11.531 1.3633,-1.6992 3.0078,-2.6172 4.8867,-2.7344 4.3281,-0.27344 7.5391,3.5703 11.211,8.0273 3.1914,3.8672 6.4922,7.8633 11.199,9.9023 2.8125,1.2148 5.7656,1.5352 8.5469,1.7656 20.555,1.6758 42.047,-0.66406 62.121,-6.8008 0.80078,-0.24219 1.3984,-0.84766 1.7539,-1.5938 0.21094,-0.0156 0.42578,-0.0312 0.63672,-0.0937 6.2773,-1.9297 12.141,-4.8984 17.422,-8.8164 1.3164,-0.97656 1.5898,-2.8281 0.61328,-4.1406 -0.97266,-1.3125 -2.8281,-1.5859 -4.1445,-0.61328 -4.7422,3.5156 -10,6.1797 -15.633,7.9062 -0.30469,0.0937 -0.55469,0.26172 -0.80078,0.4375 -12.297,-17.336 -18.52,-35.824 -21.578,-51.5 4.4727,-2.3008 9.2656,-3.8125 14.258,-4.4805 1.6211,-0.21875 2.7578,-1.707 2.543,-3.3281 -0.21875,-1.6211 -1.7148,-2.7461 -3.3281,-2.543 -5.0586,0.67578 -9.9219,2.1562 -14.523,4.3164 -1.8477,-12.023 -1.8906,-21.852 -1.6797,-27.371 l 16.402,0.80078 0.14844,0.004 c 1.5703,0 2.8789,-1.2305 2.957,-2.8164 0.0781,-1.6328 -1.1797,-3.0234 -2.8125,-3.1055 l -16.25,-0.79297 c 0.84766,-9.5547 2.3242,-18.598 4.4766,-27.055 5.707,2.3242 11.66,4.0781 17.742,5.1562 l 0.51953,0.0469 c 1.4102,0 2.6562,-1.0078 2.9141,-2.4453 0.28516,-1.6094 -0.78516,-3.1484 -2.3984,-3.4336 -5.8945,-1.0469 -11.66,-2.7578 -17.168,-5.0586 3.6328,-12.172 8.6406,-23.125 15.082,-32.688 0.37891,-0.5625 0.55078,-1.2305 0.49609,-1.9062 -0.86328,-10.09 -4.4805,-24.559 -16.82,-36.199 -15.562,-14.684 -39.07,-19.016 -58.492,-10.777 -18.398,7.8008 -26.266,24.621 -30.492,33.66 -8.1055,17.324 -11.113,39.953 -8.9414,67.246 l 0.11328,1.4141 c 0.49219,6.0938 1.0039,12.398 -0.004,18.301 -2.457,14.383 -15.207,26.762 -29.652,28.801 -4.3516,0.60547 -7.9375,0.19531 -10.664,-1.2305 -2.5352,-1.3281 -4.9297,-4.2812 -4.6016,-7.3594 0.42578,-3.9883 4.4688,-6.3516 9.1523,-9.0859 2.3516,-1.375 4.7852,-2.7969 6.8867,-4.543 8.4453,-7.0273 10.199,-18.559 10.801,-28.91 0.50781,-8.7773 0.0899,-14.113 -0.35156,-19.762 -0.42578,-5.4492 -0.86719,-11.082 -0.45312,-20.434 0.21484,-4.832 0.78516,-17.66 5.543,-31.066 7.4922,-21.109 19.562,-33.113 28.367,-39.465 25.875,-18.66 59.891,-16.199 82.129,-5.4844 5.9844,2.8789 24.199,11.652 33.922,31.918 1.25,2.6055 2.2969,5.2773 3.1953,8.1562 0.28125,0.90234 0.97656,1.6133 1.8711,1.9219 0.89062,0.30469 1.8789,0.16406 2.6523,-0.375 2.1562,-1.5039 3.9961,-2.7031 5.7891,-3.7734 1.8281,-1.0859 45.301,-26.414 89.121,-7.3945 0.31641,0.13672 0.64844,0.21875 0.98047,0.23828 l 0.73047,0.50391 0.42969,0.25 0.70703,0.32422 c 0.58594,0.27344 1.1758,0.54297 1.7656,0.84375 4.4766,2.2734 16,8.7773 26.301,20.016 l 0.35156,0.32812 c 22.93,18 42.066,35.844 56.883,53.043 4.9648,5.7617 12.625,15.207 20.938,27.508 10.285,15.219 18.695,31.68 25,48.926 2.4219,6.6328 4.0508,12.219 4.1289,17.945 0.082,6.3672 -2.0352,12 -5.8008,15.457 -3.0547,2.7656 -7.6484,3.9922 -12.305,3.2617 z m -316.34,-9.3984 c 3.6875,0.4375 6.0508,2.8086 9.0391,5.8125 3.3867,3.4023 7.6055,7.6367 14.852,9.4453 2.9688,0.74219 5.9375,0.64844 8.6953,0.44141 l 0.36719,-0.0273 c 7.5859,-0.57422 19.047,-1.4414 35.629,-8.0586 1.6094,2.7422 3.3359,5.4766 5.2148,8.1836 -18.203,5.043 -37.441,6.9141 -55.922,5.3984 -2.2891,-0.18359 -4.6953,-0.44141 -6.6797,-1.2969 -3.3945,-1.4648 -6.2344,-4.9102 -8.9805,-8.2344 -3.0195,-3.6602 -6.3555,-7.6367 -10.824,-9.332 2.043,-1.4805 4.7422,-2.4023 7.3555,-2.4023 0.42188,0 0.83984,0.0234 1.2539,0.0703 z m 339.95,-14.41 c -0.73047,-5.1758 -2.3594,-10.18 -4.0859,-14.902 v -0.004 c -6.4688,-17.699 -15.102,-34.59 -25.656,-50.207 -8.4766,-12.539 -16.293,-22.18 -21.355,-28.059 -10.363,-12.027 -22.828,-24.352 -37.129,-36.805 24.773,17.238 47.344,35.195 67.312,53.691 0.29688,0.27344 29.645,27.73 35.492,59 0.85156,4.5625 2.6289,14.055 -1.6875,17.48 -2.9805,2.3555 -8.4727,1.4727 -12.891,-0.19531 z"
       id="path1546" />
    <path
       d="m 448.57,473.3 c 0.45313,0 0.91797,-0.10547 1.3477,-0.32812 1.457,-0.74609 2.0312,-2.5312 1.2852,-3.9844 -1.0859,-2.1133 -1.0977,-4.8867 -0.0391,-7.4141 1.0625,-2.5273 3.0469,-4.4609 5.3125,-5.1719 1.5625,-0.48828 2.4336,-2.1484 1.9453,-3.7109 -0.48438,-1.5625 -2.1484,-2.4258 -3.7109,-1.9414 -3.9727,1.2422 -7.2578,4.3516 -9.0078,8.5312 -1.7539,4.1797 -1.6719,8.7031 0.22656,12.41 0.52344,1.0195 1.5625,1.6094 2.6406,1.6094 z"
       id="path1548" />
    <path
       d="m 408.2,489.7 c 0.84375,0 1.6836,-0.35938 2.2695,-1.0547 l 13.992,-16.652 c 1.0547,-1.2539 0.88672,-3.1211 -0.36328,-4.1719 -1.2539,-1.0547 -3.1211,-0.89062 -4.1719,0.36328 l -13.996,16.648 c -1.0547,1.2539 -0.88672,3.1211 0.36328,4.1719 0.55469,0.46875 1.2305,0.69531 1.9062,0.69531 z"
       id="path1550" />
    <path
       d="m 423.02,497.49 c 0.375,0.15625 0.76172,0.22656 1.1406,0.22656 1.1562,0 2.2578,-0.68359 2.7344,-1.8203 2.4805,-5.918 4.6367,-12.043 6.4141,-18.203 0.45312,-1.5703 -0.45313,-3.2148 -2.0234,-3.668 -1.5781,-0.44922 -3.2148,0.45312 -3.668,2.0234 -1.7148,5.9453 -3.7969,11.852 -6.1875,17.562 -0.63281,1.5117 0.0781,3.2461 1.5898,3.8789 z"
       id="path1552" />
  </g>
</svg>
