<?xml version="1.0" encoding="UTF-8" standalone="no"?>
<svg
   width="1000"
   height="1000"
   version="1.1"
   viewBox="0 0 750 750"
   id="svg16"
   sodipodi:docname="1655470345163.svg"
   inkscape:version="1.2.1 (9c6d41e410, 2022-07-14, custom)"
   xmlns:inkscape="http://www.inkscape.org/namespaces/inkscape"
   xmlns:sodipodi="http://sodipodi.sourceforge.net/DTD/sodipodi-0.dtd"
   xmlns="http://www.w3.org/2000/svg"
   xmlns:svg="http://www.w3.org/2000/svg">
  <defs
     id="defs20" />
  <sodipodi:namedview
     id="namedview18"
     pagecolor="#ffffff"
     bordercolor="#666666"
     borderopacity="1.0"
     inkscape:showpageshadow="false"
     inkscape:pageopacity="0.0"
     inkscape:pagecheckerboard="0"
     inkscape:deskcolor="#d1d1d1"
     inkscape:document-units="pt"
     showgrid="false"
     showborder="false"
     borderlayer="true"
     inkscape:zoom="0.52398305"
     inkscape:cx="200.38816"
     inkscape:cy="276.72651"
     inkscape:window-width="1840"
     inkscape:window-height="1027"
     inkscape:window-x="80"
     inkscape:window-y="0"
     inkscape:window-maximized="1"
     inkscape:current-layer="svg16" />
  <path
     style="fill:#ffffff;stroke:#000000;stroke-width:0.75px;stroke-linecap:butt;stroke-linejoin:miter;stroke-opacity:1"
     d="m 328.10484,41.377789 -11.447,18.148647 -8.69565,48.151734 -30.4397,128.64955 -42.79342,65.04241 -8.21595,26.50925 5.00626,37.11515 -53.59288,44.30125 -35.24902,35.52774 -7.56781,17.42953 -1.7194,20.64388 10.17398,22.89196 23.05396,14.60015 48.54554,10.01589 45.89926,15.49478 7.78954,18.6572 8.87147,5.68331 21.15836,-9.26274 15.688,-18.30333 2.09261,-6.6631 30.16401,10.18434 -14.74118,39.57421 -31.3571,24.81336 -33.19346,12.79692 -45.82297,-1.11554 -32.54912,-18.87004 -24.49048,-24.82919 -12.51889,-10.59502 -12.78247,2.07009 -5.45465,14.00268 9.67712,25.41488 22.49179,28.79954 30.98462,18.22154 30.81892,9.3219 37.41783,0.18051 36.80412,-10.0101 28.12252,-20.83401 23.41091,-24.04391 15.06776,-19.70995 14.79661,-38.42137 33.82745,5.9491 5.89975,45.09879 -3.3861,49.07372 -2.82794,23.41992 4.57012,18.82683 16.34621,11.40457 35.67713,-1.91156 22.65882,-13.10799 1.02228,-20.28547 -11.24966,-12.79195 -11.80492,-5.29092 9.01664,-44.96364 16.37329,-55.85213 22.04453,-62.59675 19.54143,-57.00155 5.4927,-33.71322 -1.44034,-17.99679 22.51088,-6.02059 14.06034,-16.46314 2.16569,-24.98099 -6.19364,-27.57266 L 565.31595,285.83076 536.83906,251.94391 526.48107,240.91578 501.98104,91.73664 492.44155,59.663923 480.51826,41.102985 460.21339,64.610259 446.68777,87.339038 370.35186,86.721007 Z"
     id="path240" />
  <g
     id="g14"
     transform="matrix(1.5002849,0,0,1.5002849,-205.61661,-189.11626)">
    <path
       d="m 529.28,342.06 c -0.61328,-2.5898 -1.3086,-5.3242 -2.4336,-8.3945 -3.1797,-8.7305 -7.4453,-15.137 -11.828,-20.953 -8.2305,-10.934 -17.277,-20.637 -23.395,-26.871 -1.6992,-10.555 -3.5742,-22.055 -5.6445,-34.695 5.8594,-0.42188 11.684,-1.2422 17.414,-2.5078 1.9531,-0.42969 3.1875,-2.3633 2.7539,-4.3164 -0.42969,-1.9531 -2.3633,-3.1875 -4.3164,-2.7539 -5.6016,1.2383 -11.305,1.9961 -17.031,2.3711 -0.34375,-2.0977 -0.69531,-4.2422 -1.0469,-6.3984 5.6445,-1.4883 11.289,-2.9805 16.934,-4.4688 1.9336,-0.51172 3.0859,-2.4922 2.5781,-4.4258 -0.51172,-1.9336 -2.4922,-3.0859 -4.4258,-2.5781 -5.418,1.4297 -10.84,2.8633 -16.262,4.293 -0.82422,-5.0352 -1.668,-10.188 -2.5469,-15.539 v -0.004 c -0.66797,-4.0664 -3.1602,-19.312 -6.7461,-33.664 -1.8008,-7.1875 -3.8555,-14.141 -6.1953,-19.535 -1.1836,-2.7031 -2.4141,-5.0234 -3.918,-6.8984 -0.75781,-0.9375 -1.5938,-1.7773 -2.6328,-2.4531 -1.0273,-0.67188 -2.3398,-1.1758 -3.7812,-1.1719 l -0.14844,0.004 c -1.7305,0.0625 -3.0039,0.81641 -4.0195,1.6016 -1.5352,1.2188 -2.8359,2.7969 -4.4531,4.9023 -1.5977,2.1055 -3.4414,4.7344 -5.7031,7.9531 -3.9609,5.6484 -6.9688,10.734 -9.2422,14.918 -15.992,-0.0781 -31.984,-0.16016 -47.98,-0.23828 -3.8945,-4.0078 -9.418,-9.9492 -15.691,-17.633 -2.7617,-3.3789 -4.6914,-5.9219 -6.4883,-7.8555 -0.90625,-0.96875 -1.7891,-1.8047 -2.8711,-2.5 -1.0625,-0.6875 -2.4492,-1.2109 -3.9062,-1.1992 l -0.66797,0.0352 c -1.5586,0.14844 -2.9336,0.83984 -3.9805,1.6914 -1.8398,1.5156 -2.9883,3.4609 -4,5.625 -1.4883,3.2461 -2.5625,7.1055 -3.457,10.969 -0.88281,3.8516 -1.5625,7.6953 -2.1094,10.719 -0.0391,0.21875 -1.1289,5.9141 -11.086,51.477 -5.9023,-1.1484 -11.699,-2.8594 -17.258,-5.1523 -1.8477,-0.76172 -3.9648,0.11719 -4.7305,1.9648 -0.76172,1.8477 0.11719,3.9648 1.9648,4.7305 5.9531,2.457 12.156,4.2891 18.477,5.5312 -0.32422,1.4883 -0.66016,3.0078 -1,4.5703 -0.22656,0.004 -0.45312,0.0156 -0.67969,0.0156 -4.9336,0 -9.8672,-0.5 -14.703,-1.4844 -1.9609,-0.39844 -3.8711,0.86328 -4.2734,2.8242 -0.39844,1.9609 0.86328,3.8711 2.8242,4.2734 5.0039,1.0234 10.109,1.5234 15.219,1.5859 -2.7148,11.879 -5.9609,23.258 -9.3633,33.789 -7.9922,12.793 -13.949,21.422 -18.57,27.59 -2.457,3.2734 -7.7031,10.195 -11.637,20.609 -1.1133,2.9375 -1.9141,5.7695 -2.6172,8.7344 -0.77344,3.2578 -1.1875,6.6523 -1.1875,10.055 0,4.5312 0.77344,9.1133 2.4375,13.367 -0.14453,0.5625 -0.29297,1.082 -0.4375,1.6992 -0.20312,0.86328 -0.49219,2.1406 -0.80859,3.7734 -14.441,10.758 -26.109,20.695 -34.922,28.684 -7.7227,7.0039 -13.703,12.883 -18.211,18.801 -4.5039,5.9062 -7.4961,11.93 -8.9727,18.797 -0.69922,3.2266 -0.96094,6.1172 -0.96094,8.6328 -0.008,5.3945 1.2344,9.0977 1.8008,10.574 3.6602,9.6289 11.324,14.461 15.195,16.883 1.8984,1.1992 4.1562,2.3594 8.0469,3.5352 3.918,1.1992 9.6367,2.5508 19.227,4.4883 0,0 0.24219,0.0508 0.73438,0.15234 3.4258,0.71875 18.395,3.9883 35.254,9.3594 h 0.004 c 2.2148,0.70312 4.3047,1.4414 6.1719,3.3516 1.6641,1.7539 2.0508,3.1211 2.5742,5.1445 0.25391,1 0.49219,2.1445 1.0039,3.4336 0.50391,1.2812 1.375,2.7148 2.7266,3.8477 2.332,1.9648 5.2148,2.5938 7.9609,2.5938 3.1328,-0.008 6.3086,-0.78906 9.3398,-1.957 3.0273,-1.1758 5.8906,-2.75 8.3008,-4.543 0.65234,-0.48828 3.5312,-2.6914 6.3594,-6.3477 1.5938,-2.0664 3.1797,-4.6602 4.2773,-7.6797 4.7539,1.7578 9.3555,3.1875 13.719,4.3945 -2.2891,7.9023 -5.8711,15.285 -10.738,21.75 -8.8906,11.793 -21.844,20.625 -38.551,24.32 -3.5273,0.77734 -7.043,1.1445 -10.547,1.1445 -17.406,0.0312 -34.613,-9.1875 -47.992,-22.102 l -0.008,0.004 c -2.0703,-1.9688 -4.9219,-5.8125 -8.207,-9.2461 -1.6602,-1.7227 -3.4609,-3.375 -5.5273,-4.6758 -2.0547,-1.2891 -4.4648,-2.2617 -7.1719,-2.2656 -2.1641,-0.008 -4.4062,0.66797 -6.4258,1.9727 -1.9766,1.2539 -3.4805,2.9766 -4.375,4.875 -0.90625,1.8984 -1.2305,3.9023 -1.2305,5.8203 0.008,2.8242 0.66797,5.5273 1.4961,8.0391 0.83203,2.5039 1.8555,4.8203 2.6992,6.7266 6.8477,15.43 17.719,26.938 30.539,34.504 12.82,7.5742 27.566,11.25 42.316,11.254 16.527,-0.004 33.098,-4.6094 47.07,-13.668 17.281,-11.199 30.082,-24.512 38.512,-39.754 3.8242,-6.9023 6.6953,-14.207 8.7422,-21.844 5.2305,0.94531 10.719,1.7148 16.379,2.0859 2.6328,12.715 3.6445,23.812 3.6445,33.41 0,7.9141 -0.67578,14.828 -1.6719,20.836 -0.67578,4.1133 -2.043,10.84 -2.0469,17.898 0.004,3.625 0.35938,7.3672 1.4336,10.965 1.0742,3.5898 2.9062,7.0625 5.832,9.875 3,2.8789 6.6172,4.582 10.195,5.5664 3.5859,0.98828 7.1719,1.2812 10.348,1.2852 4.875,0 8.8477,-0.71875 10.141,-0.95312 h -0.004 c 3.2188,-0.58203 7.1758,-1.3945 11.031,-3.1328 3.8359,-1.7227 7.6758,-4.4922 10.102,-8.9141 1.5195,-2.7773 2.2266,-5.875 2.2305,-8.9414 -0.004,-3.0273 -0.6875,-6.0469 -2.1016,-8.75 -1.4062,-2.6914 -3.5859,-5.0781 -6.4961,-6.5898 -1.8086,-0.92578 -3.4766,-1.4297 -4.6445,-1.9766 -0.58594,-0.26562 -1.0352,-0.52344 -1.3281,-0.75 l -0.56641,-0.60938 c -0.23828,-0.41797 -0.35547,-0.9375 -0.35547,-1.5938 -0.004,-0.77734 0.18359,-1.6094 0.35547,-2.2734 8.2305,-32.285 14.406,-53.789 18.516,-67.199 2.0547,-6.707 3.5938,-11.387 4.6133,-14.379 0.51172,-1.4961 0.89062,-2.5703 1.1406,-3.2656 0.125,-0.34766 0.21875,-0.60156 0.27734,-0.76172 l 0.082,-0.22266 c 1.8047,-4.6992 4.168,-10.984 6.8672,-18.5 4.6094,-10.008 7.7695,-19.992 10.367,-28.387 3.4023,-10.977 5.3438,-20.684 5.332,-34.293 0,-1.8086 -0.0391,-3.6914 -0.10547,-5.6523 2.0195,-0.33594 4.0156,-0.79687 5.9492,-1.4609 4.3828,-1.5039 8.4922,-3.9531 11.895,-7.5586 5.8516,-6.2148 8.2188,-14.535 8.2188,-22.66 0,-3.4219 -0.41406,-6.8164 -1.1875,-10.078 z m -21.281,33.43 c -3.4375,1.1836 -7.3047,1.7109 -11.383,1.7109 -6.5742,0.004 -13.652,-1.375 -20.109,-3.2812 -14.082,-4.1445 -27.711,-9.9023 -38.852,-18.816 -11.133,-8.8828 -19.727,-21.281 -22.023,-34.91 -0.34375,-2.0273 -0.54297,-4.0781 -0.54297,-6.082 0,-3.3477 0.54687,-6.5391 1.8086,-9.3711 0.97656,-2.207 2.5234,-4.2539 4.3633,-5.7539 1.8438,-1.5078 3.9414,-2.457 6.0977,-2.6914 0.35547,-0.0391 0.71484,-0.0586 1.0742,-0.0586 2.0352,-0.004 4.1406,0.61719 6.082,1.7422 1.9375,1.1211 3.6875,2.7461 4.9648,4.6016 2.7266,3.9336 3.875,9.125 3.8672,14.43 l -0.008,0.80078 h 0.004 c -0.0117,0.57812 -0.0351,1.2266 -0.0351,1.9297 0.004,1.0664 0.0469,2.2539 0.31641,3.5391 0.26953,1.2773 0.80469,2.6836 1.8047,3.9414 l 0.004,0.004 c 2.1484,2.668 4.9375,3.418 6.0508,3.7422 4.1758,1.168 10.188,2.2891 15.445,3.1836 5.2422,0.88672 9.668,1.5234 10.43,1.6328 1.9805,0.28125 3.8125,-1.0938 4.0977,-3.0742 0.28125,-1.9805 -1.0938,-3.8125 -3.0742,-4.0977 -0.71875,-0.10156 -5.0977,-0.73047 -10.238,-1.6016 -5.1289,-0.86719 -11.078,-1.9961 -14.69901,-3.0156 -0.86719,-0.22656 -1.83589,-0.62109 -2.3398,-1.2812 -0.14453,-0.1875 -0.28125,-0.44531 -0.39062,-0.94531 -0.10938,-0.49219 -0.16016,-1.1953 -0.15625,-2.0234 0,-0.54297 0.0195,-1.1367 0.0312,-1.7734 v -0.004 l 0.0117,-0.94922 c -0.004,-6.293 -1.3047,-12.945 -5.1484,-18.539 -1.8945,-2.7422 -4.3945,-5.0742 -7.293,-6.7578 -2.8984,-1.6797 -6.2227,-2.7188 -9.7148,-2.7188 -0.61328,0 -1.2344,0.0312 -1.8555,0.10156 -3.7578,0.40625 -7.1445,2.0234 -9.9062,4.2852 -2.7656,2.2656 -4.9531,5.1836 -6.3945,8.418 -1.7656,3.9688 -2.4336,8.1914 -2.4336,12.312 0,2.4766 0.24219,4.9258 0.64453,7.2969 2.707,15.848 12.418,29.578 24.641,39.355 12.215,9.7539 26.734,15.801 41.324,20.105 6.918,2.0352 14.59,3.5703 22.156,3.5781 0.19141,0 0.38281,-0.0156 0.57031,-0.0195 0.0547,1.75 0.082,3.4258 0.082,5.0312 -0.0156,12.953 -1.7422,21.539 -5.0078,32.156 -1.4141,4.5781 -2.9922,9.5586 -4.832,14.68 -0.57031,0.42187 -1.0586,0.95703 -1.3086,1.6758 -4.4062,12.805 -8.2773,23.145 -10.938,30.074 -0.0703,0.1875 -8.3789,21.879 -24.891,86.641 -0.19141,0.77344 -0.57812,2.2461 -0.57812,4.0625 0,1.5234 0.28125,3.375 1.3047,5.1719 0.66406,1.1719 1.5586,2.1016 2.4727,2.793 1.3789,1.0391 2.7695,1.625 3.9883,2.1172 1.2188,0.48438 2.2852,0.87891 3.0391,1.2734 1.4492,0.75391 2.5938,1.957 3.418,3.5234 0.82031,1.5586 1.2773,3.4688 1.2734,5.3867 0.004,1.9414 -0.46094,3.8711 -1.3359,5.4531 -1.4805,2.6875 -3.8125,4.4727 -6.7344,5.8008 -2.9023,1.3164 -6.293,2.0625 -9.3281,2.6016 h -0.004 c -1.1797,0.21484 -4.6641,0.83594 -8.8555,0.83594 -2.7109,0.004 -5.6875,-0.26562 -8.418,-1.0234 -2.7422,-0.75781 -5.1953,-1.9766 -7.1016,-3.8086 -1.8594,-1.7891 -3.1055,-4.0469 -3.9141,-6.7305 -0.80469,-2.6758 -1.1328,-5.7461 -1.1289,-8.8828 -0.004,-6.1445 1.2344,-12.418 1.9492,-16.711 1.0586,-6.375 1.7695,-13.695 1.7695,-22.02 0.004,-19.836 -4.043,-45.355 -16.91,-77.535 -0.74219,-1.8555 -2.8516,-2.7617 -4.707,-2.0195 -1.8555,0.74219 -2.7617,2.8516 -2.0195,4.707 4.9648,12.418 8.5234,23.719 11.062,34.059 -9.0352,-0.77344 -17.809,-2.6289 -25.945,-4.3789 -8.3945,-1.7969 -19.766,-4.2734 -31.703,-8.8086 0.004,-0.13672 0.0234,-0.26562 0.0234,-0.40234 0,-0.74609 -0.0391,-1.5078 -0.12109,-2.2773 -0.42187,-4.0039 -1.9336,-7.3477 -3.7227,-10.035 -1.793,-2.6953 -3.8555,-4.7969 -5.5117,-6.5117 -3.0078,-3.1094 -6.2773,-5.4258 -10.18,-7.4883 -2.8945,-1.5352 -6.1445,-2.9609 -10.039,-4.5859 0.0195,-0.008 0.0352,-0.0156 0.0547,-0.0234 4.3516,-2.2305 6.9102,-5.4258 8.2227,-7.3867 1.1133,-1.6602 0.66797,-3.9102 -0.99609,-5.0234 -1.6602,-1.1133 -3.9102,-0.66797 -5.0234,0.99609 -0.91016,1.3594 -2.6602,3.5156 -5.5,4.9648 -2.2266,1.1367 -4.4609,1.5273 -6.543,1.5273 -1.5898,0.004 -3.0547,-0.23828 -4.2773,-0.53516 -1.3008,-0.45312 -2.5234,-0.87109 -3.5547,-1.2109 -1.8281,-0.59766 -3.8047,0.33594 -4.5039,2.125 -0.69922,1.793 0.125,3.8164 1.875,4.6133 0.53906,0.23828 2.0117,0.875 4.0898,1.4141 2.5938,0.91016 5.6367,2.0352 9.0703,3.4453 5.9141,2.4258 10.301,4.25 13.73,6.0742 3.4375,1.832 5.9141,3.6055 8.375,6.1328 1.6562,1.7031 3.3555,3.4805 4.6758,5.4727 1.3203,2 2.2695,4.1523 2.5586,6.7969 0.0547,0.51172 0.082,1.0156 0.082,1.5117 0.0117,4.2109 -1.9297,8.0039 -4.1641,10.895 -2.2148,2.875 -4.6172,4.7227 -4.9453,4.9609 -1.8125,1.3516 -4.1836,2.668 -6.5938,3.5977 -2.4023,0.9375 -4.8594,1.4766 -6.7227,1.4688 -1.6797,0 -2.7344,-0.40234 -3.2734,-0.875 -0.32031,-0.28516 -0.46484,-0.49219 -0.69141,-1.0312 -0.33984,-0.78125 -0.59375,-2.3086 -1.1953,-4.3047 -0.60938,-1.9844 -1.7344,-4.4141 -3.9102,-6.625 -3.1914,-3.2891 -6.8828,-4.4727 -9.168,-5.2031 h 0.004 c -19.684,-6.2656 -36.672,-9.6914 -36.754,-9.707 -9.4883,-1.9141 -15.059,-3.2422 -18.535,-4.3125 -3.5039,-1.0898 -4.7422,-1.7773 -6.3398,-2.7578 -3.7383,-2.3164 -9.5508,-6.1562 -12.254,-13.305 -0.38672,-1.0312 -1.3203,-3.6758 -1.332,-8.0078 0,-2.0117 0.20703,-4.3789 0.79688,-7.0977 1.2617,-5.7734 3.6406,-10.645 7.6602,-15.945 4.0156,-5.2891 9.6992,-10.93 17.309,-17.82 9.2148,-8.3516 21.613,-18.875 37.086,-30.23 l 0.004,0.004 c 3.3984,3.6055 7.5117,6.0547 11.895,7.5586 4.3906,1.5078 9.0508,2.1016 13.742,2.1055 7.5664,-0.004 15.238,-1.543 22.152,-3.5781 14.594,-4.3047 29.109,-10.352 41.324,-20.105 12.223,-9.7773 21.934,-23.508 24.641,-39.355 0.40234,-2.375 0.64453,-4.8242 0.64453,-7.3047 0,-4.1211 -0.66797,-8.3398 -2.4336,-12.309 -1.4414,-3.2305 -3.625,-6.1484 -6.3906,-8.418 -2.7617,-2.2617 -6.1445,-3.8789 -9.9062,-4.2852 -0.62109,-0.0664 -1.2383,-0.10156 -1.8555,-0.10156 -3.4961,0.004 -6.8203,1.0391 -9.7148,2.7188 -2.8984,1.6836 -5.3984,4.0156 -7.293,6.7578 -3.8438,5.5977 -5.1406,12.246 -5.1484,18.539 l 0.0117,0.95312 c 0.0117,0.63281 0.0312,1.2305 0.0312,1.7734 0.004,0.82812 -0.0469,1.5273 -0.15625,2.0234 -0.10937,0.5 -0.24219,0.75781 -0.39062,0.94531 -0.5,0.65625 -1.4648,1.0508 -2.3398,1.2812 -3.6172,1.0195 -9.5664,2.1484 -14.695,3.0156 -5.1445,0.87109 -9.5195,1.5 -10.238,1.6055 -1.9805,0.28125 -3.3555,2.1172 -3.0742,4.0977 0.28125,1.9805 2.1172,3.3555 4.0977,3.0742 0.75781,-0.10937 5.1875,-0.74609 10.426,-1.6328 5.2539,-0.89453 11.27,-2.0156 15.445,-3.1836 h 0.004 c 1.1016,-0.32812 3.8945,-1.0742 6.043,-3.7422 1,-1.2578 1.5352,-2.6641 1.8086,-3.9414 0.27344,-1.2852 0.31641,-2.4727 0.31641,-3.5391 0,-0.69922 -0.0234,-1.3477 -0.0352,-1.9258 l -0.008,-0.80078 c -0.004,-5.3086 1.1406,-10.5 3.8672,-14.43 1.2734,-1.8555 3.0234,-3.4805 4.9648,-4.6016 1.9414,-1.125 4.0469,-1.7461 6.082,-1.7422 0.35938,0 0.71875,0.0195 1.0781,0.0586 2.1602,0.23047 4.2539,1.1836 6.0977,2.6914 1.8398,1.5 3.3828,3.5469 4.3594,5.7539 1.2617,2.8281 1.8086,6.0156 1.8086,9.3633 0,2.0078 -0.19531,4.0586 -0.54297,6.0898 -2.2969,13.629 -10.891,26.023 -22.023,34.91 -11.141,8.9102 -24.766,14.668 -38.852,18.816 -6.457,1.9062 -13.531,3.2852 -20.105,3.2812 -4.0781,0 -7.9492,-0.52734 -11.387,-1.7109 -3.4414,-1.1875 -6.4492,-3.0039 -8.9844,-5.6836 -4.2539,-4.4883 -6.2461,-10.922 -6.2422,-17.691 0,-2.8125 0.34375,-5.6602 0.99219,-8.3828 0.66016,-2.7773 1.3672,-5.2695 2.3438,-7.8398 3.5898,-9.4609 8.2461,-15.609 10.66,-18.832 5.3555,-7.1406 12.312,-17.297 21.914,-32.93 0.74219,-1.207 0.65625,-2.668 -0.043,-3.7969 2.9414,-9.6367 5.7148,-19.867 8.043,-30.492 13.613,-62.113 14.566,-67.383 14.598,-67.551 l -0.0195,0.0156 c 0.83203,-4.625 1.9414,-10.887 3.4844,-15.844 0.75781,-2.4688 1.6523,-4.6016 2.4805,-5.8867 0.40625,-0.64453 0.78906,-1.0586 1.0156,-1.2344 l 0.0977,-0.0664 c 0.35156,0.19141 1.3008,1.0469 2.5586,2.5547 1.2891,1.5156 2.9453,3.6367 5.1055,6.2852 7.0195,8.5977 13.164,15.109 17.184,19.203 0.67969,0.69141 1.5977,1.0781 2.5664,1.0859 17.219,0.0859 34.441,0.17188 51.66,0.25781 1.3516,0.008 2.5938,-0.73828 3.2227,-1.9336 2.2422,-4.2578 5.4531,-9.8477 9.8242,-16.078 3.0039,-4.2852 5.2539,-7.4766 6.875,-9.4219 0.70703,-0.85156 1.2578,-1.4062 1.6328,-1.7266 0.35938,0.32422 0.9375,0.95312 1.543,1.9531 1.6211,2.5703 3.4219,7.0625 5.043,12.281 4.918,15.738 8.6133,38.18 9.4297,43.18 4.0781,24.867 7.5859,46.215 10.578,64.711 -0.47656,0.17969 -0.92578,0.44141 -1.3047,0.82812 -1.4023,1.4258 -1.3828,3.7188 0.043,5.1211 5.2148,5.1211 16.906,16.961 27.035,30.418 4.2109,5.6055 7.9414,11.234 10.809,19.082 0.97656,2.6758 1.5898,5.0703 2.1875,7.582 0.64844,2.7227 0.99219,5.5742 0.99219,8.3867 0,6.7656 -1.9883,13.199 -6.2422,17.688 -2.5391,2.6797 -5.5469,4.4961 -8.9883,5.6836 z m -246.12,181.32 c -11.602,-6.8672 -21.355,-17.16 -27.605,-31.211 -0.83594,-1.875 -1.7539,-3.9805 -2.4453,-6.0625 -0.69531,-2.0781 -1.1367,-4.1289 -1.1289,-5.7578 0,-1.1172 0.1875,-2.0039 0.52344,-2.7031 0.34375,-0.69922 0.80859,-1.2852 1.7422,-1.8945 1.0352,-0.64844 1.7773,-0.82031 2.5195,-0.82812 0.91406,-0.004 2.0078,0.33594 3.3203,1.1602 1.9609,1.2148 4.1797,3.4648 6.293,5.9102 2.1367,2.4492 4.1562,5.0469 6.2656,7.0938 14.332,13.797 33.02,24.098 53.02,24.129 4.0078,0 8.0547,-0.42188 12.105,-1.3125 18.34,-4.0391 32.906,-13.906 42.777,-27.039 5.457,-7.25 9.4375,-15.5 11.957,-24.289 3.9805,0.96094 7.6641,1.7656 10.832,2.4453 1.832,0.39062 3.7266,0.79297 5.6484,1.1914 -1.8945,6.9102 -4.5078,13.5 -7.9531,19.73 -7.7969,14.078 -19.656,26.508 -36.117,37.184 -12.707,8.2461 -27.949,12.504 -43.133,12.5 -13.539,0 -27.02,-3.3867 -38.621,-10.246 z"
       id="path2" />
    <path
       d="m 339.88,501.82 -0.004,0.004 z"
       id="path4" />
    <path
       d="m 368.45,326.3 -0.004,0.004 z"
       id="path6" />
    <path
       d="m 381.64,224.54 c -2.3594,3.2734 -6.3477,5.5273 -10.371,5.8555 -0.38281,0.0312 -0.76953,0.0508 -1.1562,0.0508 -3.6758,0.0117 -7.4531,-1.5039 -10.059,-4.0586 -1.4336,-1.3945 -3.7266,-1.3633 -5.1211,0.0703 -1.3945,1.4336 -1.3633,3.7266 0.0703,5.1211 4.043,3.918 9.5156,6.1016 15.113,6.1094 0.58984,0 1.1836,-0.0234 1.7734,-0.0742 6.1992,-0.54688 11.949,-3.793 15.617,-8.8164 1.1758,-1.6172 0.81641,-3.8828 -0.80469,-5.0586 -1.6211,-1.1797 -3.8867,-0.81641 -5.0625,0.80078 z"
       id="path8" />
    <path
       d="m 456.38,223.04 c -1.9531,-0.4375 -3.8867,0.78906 -4.3281,2.7422 -0.0781,0.35938 -0.28906,0.76953 -0.67188,1.1797 -0.37891,0.41016 -0.92578,0.78906 -1.4961,1.0312 -0.92969,0.39844 -2.0977,0.58984 -3.4414,0.58984 -0.44531,0 -0.90625,-0.0195 -1.375,-0.0586 -4.9258,-0.37891 -9.7812,-2.4414 -13.473,-5.7227 -1.4961,-1.3281 -3.7852,-1.1914 -5.1133,0.30469 -1.3281,1.4961 -1.1914,3.7852 0.30469,5.1133 4.9102,4.3477 11.18,7.0078 17.715,7.5234 0.62891,0.0508 1.2773,0.0781 1.9414,0.0781 1.9922,0 4.1562,-0.26562 6.2852,-1.1719 l 0.004,-0.004 c 1.4609,-0.62891 2.8125,-1.543 3.9453,-2.75 1.125,-1.207 2.0391,-2.7383 2.4453,-4.5352 0.4375,-1.9453 -0.78906,-3.8828 -2.7422,-4.3203 z"
       id="path10" />
    <path
       d="m 417.26,248.4 c -0.19922,0.25781 -0.71094,0.53906 -1.4961,0.53906 -0.56641,0.004 -1.1797,-0.17188 -1.5898,-0.42969 h -0.004 c -0.60938,-0.375 -1.1602,-0.96094 -1.6172,-1.7617 -0.45703,-0.79688 -0.79297,-1.7969 -0.95313,-2.8125 -0.28516,-1.793 -1.8516,-3.0977 -3.668,-3.0508 -1.8125,0.0469 -3.3164,1.4258 -3.5117,3.2305 -0.10547,0.99609 -0.40234,1.9922 -0.83203,2.7891 -0.43359,0.80078 -0.96875,1.3828 -1.5586,1.7539 -0.38281,0.24609 -0.97266,0.41797 -1.5273,0.41406 -0.79688,-0.004 -1.3203,-0.30078 -1.5078,-0.55859 -1.2422,-1.5664 -3.5195,-1.832 -5.0859,-0.58984 -1.5664,1.2422 -1.832,3.5195 -0.58984,5.0859 1.8789,2.3516 4.6406,3.3086 7.1836,3.3047 1.8555,-0.004 3.707,-0.48438 5.3555,-1.5078 0.88281,-0.55078 1.6445,-1.2188 2.3086,-1.9453 0.64453,0.67188 1.3633,1.3008 2.1992,1.8164 1.6602,1.0195 3.5195,1.5078 5.3945,1.5117 2.4766,0.004 5.168,-0.90234 7.0547,-3.1406 1.2812,-1.5352 1.0781,-3.8203 -0.45703,-5.1016 -1.5312,-1.2891 -3.8125,-1.082 -5.0977,0.45312 z"
       id="path12" />
  </g>
</svg>
