<?xml version="1.0" encoding="UTF-8" standalone="no"?>
<svg
   width="1000"
   height="1000"
   version="1.1"
   viewBox="0 0 750 750"
   id="svg14"
   sodipodi:docname="1655470379226.svg"
   inkscape:version="1.2.1 (9c6d41e410, 2022-07-14, custom)"
   xmlns:inkscape="http://www.inkscape.org/namespaces/inkscape"
   xmlns:sodipodi="http://sodipodi.sourceforge.net/DTD/sodipodi-0.dtd"
   xmlns="http://www.w3.org/2000/svg"
   xmlns:svg="http://www.w3.org/2000/svg">
  <defs
     id="defs18" />
  <sodipodi:namedview
     id="namedview16"
     pagecolor="#ffffff"
     bordercolor="#666666"
     borderopacity="1.0"
     inkscape:showpageshadow="false"
     inkscape:pageopacity="0.0"
     inkscape:pagecheckerboard="0"
     inkscape:deskcolor="#d1d1d1"
     inkscape:document-units="pt"
     showgrid="false"
     showborder="false"
     inkscape:zoom="0.41938165"
     inkscape:cx="135.91439"
     inkscape:cy="283.75109"
     inkscape:window-width="1840"
     inkscape:window-height="1027"
     inkscape:window-x="80"
     inkscape:window-y="0"
     inkscape:window-maximized="1"
     inkscape:current-layer="svg14" />
  <path
     style="fill:#ffffff;stroke:#000000;stroke-width:0.75px;stroke-linecap:butt;stroke-linejoin:miter;stroke-opacity:1"
     d="m 269.21504,89.70552 -11.48686,5.848882 -12.85287,28.618048 -13.54474,45.14993 -8.27348,56.93655 -12.83918,56.20213 -20.68584,41.13163 -25.56595,25.78272 -43.28553,19.74976 -25.23844,3.28496 3.280343,-12.66821 -11.610293,-10.31321 -7.387252,5.2485 -3.340568,-17.25915 -14.511951,-6.7742 -14.977651,9.88906 -10.621847,-4.65891 -6.221909,7.32859 -4.499584,13.83591 7.122554,21.37371 19.093497,22.06929 22.377494,10.06505 37.019587,4.54669 59.21693,-7.49514 -25.04332,38.61839 -14.45737,33.37597 -4.99455,36.99284 4.07705,40.86486 19.87702,42.19829 33.45848,27.41625 36.73815,15.13957 39.38523,6.88541 40.5012,-7.69664 26.55176,-11.26711 39.0692,6.62975 38.90512,-1.03862 31.95956,-7.69026 33.854,14.66483 36.27919,3.57847 33.67841,-8.30647 30.21088,-16.63534 26.28338,-33.58672 11.24238,-36.58725 1.5027,-39.04724 -13.90258,-48.74749 -24.80546,-51.58721 52.43538,13.38123 38.50416,-2.69605 33.63798,-9.827 18.87174,-17.52424 11.23022,-26.4327 0.45784,-23.41426 -9.59668,-8.25501 -14.76707,3.9854 -7.57119,-10.70049 -10.14179,-1.55385 -12.88185,9.38164 1.26587,10.79306 -11.01751,2.91144 -6.94502,6.80043 9.41357,16.72135 -51.31074,-7.41347 -47.0292,-28.36907 -31.86929,-40.61815 -19.85335,-46.64291 -10.95451,-65.11869 -11.69707,-42.35376 -14.78204,-37.81386 -13.6771,-14.1238 -16.11185,1.89219 -17.95086,28.42723 -54.37747,-9.77583 -47.44266,0.64924 -25.63896,10.14802 -22.07803,-31.363245 z"
     id="path248" />
  <g
     id="g12"
     transform="matrix(1.5836796,0,0,1.5836793,-218.9638,-226.4656)">
    <path
       d="m 598.2,358.22 c -1.0312,-1.418 -2.4414,-2.6211 -4.1211,-3.4023 -1.6797,-0.78906 -3.582,-1.1641 -5.6133,-1.1641 -1.793,0.004 -3.7109,0.3125 -5.7617,0.85938 -0.75,-1.6953 -1.7812,-3.1602 -3.0938,-4.2461 -2.2461,-1.8711 -5.0078,-2.6562 -7.6367,-2.6523 -3.3047,0.0117 -6.5312,1.1562 -9.1133,3.2461 -2.5703,2.0664 -4.5195,5.3203 -4.5078,9.168 0,0.11719 0.0352,0.23828 0.0391,0.35547 -1.7773,0.35938 -3.3984,1.0898 -4.7188,2.1289 -1.8984,1.4805 -3.2266,3.4883 -3.9258,5.6797 -0.37891,1.1914 -0.5625,2.4141 -0.5625,3.6172 0,1.4727 0.30078,2.918 0.82422,4.2812 -9.9453,-0.28125 -22.828,-2.2031 -35.703,-9.0195 -16.645,-8.8008 -27.926,-22.969 -35.438,-36.402 -4.7305,-8.457 -7.9336,-16.555 -10.059,-22.75 7.1992,0.13281 14.395,0.26562 21.594,0.39844 1.9375,0.0352 3.5391,-1.5078 3.5742,-3.4453 0.0352,-1.9375 -1.5078,-3.5391 -3.4453,-3.5742 -7.9922,-0.14844 -15.977,-0.29297 -23.969,-0.44141 -0.16406,-0.55078 -0.33203,-1.1211 -0.46484,-1.5742 -0.46875,-1.5977 -0.89844,-3.1953 -1.3047,-4.793 6.8047,-1.582 13.695,-2.8086 20.633,-3.625 1.9258,-0.22656 3.3008,-1.9688 3.0742,-3.8945 -0.2266,-1.9257 -1.9688,-3.3008 -3.8945,-3.0742 -7.2031,0.84766 -14.348,2.1211 -21.406,3.7617 -2.0977,-9.7852 -3.4766,-19.605 -5.3242,-29.723 -2.5781,-14.113 -6.125,-28.801 -14.062,-44.422 -2.5234,-4.9531 -5.0508,-8.6445 -7.8281,-11.266 -2.7461,-2.6055 -5.957,-4.1719 -9.3203,-4.1602 -2.2617,-0.004 -4.4297,0.69922 -6.3633,1.8203 -2.9102,1.6992 -5.4219,4.293 -7.8359,7.5312 -1.9531,2.6328 -3.832,5.7305 -5.6797,9.1797 -14.215,-3.2695 -29.59,-6.6133 -44.938,-6.6211 -10.961,-0.004 -21.934,1.7617 -32.297,6.5508 -2.7188,-5.1406 -5.4883,-9.6602 -8.4258,-13.164 -1.7656,-2.0938 -3.5938,-3.8555 -5.6133,-5.1641 -2.0117,-1.3008 -4.293,-2.1641 -6.7383,-2.1641 -1.6875,-0.004 -3.3867,0.42578 -4.9414,1.2227 -2.3438,1.2031 -4.3633,3.1445 -6.2383,5.7305 -1.875,2.5938 -3.6289,5.8711 -5.3398,9.957 -6.7461,16.102 -10.008,30.297 -12.301,43.594 -1.7578,10.203 -2.9688,19.863 -4.7266,29.535 -5.9766,-2.0625 -12.09,-3.7305 -18.297,-4.9258 -1.9023,-0.36719 -3.7422,0.87891 -4.1094,2.7812 -0.36719,1.9023 0.87891,3.7422 2.7812,4.1094 6.1914,1.1914 12.285,2.8711 18.23,4.9766 -0.13672,0.63281 -0.23828,1.2617 -0.37891,1.8984 -0.27734,1.2422 -0.57422,2.543 -0.88281,3.8828 -5.8203,-0.83203 -11.637,-1.6602 -17.457,-2.4883 -1.918,-0.27344 -3.6953,1.0625 -3.9688,2.9805 -0.27344,1.918 1.0586,3.6953 2.9805,3.9688 5.5977,0.79688 11.191,1.5938 16.789,2.3945 -1.8555,7.3008 -4.2852,15.418 -7.832,23.469 -5.4219,12.305 -13.375,24.328 -25.676,33.02 -11.711,8.2891 -24.324,11.367 -34.141,12.5 0.11328,-0.60938 0.21875,-1.2227 0.21094,-1.8281 -0.0117,-2.9414 -1.2148,-5.6289 -3.1211,-7.6445 -1.9023,-2.0078 -4.6406,-3.4062 -7.7539,-3.4102 -0.17969,0 -0.35937,0.0352 -0.53906,0.0469 -0.30469,-3.6523 -2.0586,-6.8164 -4.5391,-8.9297 -2.7383,-2.3477 -6.25,-3.6367 -9.8672,-3.6484 -2.3594,0 -4.7891,0.57422 -6.9805,1.8594 -1.043,0.60938 -2.0195,1.3906 -2.8984,2.3125 -1.2383,-0.76562 -2.8242,-1.4453 -4.7773,-1.4531 l -0.42188,0.0117 h 0.0117 c -2.0117,0.10547 -3.7227,0.96484 -5,1.9844 -1.9258,1.5547 -3.1406,3.4766 -4.0547,5.1719 -0.89453,1.6953 -1.4453,3.2031 -1.6953,3.9219 l -0.004,0.0156 -0.0899,0.26563 -0.0156,0.043 c -0.48438,1.5 -0.67969,3.0195 -0.67969,4.5 0.0234,4.3594 1.5938,8.3906 3.2188,11.68401 1.6328,3.27339 3.4219,5.8242 4.0977,6.793 1.7148,2.4531 4.7422,6.72269 9.9453,10.77 6.1133,4.7656 12.793,7.3398 19.422,8.7617 6.6367,1.4219 13.254,1.7383 19.508,2.0117 1.7773,0.0781 3.7109,0.125 5.7891,0.125 6.957,0 15.543,-0.55078 25.281,-2.375 -15.988,19.844 -24.105,43.375 -24.109,65.863 0,15.777 4.0078,31.062 12.152,44.121 13.172,21.086 37.305,36.855 64.797,39.82 3.1641,0.33984 6.2383,0.49219 9.207,0.49219 20.309,-0.004 35.758,-7.125 42.902,-10.98 8.2734,2.1641 19.422,4.2188 32.711,4.2188 0.55859,0 1.125,-0.004 1.6914,-0.0117 14.793,-0.19531 27.031,-2.8984 35.84,-5.5742 5.418,2.9961 21.812,11.223 42.152,11.25 8.4688,0 17.629,-1.457 26.836,-5.375 19.738,-8.4023 29.605,-23.727 32.48,-28.301 7.6914,-12.266 11.32,-26.812 11.316,-42.328 -0.0117,-22.387 -7.5039,-46.859 -21.406,-70.18 11.469,3.9102 24.348,6.25 37.141,6.2578 14.43,-0.004 28.785,-2.9727 40.691,-10.273 2.6094,-1.6094 4.9297,-3.9141 7.0625,-6.6289 3.1875,-4.0742 5.9219,-9.1094 7.9219,-14.324 1.9883,-5.2227 3.2461,-10.594 3.2539,-15.496 -0.0117,-3.6289 -0.67969,-7.1172 -2.7539,-9.9805 z m -19.16,40.445 c -10.441,6.4258 -23.539,9.2422 -37.02,9.2344 -15.262,0.008 -30.934,-3.6289 -43.477,-9.2695 -5.0078,-5.4414 -8.4141,-12.41 -9.6289,-19.707 -0.32031,-1.9102 -2.1289,-3.2031 -4.0391,-2.8828 -1.9102,0.32031 -3.2031,2.1289 -2.8828,4.0391 1.4219,8.4766 5.2852,16.465 11.016,22.867 0.0703,0.14063 0.10547,0.29297 0.19922,0.42969 17.027,25.031 26.078,51.887 26.066,75.461 -0.004,14.441 -3.3633,27.621 -10.246,38.602 -2.6406,4.2266 -11.625,18.066 -29.281,25.574 -8.2422,3.5039 -16.414,4.8125 -24.09,4.8125 -20.305,0.0273 -37.043,-9.3242 -39.969,-11.051 -0.85547,-0.5 -1.8828,-0.61328 -2.8281,-0.3125 -0.10547,0.0352 -0.22656,0.0664 -0.33203,0.10156 -0.34766,-0.53516 -0.79297,-1.0117 -1.4141,-1.2969 -8.9023,-4.0977 -17.805,-8.1914 -26.707,-12.289 6.2812,-4.3945 13.625,-9.7969 21.738,-17.988 2.8477,-2.875 4.6875,-4.9805 6.625,-7.0938 1.9414,-2.1172 4.0078,-4.2812 7.4961,-7.4961 5.2461,-4.832 9.3203,-7.9805 12.406,-10.07 3.0938,-2.0938 5.1641,-3.1211 6.5742,-3.7812 3.8008,-1.7695 7.2812,-2.8633 10.07,-3.5547 0.93359,0.25781 1.9609,0.16016 2.8359,-0.41016 0.62891,-0.41016 1.3242,-0.72656 1.9883,-1.0898 0.29688,-0.15234 0.59375,-0.30859 0.87891,-0.48047 4.3555,-2.1797 9.3438,-3.4062 14.387,-3.4023 1.957,0 3.9141,0.17578 5.8359,0.53125 1.9062,0.35156 3.7344,-0.90625 4.0859,-2.8125 0.3515,-1.90625 -0.90625,-3.7344 -2.8125,-4.0859 -2.3516,-0.43359 -4.7344,-0.64453 -7.1094,-0.64453 -3.668,0.004 -7.3164,0.51953 -10.812,1.5039 -0.26953,-0.58594 -0.59766,-1.1094 -0.94531,-1.5312 -1.2188,-1.4688 -2.6172,-2.3086 -3.8359,-2.9688 -1.2109,-0.63672 -2.2969,-1.0508 -2.7734,-1.2305 -2.25,-0.85938 -4.4609,-1.1641 -6.4414,-1.1641 -2.2266,0.004 -4.1484,0.37891 -5.6797,0.80469 -1.3242,-0.93359 -2.9805,-1.9766 -4.9922,-2.9609 h -0.004 c -0.29297,-0.125 -7.75,-3.7852 -18.176,-3.8047 h -0.0508 c -5.5195,0.0156 -11.801,1.4258 -18.43,4.1953 -5.9883,2.5078 -12.25,6.207 -18.398,11.012 -1.0547,-0.59766 -2.1875,-1.2148 -3.4648,-1.8477 -1.1172,-0.55469 -3.8359,-1.8672 -7.4961,-3.2188 -10.012,-3.6797 -18.395,-6.8086 -26.266,-7.9648 -2.4219,-0.35156 -4.8828,-0.51953 -7.3555,-0.51953 -5.6289,0.004 -11.293,0.92969 -16.676,2.5469 -2.8945,-1.9922 -7.1211,-4.4375 -12.742,-6.1172 -5.1172,-1.5234 -9.6484,-1.8945 -13,-1.8945 -0.37891,0 -0.73828,0.004 -1.0859,0.0117 -1.9375,0.0469 -3.4688,1.6562 -3.4258,3.5938 0.0469,1.9375 1.6523,3.4688 3.5898,3.4258 0.29297,-0.008 0.59766,-0.0117 0.91797,-0.0117 2.832,0 6.668,0.3125 10.996,1.6016 2.4414,0.73047 4.5625,1.6367 6.4062,2.5742 -6.9766,3.3789 -13.023,8.1328 -16.895,14.223 -0.16797,0.26953 -1.1523,1.8359 -2.1445,3.8477 -0.49609,1.0078 -0.99609,2.125 -1.3984,3.2969 -0.39453,1.1797 -0.72656,2.3828 -0.73828,3.8086 0,0.59766 0.0664,1.25 0.28906,1.9531 0.22266,0.69922 0.63281,1.4648 1.2695,2.0898 0.63281,0.62891 1.3906,1.0273 2.082,1.2422 0.69922,0.21875 1.3359,0.27734 1.9219,0.28125 0.10156,0 0.17969,-0.0312 0.27734,-0.0352 -0.043,0.46875 -0.0976,0.94141 -0.0976,1.4062 0,3.1836 1.0234,6.3398 3.3516,8.6211 1.3594,1.3242 2.9414,2.1289 4.4375,2.5898 1.5039,0.46094 2.9375,0.60547 4.1914,0.60547 1.4258,-0.004 2.5938,-0.17578 3.5195,-0.41797 2.8047,-0.75391 5.0898,-2.0547 7.1172,-3.293 0.70703,0.55859 1.5273,1.1602 2.5273,1.7695 2.4844,1.5078 5.875,3.0234 9.9219,3.0391 0.96875,0 1.9727,-0.0898 2.9883,-0.29297 4.3008,-0.87891 7.5156,-3.3906 9.8125,-5.7695 2.293,-2.3867 3.7656,-4.7891 4.3633,-5.7539 0.96094,-1.5547 1.4883,-2.7695 1.9297,-3.6406 0.44922,-0.87891 0.79297,-1.4883 1.6836,-2.5391 1.2422,-1.4336 2.875,-2.9297 6.5195,-4.7852 4.1641,-2.1016 9.2773,-3.7031 13.715,-4.793 4.4414,-1.0977 8.1992,-1.707 9.7734,-1.9492 0.11328,-0.0156 0.21094,-0.0742 0.32031,-0.10156 0.10547,-0.0273 0.20703,-0.0625 0.30859,-0.0976 0.33594,-0.12109 0.64062,-0.28125 0.92188,-0.49219 0.0469,-0.0352 0.10547,-0.043 0.15234,-0.082 6.2578,-5.1719 12.66,-8.9688 18.598,-11.457 5.9336,-2.4922 11.418,-3.6523 15.727,-3.6523 h 0.0351 c 4.3672,0 8.2109,0.79297 10.93,1.5859 1.3594,0.39453 2.4336,0.78906 3.1562,1.0742 0.35938,0.14453 0.62891,0.26172 0.80078,0.33594 l 0.18359,0.082 0.0274,0.0117 c 2.3125,1.1328 4.0781,2.3711 5.2578,3.293 0.95313,0.74219 2.2148,0.94531 3.3516,0.53906 1.1797,-0.42578 3.0781,-0.96094 5.1484,-0.96094 1.2734,0 2.6016,0.19141 3.9375,0.70312 l 0.008,0.004 c 0.54688,0.20312 1.8047,0.70312 2.7344,1.3086 0.24219,0.15234 0.44531,0.30859 0.60938,0.44531 -0.0703,0.0625 -0.11328,0.11328 -0.21094,0.17969 -0.0469,0.0312 -0.11719,0.0664 -0.16797,0.10156 -0.25391,0.12891 -0.49609,0.27344 -0.74609,0.41016 -0.17578,0.082 -0.35547,0.16406 -0.55469,0.23437 -3.418,0.69531 -8.3516,1.9844 -13.93,4.5859 -1.6172,0.75 -4.1367,2.0195 -7.5469,4.332 -3.418,2.3164 -7.7695,5.6914 -13.227,10.719 -3.625,3.3359 -5.9023,5.7188 -7.9141,7.9141 -2.0156,2.1992 -3.7383,4.168 -6.4414,6.8984 -8.793,8.875 -16.504,14.223 -23.316,18.941 -11.73,8.1367 -24.512,14.297 -35.469,18.746 -0.45313,0.0547 -0.89063,0.19531 -1.2969,0.42188 -0.19922,0.11328 -0.4375,0.24219 -0.66016,0.36328 -9.4336,3.7305 -17.324,6.1523 -21.66,7.4023 -0.74219,0.21484 -1.3086,0.69141 -1.7461,1.2578 -5.0234,1.0547 -10.605,1.75 -16.652,1.75 -2.7305,0 -5.5547,-0.14062 -8.4609,-0.45312 -25.262,-2.6836 -47.66,-17.383 -59.586,-36.555 -7.3867,-11.844 -11.086,-25.812 -11.086,-40.406 -0.004,-23.781 9.8555,-49.168 29.473,-69.25 0.41406,-0.42578 0.66016,-0.94531 0.81641,-1.4883 0.55469,-0.25391 1.0664,-0.60156 1.4375,-1.1406 4.7188,-6.8555 8.5195,-14.332 11.273,-22.184 0.64062,-1.8281 -0.32031,-3.832 -2.1484,-4.4727 -1.8281,-0.64062 -3.832,0.32031 -4.4727,2.1484 -2.5469,7.2617 -6.0664,14.188 -10.434,20.527 -0.19141,0.27734 -0.27734,0.58594 -0.37891,0.88672 -13.332,3.5312 -24.926,4.4609 -33.754,4.4609 -1.9688,0 -3.8008,-0.0469 -5.4844,-0.11719 -6.2188,-0.26562 -12.441,-0.59375 -18.336,-1.8633 -5.9023,-1.2734 -11.453,-3.4492 -16.586,-7.4375 -4.3828,-3.418 -6.8555,-6.8945 -8.5039,-9.25 -0.63672,-0.91016 -2.1914,-3.1445 -3.5703,-5.9102 -1.3906,-2.75 -2.5039,-6.0078 -2.4805,-8.5508 0,-0.86328 0.11328,-1.6367 0.33984,-2.3281 l 0.0742,-0.21484 c 0.23047,-0.69141 0.95312,-2.5898 1.957,-4.1094 0.49219,-0.76172 1.0547,-1.4062 1.5195,-1.7734 0.48437,-0.375 0.77344,-0.45703 1,-0.47266 l -0.004,0.004 h 0.0547 c 0.26172,-0.008 0.73438,0.13281 1.2969,0.51953 0.55469,0.375 1.1094,0.93359 1.4609,1.3438 0.76953,0.88672 1.9141,1.3281 3.082,1.1836 1.1641,-0.14453 2.1719,-0.85156 2.6992,-1.8984 0.75,-1.4688 1.668,-2.3672 2.6875,-2.9727 1.0234,-0.59766 2.1914,-0.89453 3.4297,-0.89453 1.8906,-0.008 3.8906,0.73438 5.2852,1.9492 1.4023,1.2344 2.2109,2.75 2.2266,4.7109 0,0.82031 -0.15234,1.75 -0.53906,2.8125 -0.53516,1.4531 -0.0508,3.0859 1.1836,4.0156 1.2383,0.92969 2.9375,0.94141 4.1875,0.0234 1.0625,-0.76953 1.8867,-0.96875 2.6055,-0.97656 0.96094,-0.004 1.9062,0.43359 2.6641,1.2266 0.75781,0.78906 1.1992,1.8711 1.1875,2.8086 -0.0391,1.0078 -0.32031,1.9336 -1.793,3.0625 -1.2461,0.91406 -1.75,2.5352 -1.2344,3.9961 0.51562,1.4609 1.918,2.4102 3.4648,2.3398 10.895,-0.48828 28.367,-2.9062 44.559,-14.34 13.652,-9.6523 22.297,-22.863 28.047,-35.922 4.1211,-9.3594 6.7695,-18.656 8.7344,-26.66 0.54297,-0.52344 0.96094,-1.1836 1.0742,-1.9883 0.082,-0.58203 -0.0195,-1.1289 -0.20312,-1.6484 0.42187,-1.8164 0.82422,-3.5742 1.1914,-5.1992 2.9727,-13.191 4.3203,-25.707 6.5703,-38.727 2.25,-13.027 5.375,-26.582 11.859,-42.078 2.082,-4.9883 4.1523,-8.3516 5.9414,-10.258 0.89062,-0.95703 1.6914,-1.5508 2.3594,-1.8906 0.67188,-0.33984 1.2031,-0.44922 1.75,-0.45313 0.77734,0 1.7188,0.26172 2.9297,1.043 1.8086,1.1523 4.0234,3.4688 6.2695,6.6953 1.8828,2.6875 3.8164,6.0039 5.7539,9.7148 -2.4258,1.3633 -4.8555,2.7305 -7.2852,4.0938 -1.6914,0.94922 -2.2891,3.0898 -1.3398,4.7773 0.94922,1.6875 3.0898,2.2891 4.7773,1.3398 3.0508,-1.7148 6.1055,-3.4297 9.1562,-5.1445 0.70312,-0.39453 1.1641,-1.0195 1.457,-1.707 9.7969,-4.9961 20.371,-6.8672 31.355,-6.8711 14.27,-0.008 29.121,3.1602 43.219,6.4062 0.36719,0.44141 0.80859,0.83203 1.3828,1.0547 3.4297,1.3359 6.7305,3.0039 9.8477,4.9688 1.6406,1.0352 3.8047,0.54297 4.8398,-1.0977 1.0351,-1.64067 0.54297,-3.8047 -1.0977,-4.8398 -2.2305,-1.4062 -4.5742,-2.625 -6.9609,-3.75 2.4023,-4.4648 4.7969,-8.1445 7.0469,-10.621 1.3242,-1.4648 2.5898,-2.5195 3.6914,-3.1523 1.1133,-0.64062 2.0156,-0.875 2.8438,-0.875 1.1914,0.0117 2.5859,0.47266 4.5117,2.2539 1.8945,1.7695 4.0977,4.8281 6.375,9.3281 7.5039,14.785 10.883,28.652 13.414,42.504 1.9297,10.539 3.3594,21.07 5.7773,31.844 -0.17188,0.58594 -0.25,1.1992 -0.0899,1.8359 0.15234,0.59766 0.48438,1.082 0.87891,1.5 0.55469,2.2812 1.1445,4.5703 1.8203,6.875 1.6094,5.5039 5.4453,18.672 13.375,32.844 7.9297,14.176 20.02,29.504 38.277,39.176 15.434,8.1641 30.758,9.8906 41.719,9.8906 1.8711,0 3.6172,-0.0508 5.2148,-0.12891 1.6406,-0.0781 3,-1.2773 3.2852,-2.8945 0.28516,-1.6172 -0.58203,-3.207 -2.0977,-3.8438 -1.8242,-0.75781 -2.9336,-2.5664 -2.9375,-4.4883 0,-0.49609 0.0742,-0.99219 0.23047,-1.4844 0.29297,-0.91797 0.84375,-1.7227 1.5508,-2.2734 0.71875,-0.54688 1.5703,-0.89453 2.7695,-0.90234 0.38281,0 0.80078,0.0391 1.2617,0.12891 1.2852,0.25391 2.5938,-0.21875 3.4141,-1.2383 0.82422,-1.0195 1.0078,-2.3984 0.48828,-3.5977 -0.41016,-0.94922 -0.55078,-1.7344 -0.55078,-2.4102 0.0117,-1.4727 0.66406,-2.6719 1.9258,-3.7266 1.2461,-1.0312 3.0781,-1.6836 4.6797,-1.668 1.293,0.004 2.3594,0.36719 3.1445,1.0234 0.77734,0.66797 1.4727,1.6836 1.7656,3.75 0.14062,1.0703 0.75781,2.0039 1.6875,2.5547 0.92578,0.55078 2.0469,0.64453 3.0508,0.25781 2.9219,-1.125 5.2148,-1.5547 6.8477,-1.5508 1.1914,0 2.0195,0.21094 2.6289,0.49609 0.89453,0.4375 1.4727,1.0312 2.0039,2.1758 0.51562,1.1328 0.83984,2.8125 0.83594,4.8555 0.0234,4.8945 -1.8555,11.633 -4.7695,17.527 -1.4492,2.9531 -3.1445,5.7109 -4.9141,7.9648 -1.7617,2.2656 -3.6133,4.0078 -5.2109,4.9805 z m -203.07,143.5 c -8.1172,0 -15.395,-0.8125 -21.645,-1.9375 7.5352,-3.457 15.527,-7.6484 23.289,-12.652 8.3984,3.8633 16.793,7.7266 25.191,11.594 -7.0898,1.5977 -15.582,2.8594 -25.234,2.9883 -0.53516,0.004 -1.0703,0.008 -1.6016,0.008 z m -45.453,-47.688 c -0.54297,0.10938 -1.0781,0.15625 -1.6094,0.15625 -2.1953,0.0117 -4.4609,-0.89844 -6.2656,-2.0078 -1.8047,-1.1016 -3.0781,-2.3203 -3.3633,-2.6055 -1.1445,-1.1328 -2.9023,-1.3398 -4.2812,-0.50781 -2.7852,1.707 -5.1484,3.25 -7.4453,3.8359 -0.22656,0.0664 -0.95312,0.19141 -1.7344,0.18359 -0.69922,0 -1.4648,-0.0898 -2.1211,-0.29297 -0.66016,-0.20703 -1.1875,-0.5 -1.6094,-0.91016 -0.67969,-0.64844 -1.2344,-1.8789 -1.2344,-3.5977 -0.004,-1.4766 0.42578,-3.2344 1.3906,-4.9453 0.75391,-1.3398 0.54297,-3.0234 -0.51953,-4.1367 -1.0586,-1.1133 -2.7344,-1.4062 -4.1094,-0.71875 -0.57031,0.28516 -1.2812,0.60547 -1.9727,0.87109 0.85547,-2.2656 2.5469,-5.0469 2.6602,-5.2031 3.0781,-4.8789 8.3945,-9.1172 14.832,-12.066 6.4297,-2.9609 13.934,-4.6289 21.156,-4.625 2.1523,0 4.2812,0.14844 6.3516,0.44531 6.7266,0.96094 14.844,3.9102 24.848,7.6055 1.1562,0.42578 2.1562,0.83594 3.0781,1.2227 -0.11719,0.0273 -0.22656,0.0547 -0.34375,0.082 -4.7461,1.1797 -10.27,2.8672 -15.188,5.3398 l 0.008,0.008 c -4.2891,2.1484 -6.9141,4.3867 -8.6953,6.4883 -1.2695,1.4727 -2.0547,2.8164 -2.6172,3.9414 -0.56641,1.1328 -0.92578,1.9648 -1.6328,3.1094 -0.54297,0.88672 -1.7305,2.7852 -3.4453,4.5703 -1.7148,1.8008 -3.8711,3.3203 -6.1367,3.7578 z"
       id="path2" />
    <path
       d="m 289.66,485.84 h -0.004 v -0.004 z"
       id="path4" />
    <path
       d="m 330.61,253.49 c -3.1484,3.9297 -8.4453,6.2852 -13.637,6.2695 -2.1445,0 -4.2578,-0.39062 -6.1914,-1.1836 -1.793,-0.73438 -3.8438,0.12109 -4.5781,1.9141 -0.7343,1.79301 0.12109,3.8438 1.9141,4.5781 2.8438,1.1641 5.8594,1.7109 8.8555,1.7109 7.2188,-0.0156 14.414,-3.1172 19.094,-8.8789 1.2188,-1.5078 0.98438,-3.7188 -0.52344,-4.9336 -1.5078,-1.2188 -3.7188,-0.98438 -4.9336,0.52344 z"
       id="path6" />
    <path
       d="m 419.9,256.99 c -1.6719,1.3398 -4.0352,1.9727 -6.7773,1.9727 -1.3438,0 -2.7461,-0.15234 -4.1133,-0.41797 -4.6367,-0.89453 -9.0938,-2.8398 -12.902,-5.625 -1.5625,-1.1445 -3.7578,-0.80469 -4.9023,0.75781 -1.1445,1.5625 -0.80469,3.7578 0.75781,4.9023 4.6562,3.4062 10.055,5.7578 15.715,6.8555 1.7422,0.33594 3.5742,0.54297 5.4453,0.54297 3.7578,0 7.7969,-0.85156 11.141,-3.4961 1.5156,-1.207 1.7695,-3.4141 0.5625,-4.9297 -1.2031,-1.5156 -3.4102,-1.7695 -4.9258,-0.5625 z"
       id="path8" />
    <path
       d="m 386.64,292.83 c -0.0469,0.0625 -0.89844,1.1289 -2.3281,2.1172 -1.4414,0.99219 -3.3477,1.8672 -5.6953,1.8672 l -0.54297,-0.0156 c -2.2266,-0.125 -3.9648,-0.98048 -5.2695,-1.9219 -1.2383,-0.89453 -1.9727,-1.8086 -2.1562,-2.0469 -0.008,-0.0859 0.0156,-0.17188 0,-0.25781 0.14453,-0.43359 0.20703,-0.90234 0.17188,-1.3867 -0.67969,-8.7344 -1.3633,-17.465 -2.043,-26.19901 -0.0156,-0.18358 -0.10547,-0.33593 -0.14453,-0.50781 0.91016,-0.25781 1.8086,-0.55469 2.6797,-0.9375 1.7734,-0.78125 2.5781,-2.8516 1.7969,-4.625 -0.78125,-1.77339 -2.8516,-2.5781 -4.625,-1.7969 -1.7109,0.75392 -3.6094,1.1484 -5.4961,1.1484 -0.99219,0 -1.9844,-0.10938 -2.9414,-0.32422 -1.8906,-0.42578 -3.7695,0.76562 -4.1914,2.6562 -0.42578,1.8906 0.76562,3.7695 2.6562,4.1914 1.0938,0.24609 2.2031,0.36719 3.3164,0.42969 0,0.10547 -0.0469,0.20312 -0.0391,0.3125 0.67969,8.7344 1.3633,17.469 2.043,26.199 0,0.0117 0.008,0.0234 0.008,0.0352 -0.90625,1.1328 -2.3164,2.5625 -4.4023,3.6289 -1.3906,0.71875 -2.8164,1.4062 -4.6914,1.4102 l -0.54688,-0.0195 c -2.4961,-0.16406 -4.3477,-1.6211 -4.9961,-2.2148 -1.4414,-1.2969 -3.6602,-1.1797 -4.957,0.25781 -1.2969,1.4414 -1.1797,3.6602 0.25781,4.957 1.1484,1.0234 4.2969,3.6289 9.1797,4 0.35938,0.0273 0.71094,0.0391 1.0547,0.0391 3.6992,0.004 6.4609,-1.4531 7.8945,-2.1836 1.625,-0.83594 2.9258,-1.8086 4.043,-2.7812 0.55078,0.53516 1.1914,1.1133 2.0078,1.7031 2.0781,1.5117 5.125,3.0273 8.9922,3.2461 0.31641,0.0195 0.62891,0.0273 0.94141,0.0273 4.1484,0 7.457,-1.5625 9.6953,-3.1172 2.25,-1.5625 3.5391,-3.1602 3.8555,-3.5547 1.1953,-1.5234 0.92969,-3.7305 -0.59375,-4.9258 -1.5312,-1.2031 -3.7344,-0.9375 -4.9336,0.58984 z"
       id="path10" />
  </g>
</svg>
