<?xml version="1.0" encoding="UTF-8" standalone="no"?>
<svg
   width="1000"
   height="1000"
   version="1.1"
   viewBox="0 0 750 750"
   id="svg12"
   sodipodi:docname="2.svg"
   inkscape:version="1.2.1 (9c6d41e410, 2022-07-14, custom)"
   xmlns:inkscape="http://www.inkscape.org/namespaces/inkscape"
   xmlns:sodipodi="http://sodipodi.sourceforge.net/DTD/sodipodi-0.dtd"
   xmlns="http://www.w3.org/2000/svg"
   xmlns:svg="http://www.w3.org/2000/svg">
  <defs
     id="defs16" />
  <sodipodi:namedview
     id="namedview14"
     pagecolor="#ffffff"
     bordercolor="#666666"
     borderopacity="1.0"
     inkscape:showpageshadow="false"
     inkscape:pageopacity="0.0"
     inkscape:pagecheckerboard="0"
     inkscape:deskcolor="#d1d1d1"
     inkscape:document-units="pt"
     showgrid="false"
     showborder="false"
     inkscape:zoom="0.41938165"
     inkscape:cx="138.29885"
     inkscape:cy="367.20729"
     inkscape:window-width="1840"
     inkscape:window-height="1027"
     inkscape:window-x="80"
     inkscape:window-y="0"
     inkscape:window-maximized="1"
     inkscape:current-layer="svg12" />
  <path
     style="fill:#ffffff;stroke:#000000;stroke-width:0.796875px;stroke-linecap:butt;stroke-linejoin:miter;stroke-opacity:1"
     d="m 176.9135,166.42617 -17.14482,9.15477 -2.49848,18.53886 -18.31668,-6.80612 -15.76367,5.93859 -0.14843,18.73419 10.00721,15.82988 5.33111,27.45092 3.28032,33.20718 5.59155,21.69545 19.23936,17.31493 15.00164,15.8035 16.68045,26.30675 17.29725,28.8154 10.43876,28.71817 11.35473,40.09526 9.93419,26.423 21.46092,28.62878 14.84944,14.78372 -39.29606,0.4041 -52.72074,-4.08633 -40.01165,-8.16552 -34.12661,-20.86223 -14.50765,-21.8793 -3.924604,-22.78037 0.635694,-8.00141 -10.660636,-8.16506 -15.652127,1.27027 -10.971231,14.62429 -1.684434,24.95288 12.140868,32.18823 32.00972,33.67392 38.01791,18.5713 66.53712,10.72268 193.33665,2.17848 30.98025,-0.99172 39.60731,-9.69419 47.03519,-21.75349 27.9033,-21.16008 36.62611,-33.51539 38.59177,-55.88187 28.85475,-44.73209 17.71509,-38.14429 5.09842,-25.44737 11.27769,-42.01485 3.18945,-39.83201 -1.08976,-25.79466 -9.72932,-6.62794 -12.67428,5.8965 -17.64914,-17.55446 -9.33747,6.64947 -15.79946,31.74614 -55.60405,-5.4249 -34.20135,10.23059 -26.45944,20.36008 -7.27072,20.75556 0.0636,31.28294 -104.80607,-11.53247 -53.69234,2.3783 -15.0517,6.6861 -78.54567,-37.99671 -31.78897,-27.99456 -15.40303,-67.54743 z"
     id="path516" />
  <g
     id="g10"
     transform="matrix(1.4169478,0,0,1.4169478,-157.76433,-157.79574)">
    <path
       d="m 599.98,272.55 c -0.25391,-2.2422 -0.83984,-7.4883 -4.9453,-9.957 -5.4648,-3.3008 -11.625,1.0938 -13.832,2.7227 -1.0859,-1.6406 -2.3516,-3.4727 -3.8789,-5.6797 -2.2617,-3.2656 -4.2461,-5.8047 -7.4844,-6.3359 -3.1562,-0.52344 -7.7031,0.59375 -11.359,8.8672 -2.0195,4.5664 -4,8.7188 -5.7812,12.453 -0.91797,1.918 -1.7539,3.6914 -2.543,5.3906 -6.2305,-1.6719 -12.223,-2.3945 -17.367,-3 -6.332,-0.74609 -35.449,-3.2578 -54.523,10.562 l -9.6992,-10.492 c -1.1641,-1.2617 -3.1328,-1.3398 -4.3984,-0.17188 -1.2617,1.1641 -1.3398,3.1328 -0.17188,4.3984 l 9.5469,10.332 c -0.94922,0.93359 -1.8945,1.8789 -2.7578,2.9258 -0.0391,0.0508 -0.0977,0.12109 -0.14062,0.17188 -1.2852,-0.11328 -2.75,-0.72656 -4.3711,-1.4766 l -10.484,-4.8555 c -1.5586,-0.72266 -3.4102,-0.043 -4.1328,1.5156 -0.72266,1.5586 -0.043,3.4102 1.5156,4.1289 l 10.484,4.8555 c 0.89844,0.41797 1.9375,0.88281 3.0586,1.2773 -1.918,3.1172 -3.875,7.207 -4.8516,12.281 -1.0586,5.5273 -0.30078,9.0273 0.30859,11.844 0.48438,2.2227 0.86719,3.9727 0.36719,6.5469 -0.1875,0.97266 -0.5,1.8945 -0.875,2.7969 -29.629,-4.8008 -59.719,-7.2734 -89.691,-7.293 -7.6992,0.0703 -15.402,0.19141 -22.727,2.6133 -2.5273,0.83594 -4.8477,1.9375 -6.9727,3.2188 -5.707,-2.6484 -11.484,-5.1055 -17.164,-7.5195 -8.7656,-3.7227 -17.836,-7.5703 -26.332,-12.02 -2.9336,-1.5391 -8.75,-5.3008 -15.133,-10.25 -9.5547,-7.4102 -14.348,-11.133 -17.668,-16.531 -2.9023,-4.7266 -5.0391,-16.027 -8.5742,-34.746 l -0.33984,-1.8867 c -0.77344,-4.4102 -1.5781,-8.9648 -5.0859,-13.539 -2.3359,-3.0469 -8.7539,-10.027 -17.598,-9.0625 -8.4414,0.91797 -13.055,8.4414 -13.551,9.2969 -1.4688,2.5156 -2.0195,4.9062 -2.0898,7.3477 -2.3359,-1.4062 -5.0391,-2.5352 -8.0781,-3.0078 -4.1367,-0.63672 -8.7656,0.58984 -12.066,3.2031 -2.75,2.1758 -4.4062,5.1406 -4.6602,8.3438 -0.32812,4.1758 1.6055,7.7617 3.3125,10.926 l 0.37109,0.69141 c 4.8789,9.1172 7.9414,19.383 8.8516,29.684 0.26562,2.9805 0.38281,6.1328 0.49609,9.1875 0.41797,11.125 0.84766,22.629 8,31.629 2.5625,3.2266 5.7188,5.7188 8.7734,8.125 0.97266,0.76562 1.9414,1.5312 2.8906,2.3242 12.836,10.676 18.816,21.961 31.121,46.461 3.5742,7.1211 6.8945,14.445 9.9375,21.918 1.5938,6.2617 3.2734,12.676 5.5664,18.84 2.9609,20.047 13.547,39.445 30.77,56.504 -34.895,-0.45703 -61.887,-2.9609 -78.379,-7.293 -13.184,-3.457 -20.859,-9.0391 -27.188,-14.555 -8.332,-7.2617 -13.137,-16.641 -13.18,-25.738 -0.004,-0.69531 0.0195,-1.3945 0.0391,-2.0977 0.0742,-2.3281 0.15625,-4.9688 -0.64844,-7.5703 -1.3047,-4.2266 -4.7734,-7.3945 -9.5117,-8.6914 -5.7891,-1.582 -12.227,-0.14844 -16.414,3.6523 -8.3242,7.5586 -8.1602,19.598 -7.3242,26.102 3.3242,25.824 24.598,49.863 54.203,61.242 26.527,10.195 56.266,10.441 82.504,10.66 l 92.945,0.77344 c 6.0938,0.66406 11.727,0.89453 16.652,0.89453 8.1602,0 14.363,-0.62891 17.418,-0.9375 51.84,-5.2578 84.512,-36.555 102.07,-53.375 16.762,-16.059 25.949,-30.637 44.254,-59.68 23.051,-36.574 27.703,-54.57 28.812,-64.957 l 0.18359,-0.39453 c 9.0352,-23.316 12.32,-48.762 9.5195,-73.594 z m -15.742,71.926 c -1.207,14.855 -10.375,35.688 -28.023,63.695 -11.047,17.527 -18.723,29.695 -26.738,40.074 -0.625,-0.60938 -1.2578,-1.4297 -1.9727,-2.3906 -3.4922,-4.6953 -7.5156,-9 -11.965,-12.801 -1.3047,-1.1133 -3.2695,-0.96094 -4.3828,0.34766 -1.1172,1.3047 -0.96484,3.2695 0.34375,4.3828 4.0977,3.5 7.8047,7.4609 11.176,12 0.79297,1.0703 1.7383,2.2695 2.9141,3.3125 -3.8867,4.6758 -7.9727,9.082 -12.668,13.582 -1.457,1.3945 -3.0625,2.9219 -4.7383,4.5 -3.543,-5.0625 -7.7344,-9.6133 -12.574,-13.484 -1.3438,-1.0742 -3.2969,-0.85547 -4.375,0.48438 -1.0742,1.3438 -0.85547,3.3008 0.48438,4.375 4.5977,3.6797 8.5469,8.0312 11.848,12.891 -5.9336,5.3867 -12.961,11.32 -21.211,17.059 -2.6562,-5.4609 -5.9727,-10.566 -9.9609,-15.16 -1.1289,-1.2969 -3.0938,-1.4375 -4.3906,-0.30859 -1.2968,1.12891 -1.4336,3.0938 -0.30859,4.3906 3.8125,4.3945 6.9609,9.2969 9.4336,14.555 -16.449,10.566 -37.145,19.789 -62.602,22.371 -4.7344,0.48047 -17.309,1.75 -32.918,0.0352 l -0.3125,-0.0195 -93.105,-0.78125 c -26.965,-0.22656 -54.848,-0.45704 -80.324,-10.25 -27.5,-10.566 -47.23,-32.641 -50.266,-56.23 -0.55078,-4.2656 -1.1289,-14.828 5.3359,-20.69901 1.8945,-1.71879 4.6602,-2.67189 7.457,-2.67189 1.0508,0 2.1094,0.13281 3.125,0.41406 1.5547,0.42577 4.3008,1.5781 5.207,4.52339 0.5,1.6133 0.4375,3.5234 0.375,5.543 -0.0234,0.77344 -0.0469,1.5508 -0.043,2.3203 0.0508,10.883 5.6328,21.961 15.316,30.398 6.8984,6.01171 15.273,12.09801 29.695,15.883 18.211,4.7812 47.199,7.3125 86.137,7.5508 11.66,8.3945 25.223,13.848 39.488,15.77 l 0.41797,0.0273 c 1.5312,0 2.8711,-1.1367 3.0781,-2.6992 0.22656,-1.7031 -0.96484,-3.2695 -2.668,-3.4961 -12.867,-1.7305 -25.125,-6.543 -35.738,-13.957 -0.17578,-0.39844 -0.40625,-0.77344 -0.74609,-1.0742 -19.684,-17.438 -31.672,-37.691 -34.668,-58.574 l -0.16406,-0.64844 c -2.4258,-6.4766 -4.1914,-13.41 -5.8945,-20.121 l -0.78516,-3.0781 c -4.3242,-16.859 -9.4414,-33.734 -15.215,-50.16 -2.6797,-7.6328 -5.5,-14.996 -10.465,-21.207 -2.0469,-2.5625 -3.5508,-4.2344 -4.8789,-5.707 -1.7227,-1.9141 -3.0859,-3.4219 -5.0195,-6.2227 -5.6602,-8.1875 -7.1367,-16.512 -8.3203,-23.203 -1.4258,-8.043 -1.0156,-12.25 -0.54297,-17.121 0.44531,-4.582 0.94922,-9.7773 0.15234,-18.812 -0.46094,-5.2266 -1.3789,-9.4141 -2.1172,-12.781 -1.3359,-6.1055 -1.8477,-8.9414 0.0898,-12.258 0.13281,-0.23047 3.3477,-5.6484 8.8477,-6.2422 5.7109,-0.63672 10.293,4.4531 11.988,6.6641 2.582,3.3633 3.1914,6.8242 3.8945,10.828 l 0.35547,1.9648 c 4.0781,21.598 6.0234,31.375 9.3828,36.848 3.9102,6.3672 9.0078,10.32 19.164,18.199 7.1328,5.5312 13.105,9.2969 16.051,10.84 8.7188,4.5664 17.902,8.4648 26.789,12.234 4.6484,1.9727 9.3555,4.0039 14.027,6.1133 -2.418,2.4102 -4.3125,5.1641 -5.4883,8.1914 -3.3672,8.6641 -0.0469,19.016 7.3984,23.074 7.5117,4.0938 15.371,1.4023 22.973,-1.207 3.3633,-1.1523 6.5391,-2.2422 9.6445,-2.7578 0.58203,-0.0977 1.1719,-0.10937 1.7578,-0.16797 0.15234,0.1875 0.27344,0.39453 0.47266,0.55078 6.3594,4.9258 11.672,12.215 15.371,21.082 2.9922,7.1758 5.0273,15.289 6.6055,26.312 0.22266,1.5508 1.5508,2.6719 3.0742,2.6719 l 0.44531,-0.0352 c 1.7031,-0.24219 2.8828,-1.8164 2.6406,-3.5195 -1.6523,-11.562 -3.8203,-20.145 -7.0234,-27.828 -3,-7.1992 -7.0117,-13.477 -11.754,-18.523 5.5977,1.2383 11.191,3.6172 16.59,6.1055 13.898,6.4023 27.754,13.383 41.184,20.746 0.47266,0.25781 0.98828,0.38281 1.4922,0.38281 1.1016,0 2.168,-0.58203 2.7305,-1.6172 0.82812,-1.5078 0.27344,-3.3984 -1.2344,-4.2227 -13.555,-7.4297 -27.539,-14.477 -41.57,-20.941 -10.02,-4.6172 -20.723,-8.9609 -31.801,-7.1406 -3.6172,0.60156 -7.1875,1.8242 -10.645,3.0117 -6.6172,2.2695 -12.871,4.4141 -17.977,1.6289 -5.2031,-2.8398 -6.5703,-10.23 -4.5781,-15.355 2.0625,-5.3125 7.3672,-9.8281 14.18,-12.078 6.4453,-2.1328 13.492,-2.2305 20.77,-2.2969 35.441,0.0234 71.051,3.4648 105.84,10.234 1.6992,0.33203 3.3203,-0.77344 3.6445,-2.4609 0.32812,-1.6875 -0.77344,-3.3203 -2.457,-3.6484 -3.6797,-0.71484 -7.3711,-1.3711 -11.062,-2.0156 0.28516,-0.85937 0.53516,-1.7383 0.71094,-2.6602 0.73828,-3.8242 0.16016,-6.4805 -0.39453,-9.0469 -0.56641,-2.6055 -1.1016,-5.0703 -0.28125,-9.3477 0.004,-0.0195 0.0117,-0.0352 0.0117,-0.0547 2.1992,2.3945 5.0977,4.1523 8.2695,4.8867 l 0.70312,0.0781 c 1.4141,0 2.6953,-0.97266 3.0312,-2.4141 0.38672,-1.6758 -0.66016,-3.3438 -2.332,-3.7305 -3.0391,-0.69922 -5.6797,-2.9219 -6.8906,-5.7969 -0.0664,-0.15625 -0.1875,-0.26172 -0.27344,-0.40234 1.4102,-2.875 3.0273,-5.0977 4.2227,-6.6055 0.004,-0.008 0.008,-0.0117 0.0156,-0.0195 0.32031,-0.40234 0.61719,-0.76562 0.86328,-1.0625 1.1328,-1.3789 2.3789,-2.6289 3.6992,-3.7812 0.30078,-0.13672 0.59766,-0.29297 0.85547,-0.53125 0.15625,-0.14453 0.23828,-0.33203 0.35937,-0.5 17.539,-14 47.836,-10.945 51.551,-10.504 7.2734,0.85547 16.332,1.9219 24.93,5.793 1.0312,0.46484 2.2227,0.33203 3.1289,-0.33594 l 24.625,-18.211 c 3.3008,-2.4414 5.75,-3.3086 7.0781,-2.5078 1.3047,0.78516 1.7422,3.2578 1.9727,5.3242 2.6328,23.324 -0.33203,47.215 -8.5703,69.195 -0.55469,0.52734 -0.92188,1.2461 -0.98438,2.043 z M 219.848,330.05 c -5.8828,-7.4023 -6.2578,-17.406 -6.6523,-27.992 -0.11719,-3.1328 -0.23828,-6.3672 -0.51562,-9.5039 -0.98438,-11.129 -4.293,-22.219 -9.5625,-32.066 l -0.38281,-0.70703 c -1.4258,-2.6406 -2.7695,-5.1367 -2.5859,-7.4805 0.14844,-1.8711 1.3398,-3.1836 2.3164,-3.9531 1.6289,-1.2852 3.8633,-2.0273 5.9766,-2.0273 0.43359,0 0.86328,0.0312 1.2812,0.0977 4.3164,0.66797 7.8555,3.3633 10.207,5.6797 0.0391,0.1875 0.0781,0.36719 0.12109,0.55469 0.73438,3.3594 1.5703,7.1602 1.9961,11.996 0.74609,8.4648 0.29297,13.141 -0.14844,17.664 -0.49609,5.1016 -0.96484,9.9219 0.60937,18.809 1.293,7.2852 2.8984,16.352 9.3281,25.656 2.1641,3.125 3.7148,4.8516 5.5156,6.8477 1.2695,1.4102 2.707,3.0078 4.6406,5.4219 4.3555,5.4531 6.957,12.281 9.457,19.387 2.0859,5.9336 4.0508,11.941 5.957,17.973 -8.9141,-17.199 -15.383,-27.328 -26.785,-36.812 -0.98828,-0.82422 -2.0039,-1.6211 -3.0156,-2.4219 -2.9023,-2.2969 -5.6445,-4.4609 -7.7578,-7.1211 z m 348.98,-70.613 c 0.62109,0.10156 1.6328,1.2188 3.375,3.7383 1.6055,2.3164 2.9102,4.207 3.9844,5.8398 l -18.336,13.559 c -0.58203,-0.23828 -1.1602,-0.4375 -1.7383,-0.65625 0.68359,-1.457 1.4141,-2.9961 2.1953,-4.625 1.8047,-3.7812 3.8086,-7.9883 5.8594,-12.617 1.1445,-2.5859 2.8906,-5.2578 4.4492,-5.2578 z"
       id="path2" />
    <path
       d="m 529.11,313.1 c -3.8359,1.6055 -8.418,1.25 -11.961,-0.92578 -3.543,-2.1797 -5.9258,-6.1094 -6.2188,-10.258 -0.12109,-1.7148 -1.6211,-2.9688 -3.3242,-2.8828 -1.7148,0.12109 -3.0039,1.6094 -2.8828,3.3242 0.43359,6.1133 3.9453,11.906 9.168,15.117 3.0508,1.875 6.625,2.832 10.195,2.832 2.5391,0 5.082,-0.48438 7.4258,-1.4688 1.5859,-0.66406 2.332,-2.4883 1.668,-4.0703 -0.66016,-1.5859 -2.4883,-2.3281 -4.0703,-1.668 z"
       id="path4" />
    <path
       d="m 515.48,331.3 c -1.0273,-1.3789 -2.9766,-1.6641 -4.3555,-0.63672 -1.3789,1.0273 -1.6641,2.9766 -0.63672,4.3555 4.2969,5.7734 9.3164,10.984 14.914,15.488 0.57812,0.46094 1.2656,0.6875 1.9492,0.6875 0.91016,0 1.8125,-0.39844 2.4258,-1.1602 1.0781,-1.3398 0.86719,-3.2969 -0.47266,-4.375 -5.1875,-4.1797 -9.8398,-9.0117 -13.824,-14.359 z"
       id="path6" />
    <path
       d="m 509.89,338.48 c -0.75391,-1.5469 -2.6211,-2.1836 -4.1602,-1.4336 -1.543,0.75391 -2.1875,2.6172 -1.4336,4.1602 l 9.6094,19.707 c 0.53906,1.1055 1.6484,1.75 2.7969,1.75 0.45703,0 0.92188,-0.10156 1.3594,-0.31641 1.5469,-0.75391 2.1875,-2.6172 1.4336,-4.1602 z"
       id="path8" />
  </g>
</svg>
