<?xml version="1.0" encoding="UTF-8" standalone="no"?>
<svg
   width="1000"
   height="1000"
   version="1.1"
   viewBox="0 0 750 750"
   id="svg8"
   sodipodi:docname="4.svg"
   inkscape:version="1.2.1 (9c6d41e410, 2022-07-14, custom)"
   xmlns:inkscape="http://www.inkscape.org/namespaces/inkscape"
   xmlns:sodipodi="http://sodipodi.sourceforge.net/DTD/sodipodi-0.dtd"
   xmlns="http://www.w3.org/2000/svg"
   xmlns:svg="http://www.w3.org/2000/svg">
  <defs
     id="defs12" />
  <sodipodi:namedview
     id="namedview10"
     pagecolor="#ffffff"
     bordercolor="#666666"
     borderopacity="1.0"
     inkscape:showpageshadow="false"
     inkscape:pageopacity="0.0"
     inkscape:pagecheckerboard="0"
     inkscape:deskcolor="#d1d1d1"
     inkscape:document-units="pt"
     showgrid="false"
     showborder="false"
     inkscape:zoom="0.29654761"
     inkscape:cx="128.14131"
     inkscape:cy="441.75031"
     inkscape:window-width="1840"
     inkscape:window-height="1027"
     inkscape:window-x="80"
     inkscape:window-y="0"
     inkscape:window-maximized="1"
     inkscape:current-layer="svg8" />
  <path
     style="fill:#ffffff;stroke:#000000;stroke-width:0.75px;stroke-linecap:butt;stroke-linejoin:miter;stroke-opacity:1"
     d="m 522.08544,199.67899 25.94588,20.82064 29.96204,50.15554 13.32249,40.41138 11.52024,47.01283 -5.32583,50.05301 -10.32169,41.54565 -13.77474,29.26075 -29.33951,35.38974 -5.05821,14.89401 3.38149,14.68835 10.15027,5.55484 21.70864,-4.55001 40.87497,-37.06215 22.67835,-39.30199 13.31763,-63.58949 2.79612,-46.03042 -6.60618,-57.08579 -16.77878,-58.18886 -25.46042,-36.93416 -31.69007,-45.60809 -45.03782,-30.37603 -47.45822,-26.69549 -60.86616,-17.723305 -62.89769,-5.506613 -55.35951,3.360938 -55.87311,19.34642 -36.22088,25.89664 -20.96968,27.13279 -17.70799,25.83283 -21.2024,43.38055 -11.50873,35.58439 -3.08574,39.01249 -3.99274,35.72681 3.7012,46.40929 6.74267,33.06156 9.07235,37.05044 14.22417,34.31645 13.45752,15.33242 0.89757,33.68967 7.86396,34.63744 11.01243,21.91817 17.10744,4.4214 16.97619,-5.623 15.12621,-18.89286 10.32473,-19.0413 33.68077,1.31397 30.26495,-7.75869 20.42513,-19.33091 11.99968,-8.44007 25.44302,32.02922 2.04968,66.69474 -35.24315,9.16466 -10.22512,15.50147 3.9402,12.57287 10.21958,8.31463 13.24386,4.50951 21.24767,-0.49075 23.17885,-9.38315 10.9182,-7.5012 14.62204,5.99884 28.05366,-10.24513 20.23455,-22.57813 12.80495,-39.53438 4.12634,-56.14516 22.02994,-56.45235 16.12066,-57.84373 6.31609,-56.53838 -1.62205,-61.91011 -7.4468,-41.67131 z"
     id="path304" />
  <g
     id="g6"
     transform="matrix(1.3336057,0,0,1.3336057,-108.42765,-126.44199)">
    <path
       d="m 528.31,231.03 c -55.203,-68.648 -136.19,-79.293 -179.24,-79.52 -32.484,-2.5664 -65.301,5.6797 -92.387,23.258 -31.656,20.555 -56.137,54.055 -68.93,94.332 -10.965,34.52 -13.598,73.852 -7.8242,116.91 4.9102,36.664 14.988,65.113 30.797,86.91 -0.0781,16.031 1.7227,31.758 5.3516,46.762 3.625,14.965 9.8867,23.562 19.145,26.285 7.2461,2.1211 15.684,-0.0469 22.566,-5.8203 5.7148,-4.7969 9.6211,-11.25 13.074,-16.941 l 5,-8.2656 c 9.2188,1.5 18.254,1.4102 26.918,-0.28516 3.9453,-0.76953 7.6953,-1.5469 7.9922,-1.6211 8.6914,-2.4727 14.727,-6.5 18.508,-9.3125 6.6406,-4.9414 11.664,-9.5977 15.785,-13.652 l 0.49609,0.55469 c 1.2539,1.3867 2.6055,2.7461 3.9961,4.1445 5.0625,5.0938 10.301,10.359 12.832,19.25 0.79688,2.8047 0.79297,4.0078 0.78906,7.9883 -0.004,4.0977 -0.0117,10.949 0.98828,24.527 0.35547,4.8477 0.30078,5.9258 -0.35156,7.2109 -1.4414,2.8281 -5.0977,3.3477 -10.949,3.9609 -4.3867,0.46094 -9.3594,0.98047 -13.539,3.3984 -4.5391,2.6211 -7.4727,7.2188 -8.2578,12.941 -0.92188,6.7109 1.3203,13.762 5.8555,18.402 5.4258,5.5547 13.469,8.5117 22.734,8.5117 2.4648,0 5.0156,-0.21094 7.6211,-0.63281 10.152,-1.6484 19.145,-5.7305 27.215,-11.391 2.3242,1.2227 5.1445,1.8555 8.5742,1.8555 0.62109,0 1.2617,-0.0156 1.918,-0.0586 15.117,-0.90625 29.309,-8.8711 37.949,-21.301 8.8672,-12.734 11.086,-28.402 13.043,-42.219 l 5.3242,-37.574 c 5.4219,-11.812 10.508,-24.277 14.699,-37.145 6.0469,-18.57 10.262,-37.945 12.48,-57.352 1.8906,-11.066 4.1367,-29.219 4.0898,-52.844 -0.0625,-34.004 -5.0352,-64.305 -14.797,-90.328 19.887,18.004 29.039,41.035 36.629,60.137 4.2305,10.648 17.117,43.051 11.59,83.531 -2.0508,15.023 -4.6094,33.719 -16.707,53.125 -4.5742,7.3398 -9.9062,13.812 -14.605,19.527 -9.6094,11.676 -17.203,20.898 -13.203,30.82 2.3672,5.8633 7.7305,8.5859 9.9375,9.4883 22.266,9.0469 53.078,-28.973 56.52,-33.336 9.4023,-11.938 25.402,-39.371 26.871,-89.035 0.69141,-23.234 2.7812,-93.914 -46.5,-155.2 z m 38.031,154.94 c -1.4492,48.992 -18,75.09 -25.051,84.039 -11.473,14.559 -34.297,35.781 -46.664,30.738 -0.9375,-0.38281 -4.0898,-1.8633 -5.2773,-4.8125 -2.1211,-5.2578 4.0586,-12.762 11.883,-22.266 4.8711,-5.918 10.383,-12.617 15.254,-20.434 13.055,-20.941 15.746,-40.637 17.914,-56.469 5.8242,-42.676 -7.6758,-76.641 -12.109,-87.797 -9.4766,-23.84 -21.27,-53.508 -52.414,-73.746 -1.5977,-1.0352 -3.6797,-0.88281 -5.1055,0.37109 -1.4258,1.2539 -1.8438,3.3047 -1.0234,5.0156 13.434,27.984 20.285,62.199 20.359,101.7 0.0469,24.238 -2.4648,42.609 -4,51.629 -2.1914,19.082 -6.2852,37.895 -12.16,55.93 -10.508,32.266 -26.836,62.309 -39.891,84.879 -14.875,25.715 -33.883,52.625 -62.137,57.211 -9.5039,1.5586 -18.086,-0.48047 -22.934,-5.4375 -2.7031,-2.7617 -4.082,-7.2109 -3.5156,-11.324 0.24219,-1.7773 1.1016,-5.0234 4.1055,-6.7578 2.6172,-1.5195 6.293,-1.9023 10.18,-2.3086 6.5703,-0.6875 14.02,-1.4648 17.625,-8.5469 1.7539,-3.4531 1.6328,-6.375 1.2461,-11.672 -0.97656,-13.266 -0.96875,-19.664 -0.96484,-23.902 0.008,-4.2422 0.008,-6.3672 -1.1133,-10.316 -3.1328,-10.992 -9.4258,-17.32 -14.977,-22.906 -1.293,-1.3008 -2.5586,-2.5664 -3.7227,-3.8555 -0.71094,-0.78516 -1.4141,-1.6875 -2.1211,-2.5742 -0.0352,-0.77344 -0.20703,-1.5469 -0.67969,-2.2266 -3.2305,-4.6328 -5.8828,-9.6055 -7.8867,-14.777 -6.4336,-16.664 -5.1406,-32.582 -2.5742,-43.809 6.5195,-0.0898 12.754,0.5 18.582,2.793 6.1875,2.4414 11.547,6.6562 17.219,11.121 1.5703,1.2383 3.1445,2.4727 4.7383,3.6719 5.7305,4.3164 14.535,10.281 24.797,12.273 2.293,0.44531 4.582,0.66016 6.8438,0.66016 8.2188,0 15.938,-2.8828 21.125,-8.1055 7.9922,-8.0508 8.8633,-21.48 1.8945,-29.328 -4.4922,-5.0586 -10.594,-6.8164 -16.496,-8.5195 -3.7305,-1.0742 -7.2578,-2.0938 -10.117,-3.8789 -5.4453,-3.4023 -8.5625,-9.5898 -11.871,-16.141 -2.1523,-4.2617 -4.3711,-8.668 -7.375,-12.594 -10.711,-13.977 -27.973,-18.219 -44.664,-22.32 -15.359,-3.7734 -29.871,-7.3398 -39.18,-17.871 -1.543,-1.7539 -4.2227,-1.9141 -5.9766,-0.36719 -1.7539,1.5508 -1.918,4.2266 -0.36719,5.9766 11.062,12.516 27.555,16.57 43.504,20.488 15.973,3.9258 31.059,7.6328 39.957,19.246 2.5234,3.2969 4.4727,7.1641 6.5391,11.258 3.6836,7.2969 7.4883,14.852 14.938,19.508 3.8672,2.4102 8.1328,3.6445 12.262,4.8359 4.957,1.4258 9.6406,2.7812 12.504,6.0039 4.0352,4.543 3.3008,12.824 -1.5703,17.73 -4.6367,4.6758 -12.414,6.6367 -20.34,5.0977 -6.5898,-1.2812 -13.164,-4.5938 -21.316,-10.727 -1.543,-1.1641 -3.0703,-2.3633 -4.5977,-3.5664 -5.9062,-4.6406 -12.008,-9.4453 -19.355,-12.34 -11.707,-4.6172 -24.215,-3.543 -36.309,-2.5078 -11.852,1.0117 -23.051,1.9727 -33.004,-2.1953 -2.1719,-0.90234 -4.6406,0.10938 -5.5469,2.2695 -0.90234,2.1562 0.11719,4.6367 2.2695,5.543 11.875,4.9727 24.648,3.8789 37.004,2.8203 1.7227,-0.14844 3.4258,-0.28516 5.1172,-0.41406 -2.4727,12.27 -3.3008,28.957 3.4531,46.434 1.9062,4.9414 4.375,9.6953 7.2852,14.203 -4.1992,4.1914 -9.3086,9.1016 -16.312,14.309 -2.0742,1.5391 -7.5664,5.6289 -15.473,7.8945 -0.008,0 -3.7031,0.76953 -7.5977,1.5273 -8.4922,1.6602 -17.441,1.5781 -26.582,-0.23828 -1.7539,-0.33594 -3.5234,0.4375 -4.4531,1.9609 l -6.5117,10.758 c -3.2617,5.3828 -6.6328,10.945 -11.27,14.844 -3.6289,3.0469 -9.4102,5.7422 -14.734,4.1797 -6.0156,-1.7656 -10.488,-8.5469 -13.301,-20.148 -3.5703,-14.766 -5.2891,-30.273 -5.1016,-46.094 0,-0.0937 -0.0352,-0.17578 -0.0391,-0.26953 l 1.0469,-15.668 c 0.15234,-2.332 -1.6133,-4.3516 -3.9453,-4.5039 -2.3281,-0.19141 -4.3555,1.6094 -4.5078,3.9414 l -0.23438,3.4961 c -11.5,-19.309 -19.156,-43.523 -23.199,-73.707 -4.4805,-33.402 -3.6797,-64.383 2.1875,-92.504 8.2227,0.13672 16.355,1.4453 24.18,3.9766 0.42969,0.14062 0.87109,0.20703 1.3047,0.20703 1.7891,0 3.4492,-1.1406 4.0312,-2.9336 0.71875,-2.2266 -0.5,-4.6133 -2.7266,-5.3359 -8.0859,-2.6211 -16.465,-4.0234 -24.949,-4.3203 1.043,-4.1719 2.1953,-8.2812 3.4766,-12.312 2.2109,-6.957 4.793,-13.691 7.6992,-20.184 8.0703,2.2539 15.852,5.5 23.129,9.6602 0.66016,0.37891 1.3867,0.55859 2.0977,0.55859 1.4688,0 2.8984,-0.76562 3.6836,-2.1328 1.1641,-2.0312 0.45703,-4.6211 -1.5781,-5.7812 -7.4609,-4.2617 -15.418,-7.6094 -23.66,-10.027 5.1445,-10.184 11.156,-19.664 17.906,-28.316 0.0937,0.0625 0.15234,0.16406 0.25391,0.21875 6.8906,3.875 13.34,8.5586 19.164,13.918 0.8125,0.75 1.8398,1.1172 2.8672,1.1172 1.1406,0 2.2852,-0.46094 3.1172,-1.3672 1.5859,-1.7227 1.4766,-4.4023 -0.24219,-5.9883 -6.0273,-5.5469 -12.684,-10.398 -19.773,-14.484 9.1562,-10.543 19.5,-19.645 30.809,-26.984 25.527,-16.57 56.465,-24.375 87.41,-21.906 41.859,0.22656 119.99,10.453 172.99,76.363 47.336,58.859 45.312,127.19 44.645,149.64 z m -130.95,153.01 c 4.3867,-7.582 9.1445,-16.066 13.93,-25.129 l -1.7227,12.164 c -1.8242,12.883 -3.8945,27.488 -11.609,38.566 -7.0703,10.168 -19.145,16.941 -31.5,17.688 -0.60156,0.0352 -1.1367,0.0273 -1.6719,0.0195 13.137,-11.852 23.598,-27.785 32.574,-43.309 z"
       id="path2" />
    <path
       d="m 279.4,450.25 c -2.3359,0.0937 -4.1523,2.0625 -4.0586,4.4062 0.0898,2.332 2.0156,4.0703 4.4062,4.0586 5.7695,-0.23438 12.305,-0.49609 17.246,2.2305 2.3633,1.3086 4.3086,3.8164 4.957,6.3867 0.29297,1.1602 0.44141,2.8594 -0.50781,4.3398 -1.2656,1.9688 -0.69531,4.5938 1.2695,5.8594 0.71094,0.45703 1.5,0.67188 2.2891,0.67188 1.3945,0 2.7578,-0.6875 3.5664,-1.9453 2.0273,-3.1523 2.5977,-7.0586 1.6016,-11 -1.2109,-4.8125 -4.6914,-9.3047 -9.0781,-11.727 -7.0117,-3.8789 -15.133,-3.5508 -21.691,-3.2812 z"
       id="path4" />
  </g>
</svg>
