<?xml version="1.0" encoding="UTF-8" standalone="no"?>
<svg
   width="1000"
   height="1000"
   version="1.1"
   viewBox="0 0 750 750"
   id="svg4"
   sodipodi:docname="1655470060185.svg"
   inkscape:version="1.2.1 (9c6d41e410, 2022-07-14, custom)"
   xmlns:inkscape="http://www.inkscape.org/namespaces/inkscape"
   xmlns:sodipodi="http://sodipodi.sourceforge.net/DTD/sodipodi-0.dtd"
   xmlns="http://www.w3.org/2000/svg"
   xmlns:svg="http://www.w3.org/2000/svg">
  <defs
     id="defs8" />
  <sodipodi:namedview
     id="namedview6"
     pagecolor="#ffffff"
     bordercolor="#666666"
     borderopacity="1.0"
     inkscape:showpageshadow="false"
     inkscape:pageopacity="0.0"
     inkscape:pagecheckerboard="0"
     inkscape:deskcolor="#d1d1d1"
     inkscape:document-units="pt"
     showgrid="false"
     showborder="false"
     inkscape:zoom="0.41938165"
     inkscape:cx="608.03805"
     inkscape:cy="469.7392"
     inkscape:window-width="1840"
     inkscape:window-height="1027"
     inkscape:window-x="80"
     inkscape:window-y="0"
     inkscape:window-maximized="1"
     inkscape:current-layer="svg4" />
  <path
     style="fill:#ffffff;stroke:#000000;stroke-width:0.75px;stroke-linecap:butt;stroke-linejoin:miter;stroke-opacity:1"
     d="m 554.05411,148.60501 3.37162,8.88199 4.83443,1.95594 17.69613,-0.58841 17.63141,6.96395 12.26313,17.54268 2.2531,20.761 -10.33466,23.8056 -24.72151,24.56876 -37.24134,20.88586 -51.42244,11.96431 -31.25207,-18.8364 -36.31922,-10.31605 -36.3553,-4.47211 -33.61579,5.79922 -20.53157,7.3837 -28.59927,13.51648 -44.49456,35.2949 -37.50958,36.42729 -29.48215,44.49574 -15.40355,27.29738 -11.42492,28.34791 -8.37414,23.28415 -14.69782,22.29625 -5.72195,23.03119 -1.81966,21.35622 3.336,13.0942 7.00412,1.42241 19.56412,-7.33321 12.56579,-4.7031 -12.03388,14.49278 -16.80263,8.98211 -10.19391,6.04004 -0.65546,15.04725 9.3466,15.13509 20.32669,4.13307 17.74352,-6.88769 15.85376,6.23511 18.99038,-9.47908 17.4321,-22.64763 10.15369,-18.22683 30.69806,1.18317 15.93866,-9.07566 9.1566,-26.01312 3.07189,-19.64766 23.76956,-11.34838 20.7464,-8.66886 28.64015,-1.09607 14.5925,7.31501 30.07911,22.9177 39.63894,10.86222 41.42244,2.76696 14.44138,4.51488 18.36263,14.87835 9.88726,17.83145 0.31309,12.80554 -11.15564,1.11186 -3.47151,12.0678 4.02465,13.64265 13.72692,4.26407 25.94675,-4.36479 20.36194,-7.21146 13.6791,-19.69854 2.04362,-24.91783 -4.5599,-28.34851 -6.2175,-19.37542 -37.16583,-78.02894 -6.80116,-14.10555 -8.68365,-13.29971 -2.83156,-22.36506 -5.78467,-24.718 -4.85169,-13.22646 -12.2172,-19.0469 31.14933,-8.2277 42.13659,-19.05185 21.56672,-17.69351 19.57018,-23.02331 10.70251,-31.07949 0.84941,-25.9506 -9.20133,-26.75867 -13.62916,-19.64049 -18.61692,-14.12369 -19.62408,-3.71578 -16.03838,2.48901 -12.97949,5.60196 z"
     id="path2568" />
  <path
     d="m 649.77505,183.6223 c -3.82897,-14.28567 -11.08593,-25.40777 -13.46533,-29.05911 -4.26655,-6.54129 -7.63982,-11.7009 -13.73021,-16.82027 -3.15889,-2.65292 -20.03867,-15.76769 -42.91652,-12.85968 -8.06833,1.02108 -27.16285,4.81818 -30.2494,17.95104 -1.82334,7.76738 2.33387,17.09799 9.08486,20.37593 3.94752,1.90992 7.22044,1.11678 10.39766,0.34644 1.67292,-0.40571 3.39603,-0.82963 5.52021,-0.96182 12.01131,-0.72022 21.85327,8.75659 22.93736,9.8415 9.06653,9.05288 9.43576,22.58611 8.84318,29.84797 -2.96298,36.88112 -54.45405,62.90503 -81.26682,71.51121 -13.36496,4.28944 -25.66334,6.01698 -35.14005,6.99709 -29.85731,-20.9909 -69.20067,-33.07573 -105.27077,-32.21336 -56.64673,1.25808 -95.71236,33.13524 -127.10303,58.7484 -48.17243,39.30718 -72.65131,86.48071 -84.42107,109.159 -9.21695,17.75965 -14.34518,32.31372 -18.49365,44.08347 -1.75951,5.00057 -3.3686,9.56342 -4.79542,13.77105 -4.20284,5.77087 -7.96797,11.81059 -11.17251,18.0969 -0.51509,1.02107 -12.66362,25.30391 -10.84891,49.62643 0.20969,2.84441 0.77491,10.39767 6.41816,14.19464 1.55892,1.04844 3.97027,2.0467 7.50307,2.0467 1.88717,0 4.08884,-0.28718 6.65063,-0.99827 4.54464,-1.26264 10.46604,-4.02047 16.81559,-7.44835 -2.70765,3.30932 -5.78907,6.36344 -8.94354,7.94977 -3.27747,1.64563 -5.10991,2.4752 -5.72991,2.74873 -0.57435,0.15044 -1.1487,0.28717 -1.7231,0.41938 -3.65579,0.86608 -7.80391,1.84609 -11.28652,5.57026 -2.73963,2.931 -3.81986,5.92128 -4.768,8.98905 -0.77491,2.50251 -3.13615,10.12413 0.17778,18.31045 2.64837,6.53672 7.53492,10.02844 9.14401,11.17706 5.84381,4.16178 12.46291,5.51111 18.58001,5.51111 7.48487,0 14.22266,-2.01939 17.86818,-3.35951 1.56813,-0.5789 3.09507,-1.26263 4.59937,-1.99651 0.0273,0.0228 0.0594,0.0547 0.0866,0.0775 3.65124,2.89459 8.05912,4.0068 12.53993,4.0068 7.2523,0 14.6871,-2.9219 19.38169,-5.97602 3.58741,-2.33387 6.19027,-4.62667 14.5004,-15.49812 9.88712,-12.93669 16.09559,-21.06442 18.52049,-27.37289 1.44957,-0.19601 2.95376,-0.36466 4.56752,-0.45129 5.93038,-0.3373 9.7367,0.30997 13.09189,0.87064 3.63759,0.60627 6.9014,1.13505 11.04951,0.12308 4.0843,7.68536 6.87398,15.90889 8.18678,24.53724 0.29631,1.93268 1.96012,3.31854 3.8564,3.31854 l 0.59257,-0.0456 c 2.13328,-0.32363 3.60106,-2.31566 3.27747,-4.44894 -1.4085,-9.25804 -4.37602,-18.09223 -8.68822,-26.36584 1.29916,-0.75212 2.53903,-1.56813 3.68777,-2.45699 5.88033,6.21303 11.61922,12.72665 17.05248,19.35954 0.77492,0.94812 1.89629,1.43591 3.02681,1.43591 0.87064,0 1.74586,-0.29174 2.4752,-0.88431 1.67292,-1.36754 1.91447,-3.82897 0.55157,-5.49734 -5.55662,-6.78739 -11.42785,-13.44314 -17.43525,-19.79713 5.19649,-5.97146 8.06833,-12.47225 9.09851,-15.12004 2.44789,-6.29505 3.10429,-11.92961 3.68309,-16.89728 0.77492,-6.65061 1.33556,-11.45969 5.77542,-15.31141 1.26262,-1.08944 2.40226,-1.75041 4.18908,-2.65748 1.10768,-0.5561 27.35422,-13.72086 46.31699,-15.38491 13.5925,-1.19426 22.4134,3.80165 31.77576,10.14688 6.14464,5.96237 12.01597,9.83241 15.50746,12.12567 22.43207,14.73728 46.01242,18.47031 68.15159,20.30708 2.56633,0.21423 5.14643,0.37378 7.73096,0.52876 10.1378,0.61994 19.71545,1.20802 28.36248,4.96404 14.42686,6.25865 23.47531,20.56731 28.53049,31.46652 1.3903,2.99484 1.76861,5.45183 0.96181,6.25865 -0.26894,0.26894 -1.7231,0.2188 -2.68943,0.17777 -2.28826,-0.0911 -5.39255,-0.20057 -8.18678,1.84154 -2.75328,2.01029 -4.49005,5.72069 -4.89567,10.44774 -0.63817,7.43923 2.02394,15.41642 6.77828,20.3304 4.59029,4.7407 11.13611,6.76464 18.05139,6.76464 5.61589,0 11.4688,-1.35843 16.72924,-3.65579 0.97549,0.0865 1.96011,0.14131 2.95376,0.14131 8.19589,0 16.91595,-2.84442 23.53016,-7.37086 12.58078,-8.62437 15.87271,-22.80083 17.64062,-30.41744 5.07351,-21.89412 -0.87976,-40.62349 -2.8353,-46.77793 -13.01371,-40.9199 -43.97494,-101.55523 -58.81141,-129.63529 -1.12591,-17.14001 -5.03243,-33.91827 -10.96737,-48.66488 -3.31854,-8.24151 -7.48941,-16.18661 -12.42557,-23.68536 30.96008,-5.89853 58.25595,-17.83201 81.20265,-35.51464 15.18421,-11.7009 26.92128,-24.93866 33.03838,-37.27321 3.71052,-7.4711 15.17955,-34.08746 7.26607,-63.6297 z M 520.96828,313.38596 c -1.33557,0.2188 -2.46609,1.11224 -2.98573,2.36574 -0.5151,1.25352 -0.34645,2.68489 0.45127,3.78345 6.12644,8.44211 11.17251,17.5636 15.01501,27.09983 6.82392,16.95679 12.97287,43.92477 9.91444,71.18797 -9.60905,-18.85774 -17.21236,-32.87502 -19.12731,-36.38516 -1.03929,-1.89174 -3.40968,-2.59832 -5.30595,-1.55892 -1.89173,1.03475 -2.58921,3.40968 -1.55892,5.30595 2.01484,3.68309 49.49456,90.87074 65.97759,142.70501 1.79603,5.64776 7.26151,22.84167 2.66669,42.64347 -1.6364,7.04272 -4.37147,18.83557 -14.45022,25.74152 -9.41299,6.45457 -24.69243,8.70642 -31.54354,1.6182 -3.69685,-3.81532 -4.98224,-9.89169 -4.60391,-14.22266 0.22335,-2.61196 1.02106,-4.29854 1.714,-4.79997 0.60625,-0.44673 1.92358,-0.40114 3.29112,-0.34188 2.47519,0.0957 5.82558,0.21423 8.50593,-2.46154 2.36574,-2.36574 4.39423,-6.9014 0.60171,-15.0792 -8.06378,-17.3944 -19.30467,-29.61575 -32.5051,-35.34542 -9.90988,-4.30309 -20.63148,-4.95949 -31.00091,-5.59314 -2.52537,-0.15498 -5.05063,-0.30996 -7.5578,-0.51965 -21.10992,-1.75041 -43.54084,-5.26943 -64.5049,-19.04445 -6.29506,-4.13902 -21.04109,-13.83056 -29.36953,-32.47825 -3.97483,-8.89336 -5.98967,-18.52518 -5.98967,-28.63086 0,-2.16071 -1.75041,-3.90656 -3.90657,-3.90656 -2.15615,0 -3.90656,1.74585 -3.90656,3.90656 0,11.21813 2.24275,21.92094 6.66883,31.82244 1.31735,2.94464 2.78058,5.66607 4.32585,8.2142 -5.76632,-2.04215 -12.20737,-3.14071 -20.07954,-2.44789 -20.09819,1.76405 -46.23997,14.72326 -49.15731,16.19128 -1.82789,0.92535 -3.63759,1.90992 -5.625,3.60105 -0.28262,-4.31674 -0.97549,-8.60617 -2.09687,-12.74997 -0.56068,-2.08323 -2.71676,-3.31854 -4.79542,-2.75328 -2.08322,0.56068 -3.31389,2.70765 -2.75328,4.79542 2.01939,7.46199 2.50705,15.45728 1.41759,23.1159 -0.1185,0.81595 0.0912,1.57724 0.43304,2.26095 -0.3282,1.88717 -0.56067,3.81076 -0.78859,5.76631 -0.55156,4.72249 -1.12135,9.6045 -3.20908,14.96484 -0.33276,0.85697 -0.91167,2.21531 -1.714,3.8153 -2.79423,-3.12704 -5.00968,-6.76918 -6.39542,-10.72581 -0.7111,-2.03758 -2.931,-3.10429 -4.9777,-2.40226 -2.03758,0.71567 -3.11338,2.94011 -2.3977,4.98225 1.97377,5.6432 5.26943,10.7942 9.50413,15.01501 -2.82165,3.7607 -6.60966,7.50308 -11.59645,9.63635 -4.07519,1.74585 -6.38631,1.35388 -10.57539,0.6564 -3.57375,-0.59713 -8.02726,-1.33556 -14.8143,-0.96636 -11.82926,0.6564 -19.64192,4.16177 -25.91422,6.97889 -1.34921,0.60624 -2.60741,1.16237 -3.83363,1.67291 1.70024,-3.36859 2.63926,-5.59768 2.76693,-5.89852 9.44953,-22.99688 28.78139,-50.09204 57.45776,-80.52816 1.47688,-1.56814 1.4085,-4.04321 -0.1641,-5.52021 -1.56813,-1.47686 -4.0432,-1.40393 -5.52475,0.1641 -29.33335,31.13395 -49.18066,59.03079 -58.99929,82.91222 -0.10478,0.2507 -10.63467,25.3996 -30.54114,41.28514 -3.57374,2.84896 -7.51672,5.07805 -11.71023,6.62331 -5.46092,2.00574 -19.24983,5.91673 -29.21433,-1.18514 -1.27172,-0.90255 -4.64499,-3.31854 -6.43637,-7.74463 -2.26549,-5.60224 -0.58803,-11.02664 0.0455,-13.06855 0.86154,-2.77603 1.53161,-4.37147 3.01305,-5.95781 1.86896,-2.00107 4.29853,-2.57543 7.3754,-3.30477 0.73845,-0.17778 1.48143,-0.35099 2.21531,-0.54701 l 0.51054,-0.17321 c 0,0 1.98286,-0.83419 6.43638,-3.07232 11.32748,-5.68428 19.98384,-22.81016 20.34909,-23.53484 l 0.1641,-0.37835 41.44502,-110.68652 c 0.75669,-2.02395 -0.26895,-4.27579 -2.28826,-5.02788 -2.01483,-0.76124 -4.27122,0.26439 -5.02787,2.28825 l -40.58728,108.3935 c -11.05407,6.76008 -21.20095,12.1665 -27.52343,13.92626 -4.02046,1.11222 -6.61421,0.72477 -7.70366,-0.005 -2.23365,-1.5043 -2.77603,-5.45181 -2.98574,-8.29169 -1.65017,-22.10767 9.90988,-45.27841 10.02378,-45.5013 4.43074,-8.69731 9.93719,-16.96145 16.37332,-24.55589 1.39485,-1.65017 1.1897,-4.11161 -0.45583,-5.50657 -0.12764,-0.10934 -0.28716,-0.14586 -0.42849,-0.23703 0.28718,-0.87064 0.57891,-1.70932 0.89344,-2.60285 4.24836,-12.06148 9.06653,-25.72751 18.03738,-43.00755 11.52353,-22.20335 35.50063,-68.41182 82.41976,-106.69793 1.91448,-1.55892 3.85638,-3.14525 5.83014,-4.74525 4.53555,4.77722 8.24151,10.48881 10.69396,16.59271 0.61082,1.52251 2.07854,2.45244 3.62847,2.45244 0.48319,0 0.98005,-0.0912 1.45414,-0.28261 2.00105,-0.80684 2.97207,-3.08143 2.1698,-5.08261 -2.73962,-6.8147 -6.84667,-13.18291 -11.85611,-18.57067 7.24319,-5.75721 14.93799,-11.57371 23.12874,-17.08983 l 9.6227,19.99784 c 0.67007,1.3994 2.06945,2.21532 3.52357,2.21532 0.56979,0 1.14871,-0.12308 1.69114,-0.38747 1.94645,-0.93445 2.76237,-3.26835 1.82788,-5.21481 l -10.06029,-20.89988 c 8.16402,-5.12813 16.80626,-9.87791 26.06942,-13.86207 3.46896,7.19312 6.01697,14.77344 7.46655,22.64096 0.34644,1.88261 1.99196,3.19998 3.83818,3.19998 l 0.71566,-0.0638 c 2.11962,-0.39202 3.52357,-2.42957 3.1316,-4.55375 -1.54527,-8.36917 -4.23016,-16.44684 -7.87685,-24.1183 14.31835,-5.34236 29.9845,-8.82499 47.3334,-9.2124 1.08944,-0.0228 2.1789,-0.0364 3.27292,-0.0364 34.11896,0 70.69551,11.7149 98.48384,31.64856 0.77492,0.55611 1.7231,0.80227 2.66202,0.71566 10.03755,-0.99372 23.45315,-2.74417 38.20793,-7.48032 30.64149,-9.83695 83.38132,-37.40624 86.67209,-78.32614 1.20801,-14.8598 -2.73962,-27.64595 -11.10868,-36.0059 -2.19256,-2.18803 -13.78856,-13.00905 -28.95061,-12.11167 -2.81255,0.17777 -5.06894,0.72478 -6.87851,1.16694 -2.76238,0.67919 -3.78346,0.8752 -5.13722,0.21423 -3.44154,-1.66837 -5.862,-7.39361 -4.88656,-11.55083 1.60454,-6.83301 13.25526,-10.67108 23.62586,-11.98446 19.59641,-2.5025 34.18315,8.80222 36.90445,11.08591 5.21016,4.37603 8.14583,8.87516 12.21202,15.10604 2.21533,3.39603 8.96629,13.73488 12.46758,26.81276 7.20678,26.89912 -3.31387,51.28115 -6.7099,58.11475 -5.60679,11.29562 -16.54721,23.56634 -30.8142,34.56124 -23.39363,18.01872 -51.56471,29.81647 -83.73723,35.05836 z m 82.06385,210.99431 c 1.79603,5.64775 7.26151,22.84167 2.67123,42.64346 -1.6364,7.04271 -4.37148,18.83557 -14.45021,25.74152 -2.61651,1.79148 -5.70248,3.21363 -8.91611,4.24836 7.38906,-8.3008 9.87335,-18.59402 11.29107,-24.70644 5.0826,-21.89412 -0.87065,-40.62349 -2.82621,-46.77793 -9.00737,-28.32162 -26.61206,-66.08261 -41.52672,-95.97143 1.3539,-6.56859 2.18347,-13.25059 2.52538,-19.97451 15.89956,30.82821 40.33643,80.53283 51.23098,114.79767 z m -412.46639,76.21514 c 0.56979,-0.41937 1.15783,-0.81595 1.71399,-1.25807 10.96281,-8.7475 19.15881,-19.8018 24.63293,-28.70905 4.49914,-0.75669 8.45121,-2.52082 12.53059,-4.35781 2.61652,-1.17605 5.4062,-2.40682 8.56511,-3.48262 -3.19543,5.16463 -8.41014,12.01131 -14.71394,20.26157 -7.83577,10.25635 -9.97373,12.01131 -12.55394,13.69287 -5.10536,3.31854 -14.01727,6.19481 -20.17522,3.85182 z"
     id="path2"
     style="stroke-width:1.16695" />
</svg>
