<?xml version="1.0" encoding="UTF-8" standalone="no"?>
<!-- Created with Inkscape (http://www.inkscape.org/) -->

<svg
   width="1000"
   height="1000"
   viewBox="0 0 264.58333 264.58333"
   version="1.1"
   id="svg5"
   xml:space="preserve"
   inkscape:version="1.3.2 (091e20ef0f, 2023-11-25, custom)"
   sodipodi:docname="fonts-beyond.svg"
   inkscape:export-filename="title.png"
   inkscape:export-xdpi="96"
   inkscape:export-ydpi="96"
   xmlns:inkscape="http://www.inkscape.org/namespaces/inkscape"
   xmlns:sodipodi="http://sodipodi.sourceforge.net/DTD/sodipodi-0.dtd"
   xmlns="http://www.w3.org/2000/svg"
   xmlns:svg="http://www.w3.org/2000/svg"><sodipodi:namedview
     id="namedview7"
     pagecolor="#d5d5d5"
     bordercolor="#666666"
     borderopacity="1.0"
     inkscape:showpageshadow="false"
     inkscape:pageopacity="0"
     inkscape:pagecheckerboard="false"
     inkscape:deskcolor="#d1d1d1"
     inkscape:document-units="mm"
     showgrid="false"
     showborder="false"
     borderlayer="true"
     inkscape:zoom="0.35590941"
     inkscape:cx="262.7073"
     inkscape:cy="552.10678"
     inkscape:window-width="1836"
     inkscape:window-height="1028"
     inkscape:window-x="84"
     inkscape:window-y="0"
     inkscape:window-maximized="1"
     inkscape:current-layer="g1"
     showguides="true" /><defs
     id="defs2"><rect
       x="839.1709"
       y="2116.1892"
       width="2421.7488"
       height="1651.7422"
       id="rect456" /><rect
       x="204.17683"
       y="426.17783"
       width="571.3186"
       height="278.91776"
       id="rect63" /><rect
       x="204.17683"
       y="426.17783"
       width="571.3186"
       height="278.91776"
       id="rect63-3" /><rect
       x="204.17683"
       y="426.17783"
       width="571.3186"
       height="278.91776"
       id="rect63-0" /><rect
       x="204.17683"
       y="426.17783"
       width="571.3186"
       height="278.91776"
       id="rect63-3-5" /><rect
       x="204.17683"
       y="426.17783"
       width="571.3186"
       height="278.91776"
       id="rect63-3-1" /><rect
       x="204.17683"
       y="426.17783"
       width="571.3186"
       height="278.91776"
       id="rect63-3-59" /><rect
       x="204.17683"
       y="426.17783"
       width="571.3186"
       height="278.91776"
       id="rect63-3-1-1" /><rect
       x="204.17683"
       y="426.17783"
       width="571.3186"
       height="278.91776"
       id="rect63-3-3" /><rect
       x="204.17683"
       y="426.17783"
       width="571.3186"
       height="278.91776"
       id="rect63-3-36" /><rect
       x="204.17683"
       y="426.17783"
       width="571.3186"
       height="278.91776"
       id="rect63-3-1-5" /><rect
       x="204.17683"
       y="426.17783"
       width="571.3186"
       height="278.91776"
       id="rect63-3-1-5-5" /><rect
       x="204.17683"
       y="426.17783"
       width="571.3186"
       height="278.91776"
       id="rect63-3-367" /><rect
       x="204.17683"
       y="426.17783"
       width="571.3186"
       height="278.91776"
       id="rect63-9" /><rect
       x="204.17683"
       y="426.17783"
       width="571.3186"
       height="278.91776"
       id="rect63-0-1" /><rect
       x="204.17683"
       y="426.17783"
       width="571.3186"
       height="278.91776"
       id="rect63-3-1-2" /><rect
       x="204.17683"
       y="426.17783"
       width="571.3186"
       height="278.91776"
       id="rect63-3-1-2-3" /><rect
       x="204.17683"
       y="426.17783"
       width="571.3186"
       height="278.91776"
       id="rect63-9-3" /><rect
       x="204.17683"
       y="426.17783"
       width="571.3186"
       height="278.91776"
       id="rect63-0-1-6" /><rect
       x="204.17683"
       y="426.17783"
       width="571.3186"
       height="278.91776"
       id="rect63-3-1-2-7" /><rect
       x="204.17683"
       y="426.17783"
       width="571.3186"
       height="278.91776"
       id="rect63-3-1-2-3-5" /><rect
       x="204.17683"
       y="426.17783"
       width="571.3186"
       height="278.91776"
       id="rect63-9-2" /><rect
       x="204.17683"
       y="426.17783"
       width="571.3186"
       height="278.91776"
       id="rect63-0-1-61" /><rect
       x="204.17683"
       y="426.17783"
       width="571.3186"
       height="278.91776"
       id="rect63-3-1-2-0" /><rect
       x="204.17683"
       y="426.17783"
       width="571.3186"
       height="278.91776"
       id="rect63-9-2-4" /><rect
       x="204.17683"
       y="426.17783"
       width="571.3186"
       height="278.91776"
       id="rect63-0-1-61-1" /><rect
       x="204.17683"
       y="426.17783"
       width="571.3186"
       height="278.91776"
       id="rect63-3-1-2-0-8" /><rect
       x="204.17683"
       y="426.17783"
       width="571.3186"
       height="278.91776"
       id="rect63-9-2-4-8" /><rect
       x="204.17683"
       y="426.17783"
       width="571.3186"
       height="278.91776"
       id="rect63-0-1-61-1-9" /><rect
       x="204.17683"
       y="426.17783"
       width="571.3186"
       height="278.91776"
       id="rect63-3-1-2-0-8-7" /><rect
       x="204.17683"
       y="426.17783"
       width="571.3186"
       height="278.91776"
       id="rect63-9-2-4-5" /><rect
       x="204.17683"
       y="426.17783"
       width="571.3186"
       height="278.91776"
       id="rect63-0-1-61-1-4" /><rect
       x="204.17683"
       y="426.17783"
       width="571.3186"
       height="278.91776"
       id="rect63-3-1-2-0-8-8" /><rect
       x="204.17683"
       y="426.17783"
       width="571.3186"
       height="278.91776"
       id="rect63-9-2-4-5-8" /><rect
       x="204.17683"
       y="426.17783"
       width="571.3186"
       height="278.91776"
       id="rect63-0-1-61-1-4-6" /><rect
       x="204.17683"
       y="426.17783"
       width="571.3186"
       height="278.91776"
       id="rect63-3-1-2-0-8-8-2" /><rect
       x="204.17683"
       y="426.17783"
       width="571.3186"
       height="278.91776"
       id="rect63-9-36" /><rect
       x="204.17683"
       y="426.17783"
       width="571.3186"
       height="278.91776"
       id="rect63-0-1-7" /><rect
       x="204.17683"
       y="426.17783"
       width="571.3186"
       height="278.91776"
       id="rect63-3-1-2-5" /><rect
       x="204.17683"
       y="426.17783"
       width="571.3186"
       height="278.91776"
       id="rect63-9-36-4" /><rect
       x="204.17683"
       y="426.17783"
       width="571.3186"
       height="278.91776"
       id="rect63-0-1-7-3" /><rect
       x="204.17683"
       y="426.17783"
       width="571.3186"
       height="278.91776"
       id="rect63-3-1-2-5-0" /><rect
       x="204.17683"
       y="426.17783"
       width="571.3186"
       height="278.91776"
       id="rect63-9-36-48" /><rect
       x="204.17683"
       y="426.17783"
       width="571.3186"
       height="278.91776"
       id="rect63-0-1-7-7" /><rect
       x="204.17683"
       y="426.17783"
       width="571.3186"
       height="278.91776"
       id="rect63-3-1-2-5-1" /><rect
       x="204.17683"
       y="426.17783"
       width="571.3186"
       height="278.91776"
       id="rect63-9-9" /><rect
       x="204.17683"
       y="426.17783"
       width="571.3186"
       height="278.91776"
       id="rect63-0-1-77" /><rect
       x="204.17683"
       y="426.17783"
       width="571.3186"
       height="278.91776"
       id="rect63-3-1-2-6" /><rect
       x="204.17683"
       y="426.17783"
       width="571.3186"
       height="278.91776"
       id="rect63-9-9-6" /><rect
       x="204.17683"
       y="426.17783"
       width="571.3186"
       height="278.91776"
       id="rect63-0-1-77-0" /><rect
       x="204.17683"
       y="426.17783"
       width="571.3186"
       height="278.91776"
       id="rect63-3-1-2-6-4" /><rect
       x="204.17683"
       y="426.17783"
       width="571.3186"
       height="278.91776"
       id="rect63-9-36-3" /><rect
       x="204.17683"
       y="426.17783"
       width="571.3186"
       height="278.91776"
       id="rect63-0-1-7-6" /><rect
       x="204.17683"
       y="426.17783"
       width="571.3186"
       height="278.91776"
       id="rect63-3-1-2-5-7" /><rect
       x="204.17683"
       y="426.17783"
       width="571.3186"
       height="278.91776"
       id="rect63-9-36-0" /><rect
       x="204.17683"
       y="426.17783"
       width="571.3186"
       height="278.91776"
       id="rect63-0-1-7-2" /><rect
       x="204.17683"
       y="426.17783"
       width="571.3186"
       height="278.91776"
       id="rect63-3-1-2-5-3" /><rect
       x="204.17683"
       y="426.17783"
       width="571.3186"
       height="278.91776"
       id="rect63-9-36-0-0" /><rect
       x="204.17683"
       y="426.17783"
       width="571.3186"
       height="278.91776"
       id="rect63-0-1-7-2-6" /><rect
       x="204.17683"
       y="426.17783"
       width="571.3186"
       height="278.91776"
       id="rect63-3-1-2-5-3-3" /><rect
       x="204.17683"
       y="426.17783"
       width="571.3186"
       height="278.91776"
       id="rect63-9-367" /><rect
       x="204.17683"
       y="426.17783"
       width="571.3186"
       height="278.91776"
       id="rect63-0-1-5" /><rect
       x="204.17683"
       y="426.17783"
       width="571.3186"
       height="278.91776"
       id="rect63-3-1-2-35" /><rect
       x="204.17683"
       y="426.17783"
       width="571.3186"
       height="278.91776"
       id="rect63-9-7" /><rect
       x="204.17683"
       y="426.17783"
       width="571.3186"
       height="278.91776"
       id="rect63-0-1-59" /><rect
       x="204.17683"
       y="426.17783"
       width="571.3186"
       height="278.91776"
       id="rect63-3-1-2-2" /><rect
       x="204.17683"
       y="426.17783"
       width="571.3186"
       height="278.91776"
       id="rect63-9-6" /><rect
       x="204.17683"
       y="426.17783"
       width="571.3186"
       height="278.91776"
       id="rect63-0-1-1" /><rect
       x="204.17683"
       y="426.17783"
       width="571.3186"
       height="278.91776"
       id="rect63-3-1-2-55" /><rect
       x="204.17683"
       y="426.17783"
       width="571.3186"
       height="278.91776"
       id="rect63-9-367-9" /><rect
       x="204.17683"
       y="426.17783"
       width="571.3186"
       height="278.91776"
       id="rect63-0-1-5-2" /><rect
       x="204.17683"
       y="426.17783"
       width="571.3186"
       height="278.91776"
       id="rect63-3-1-2-35-0" /><rect
       x="204.17683"
       y="426.17783"
       width="571.3186"
       height="278.91776"
       id="rect63-9-3675" /><rect
       x="204.17683"
       y="426.17783"
       width="571.3186"
       height="278.91776"
       id="rect63-0-1-3" /><rect
       x="204.17683"
       y="426.17783"
       width="571.3186"
       height="278.91776"
       id="rect63-3-1-2-56" /><rect
       x="204.17683"
       y="426.17783"
       width="571.3186"
       height="278.91776"
       id="rect63-9-7-7" /><rect
       x="204.17683"
       y="426.17783"
       width="571.3186"
       height="278.91776"
       id="rect63-0-1-59-3" /><rect
       x="204.17683"
       y="426.17783"
       width="571.3186"
       height="278.91776"
       id="rect63-3-1-2-2-6" /><rect
       x="204.17683"
       y="426.17783"
       width="571.3186"
       height="278.91776"
       id="rect63-9-367-5" /><rect
       x="204.17683"
       y="426.17783"
       width="571.3186"
       height="278.91776"
       id="rect63-0-1-5-5" /><rect
       x="204.17683"
       y="426.17783"
       width="571.3186"
       height="278.91776"
       id="rect63-3-1-2-35-4" /><rect
       x="204.17683"
       y="426.17783"
       width="571.3186"
       height="278.91776"
       id="rect63-9-367-4" /><rect
       x="204.17683"
       y="426.17783"
       width="571.3186"
       height="278.91776"
       id="rect63-0-1-5-3" /><rect
       x="204.17683"
       y="426.17783"
       width="571.3186"
       height="278.91776"
       id="rect63-3-1-2-35-1" /><rect
       x="204.17683"
       y="426.17783"
       width="571.3186"
       height="278.91776"
       id="rect63-9-367-4-2" /><rect
       x="204.17683"
       y="426.17783"
       width="571.3186"
       height="278.91776"
       id="rect63-0-1-5-3-6" /><rect
       x="204.17683"
       y="426.17783"
       width="571.3186"
       height="278.91776"
       id="rect63-3-1-2-35-1-1" /><rect
       x="204.17683"
       y="426.17783"
       width="571.3186"
       height="278.91776"
       id="rect63-9-3675-4" /><rect
       x="204.17683"
       y="426.17783"
       width="571.3186"
       height="278.91776"
       id="rect63-0-1-3-8" /><rect
       x="204.17683"
       y="426.17783"
       width="765.69989"
       height="194.08517"
       id="rect63-3-1-2-56-1" /><rect
       x="204.17683"
       y="426.17783"
       width="571.3186"
       height="278.91776"
       id="rect63-9-2-4-5-1" /><rect
       x="204.17683"
       y="426.17783"
       width="571.3186"
       height="278.91776"
       id="rect63-0-1-61-1-4-0" /><rect
       x="204.17683"
       y="426.17783"
       width="571.3186"
       height="278.91776"
       id="rect63-3-1-2-0-8-8-3" /><rect
       x="204.17683"
       y="426.17783"
       width="571.3186"
       height="278.91776"
       id="rect63-9-3675-4-7" /><rect
       x="204.17683"
       y="426.17783"
       width="571.3186"
       height="278.91776"
       id="rect63-0-1-3-8-6" /><rect
       x="204.17683"
       y="426.17783"
       width="765.69989"
       height="194.08517"
       id="rect63-3-1-2-56-1-4" /><rect
       x="204.17683"
       y="426.17783"
       width="571.3186"
       height="278.91776"
       id="rect63-9-367-4-2-2" /><rect
       x="204.17683"
       y="426.17783"
       width="571.3186"
       height="278.91776"
       id="rect63-0-1-5-3-6-8" /><rect
       x="204.17683"
       y="426.17783"
       width="571.3186"
       height="278.91776"
       id="rect63-3-1-2-35-1-1-4" /><rect
       x="204.17683"
       y="426.17783"
       width="571.3186"
       height="278.91776"
       id="rect63-9-1" /><rect
       x="204.17683"
       y="426.17783"
       width="571.3186"
       height="278.91776"
       id="rect63-0-1-32" /><rect
       x="204.17683"
       y="426.17783"
       width="571.3186"
       height="278.91776"
       id="rect63-3-1-2-1" /><rect
       x="204.17683"
       y="426.17783"
       width="571.3186"
       height="278.91776"
       id="rect63-9-7-3" /><rect
       x="204.17683"
       y="426.17783"
       width="571.3186"
       height="278.91776"
       id="rect63-0-1-59-6" /><rect
       x="204.17683"
       y="426.17783"
       width="571.3186"
       height="278.91776"
       id="rect63-3-1-2-2-7" /><rect
       x="204.17683"
       y="426.17783"
       width="571.3186"
       height="278.91776"
       id="rect63-9-7-0" /><rect
       x="204.17683"
       y="426.17783"
       width="571.3186"
       height="278.91776"
       id="rect63-0-1-59-2" /><rect
       x="204.17683"
       y="426.17783"
       width="571.3186"
       height="278.91776"
       id="rect63-3-1-2-2-3" /><rect
       x="204.17683"
       y="426.17783"
       width="571.3186"
       height="278.91776"
       id="rect63-9-7-0-3" /><rect
       x="204.17683"
       y="426.17783"
       width="571.3186"
       height="278.91776"
       id="rect63-0-1-59-2-6" /><rect
       x="204.17683"
       y="426.17783"
       width="672.26129"
       height="198.84702"
       id="rect63-3-1-2-2-3-1" /><rect
       x="204.17683"
       y="426.17783"
       width="571.3186"
       height="278.91776"
       id="rect63-9-7-0-7" /><rect
       x="204.17683"
       y="426.17783"
       width="571.3186"
       height="278.91776"
       id="rect63-0-1-59-2-4" /><rect
       x="204.17683"
       y="426.17783"
       width="571.3186"
       height="278.91776"
       id="rect63-3-1-2-2-3-4" /><rect
       x="204.17683"
       y="426.17783"
       width="571.3186"
       height="278.91776"
       id="rect63-9-7-0-5" /><rect
       x="204.17683"
       y="426.17783"
       width="571.3186"
       height="278.91776"
       id="rect63-0-1-59-2-0" /><rect
       x="204.17683"
       y="426.17783"
       width="571.3186"
       height="278.91776"
       id="rect63-3-1-2-2-3-48" /><rect
       x="204.17683"
       y="426.17783"
       width="571.3186"
       height="278.91776"
       id="rect63-9-7-0-2" /><rect
       x="204.17683"
       y="426.17783"
       width="571.3186"
       height="278.91776"
       id="rect63-0-1-59-2-3" /><rect
       x="204.17683"
       y="426.17783"
       width="571.3186"
       height="278.91776"
       id="rect63-3-1-2-2-3-7" /><rect
       x="204.17683"
       y="426.17783"
       width="571.3186"
       height="278.91776"
       id="rect63-0-1-59-2-36" /><rect
       x="204.17683"
       y="426.17783"
       width="571.3186"
       height="278.91776"
       id="rect63-9-7-0-75" /><rect
       x="204.17683"
       y="426.17783"
       width="571.3186"
       height="278.91776"
       id="rect63-3-1-2-2-3-3" /><rect
       x="204.17683"
       y="426.17783"
       width="571.3186"
       height="278.91776"
       id="rect63-9-7-0-36" /><rect
       x="204.17683"
       y="426.17783"
       width="571.3186"
       height="278.91776"
       id="rect63-3-1-2-2-3-75" /><rect
       x="204.17683"
       y="426.17783"
       width="571.3186"
       height="278.91776"
       id="rect63-0-1-59-2-35" /><rect
       x="204.17683"
       y="426.17783"
       width="571.3186"
       height="278.91776"
       id="rect63-9-7-0-759" /><rect
       x="204.17683"
       y="426.17783"
       width="571.3186"
       height="278.91776"
       id="rect63-3-1-2-2-3-2" /><rect
       x="204.17683"
       y="426.17783"
       width="571.3186"
       height="278.91776"
       id="rect63-0-1-59-2-2" /><rect
       x="204.17683"
       y="426.17783"
       width="571.3186"
       height="278.91776"
       id="rect63-9-7-0-0" /><rect
       x="204.17683"
       y="426.17783"
       width="571.3186"
       height="278.91776"
       id="rect63-3-1-2-2-3-6" /><rect
       x="204.17683"
       y="426.17783"
       width="571.3186"
       height="278.91776"
       id="rect63-0-1-59-2-1" /><rect
       x="204.17683"
       y="426.17783"
       width="571.3186"
       height="278.91776"
       id="rect63-9-7-0-36-4" /><rect
       x="204.17683"
       y="426.17783"
       width="571.3186"
       height="278.91776"
       id="rect63-3-1-2-2-3-75-3" /><rect
       x="204.17683"
       y="426.17783"
       width="571.3186"
       height="278.91776"
       id="rect63-0-1-59-2-35-1" /><rect
       x="204.17683"
       y="426.17783"
       width="571.3186"
       height="278.91776"
       id="rect63-9-7-0-6" /><rect
       x="204.17683"
       y="426.17783"
       width="571.3186"
       height="278.91776"
       id="rect63-3-1-2-2-3-10" /><rect
       x="204.17683"
       y="426.17783"
       width="571.3186"
       height="278.91776"
       id="rect63-0-1-59-2-61" /><rect
       x="204.17683"
       y="426.17783"
       width="297.1218"
       height="117.43306"
       id="rect63-3-1-2-2-3-36-5" /><rect
       x="204.17683"
       y="426.17783"
       width="571.3186"
       height="278.91776"
       id="rect63-9-7-0-367" /><rect
       x="204.17683"
       y="426.17783"
       width="297.1218"
       height="117.43306"
       id="rect63-3-1-2-2-3-36-5-5" /><rect
       x="204.17683"
       y="426.17783"
       width="571.3186"
       height="278.91776"
       id="rect63-9-7-0-1" /><rect
       x="204.17683"
       y="426.17783"
       width="297.1218"
       height="117.43306"
       id="rect63-3-1-2-2-3-36-5-8" /><rect
       x="204.17683"
       y="426.17783"
       width="571.3186"
       height="278.91776"
       id="rect63-9-7-0-1-3" /><rect
       x="204.17683"
       y="426.17783"
       width="297.1218"
       height="117.43306"
       id="rect63-3-1-2-2-3-36-5-8-6" /><rect
       x="204.17683"
       y="426.17783"
       width="571.3186"
       height="278.91776"
       id="rect63-9-7-0-37" /><rect
       x="204.17683"
       y="426.17783"
       width="212.99303"
       height="62.582851"
       id="rect63-3-1-2-2-3-36-5-59" /><rect
       x="204.17683"
       y="426.17783"
       width="571.3186"
       height="278.91776"
       id="rect63-9-7-0-20" /><rect
       x="204.17683"
       y="426.17783"
       width="571.3186"
       height="278.91776"
       id="rect63-9-7-0-9" /><rect
       x="204.17683"
       y="426.17783"
       width="297.1218"
       height="117.43306"
       id="rect63-3-1-2-2-3-36-5-2" /><rect
       x="204.17683"
       y="426.17783"
       width="571.3186"
       height="278.91776"
       id="rect63-9-7-0-37-0" /><rect
       x="204.17683"
       y="426.17783"
       width="571.3186"
       height="278.91776"
       id="rect63-9-7-0-37-0-7" /><rect
       x="204.17683"
       y="426.17783"
       width="571.3186"
       height="278.91776"
       id="rect63-9-7-0-37-9" /><rect
       x="204.17683"
       y="426.17783"
       width="297.1218"
       height="117.43306"
       id="rect63-3-1-2-2-3-36-5-59-3" /><rect
       x="204.17683"
       y="426.17783"
       width="571.3186"
       height="278.91776"
       id="rect63-9-7-0-37-9-0" /><rect
       x="204.17683"
       y="426.17783"
       width="297.1218"
       height="117.43306"
       id="rect63-3-1-2-2-3-36-5-59-1" /><rect
       x="204.17683"
       y="426.17783"
       width="571.3186"
       height="278.91776"
       id="rect63-9-7-0-37-0-5" /></defs><g
     inkscape:label="Layer 1"
     inkscape:groupmode="layer"
     id="layer1"><g
       aria-label="zenned"
       transform="matrix(2.8931816,0,0,2.8931816,28.74767,-917.25312)"
       id="text61-1"
       style="font-size:40px;white-space:pre" /><g
       id="g1070"
       transform="translate(0,0.86600098)"><g
         id="g5067"
         transform="translate(0,-2.5264615)"><text
           xml:space="preserve"
           transform="matrix(0.71560659,0,0,0.6429195,-113.9828,-412.76452)"
           id="text61-6-1-9-97-9-7-3-0"
           style="font-style:normal;font-weight:normal;font-size:25.0095px;line-height:1.25;font-family:sans-serif;white-space:pre;shape-inside:url(#rect63-3-1-2-2-3-36-5-2);display:inline;fill:#000000;fill-opacity:1;stroke:none"
           x="130.4599"
           y="0" /><g
           id="g1"
           transform="translate(-0.01428889,3.4941985)"><text
             xml:space="preserve"
             transform="matrix(1.6493728,0,0,1.6493728,-307.24104,-535.07423)"
             id="text61-7-2-7-2"
             style="font-style:normal;font-weight:normal;font-size:40px;line-height:1.25;font-family:sans-serif;white-space:pre;shape-inside:url(#rect63-9-7-0-37);display:inline;fill:#000000;fill-opacity:1;stroke:none"><tspan
               x="204.17773"
               y="462.57274"
               id="tspan5"><tspan
                 style="font-family:'Baloo 2';-inkscape-font-specification:'Baloo 2, '"
                 id="tspan3">zenned</tspan></tspan></text><g
             id="g1347-9"
             transform="matrix(1.1714531,0,0,1.1714531,-19.693015,-21.419794)"><polygon
               fill="none"
               points="42.82822,8.63276 42.82822,8.63281 "
               id="polygon299-1-6-2-7"
               transform="matrix(1.6209594,0,0,1.6209594,51.243728,23.960012)" /><polygon
               fill="#000000"
               points="23.68373,80.93826 23.68378,80.93831 "
               id="polygon301-9-1-8-36"
               transform="matrix(1.6209594,0,0,1.6209594,51.243728,23.960012)" /><polygon
               fill="#000000"
               points="67.01939,2.51104 67.02,2.51104 67.02028,2.511 "
               id="polygon303-4-2-9-1"
               transform="matrix(1.6209594,0,0,1.6209594,51.243728,23.960012)" /><polygon
               fill="#000000"
               points="45.68749,2.50708 45.68772,2.50708 45.68786,2.50703 "
               id="polygon305-7-93-7-2"
               transform="matrix(1.6209594,0,0,1.6209594,51.243728,23.960012)" /><polygon
               fill="#000000"
               points="68.55018,89.62878 68.55041,89.62892 68.5505,89.62897 "
               id="polygon307-8-1-3-9"
               transform="matrix(1.6209594,0,0,1.6209594,51.243728,23.960012)" /><path
               fill="#000000"
               d="m 184.75449,93.392073 c -0.21011,-0.885821 -0.44791,-1.822039 -0.83233,-2.873847 l 2.2e-4,5.35e-4 c -1.08821,-2.988709 -2.54806,-5.181462 -4.04787,-7.172292 -2.81725,-3.74273 -5.91393,-7.063119 -8.00795,-9.197177 -0.58205,-3.612065 -1.22394,-7.548484 -1.93212,-11.87583 2.00515,-0.143746 3.99907,-0.425356 5.96047,-0.858427 0.66851,-0.14754 1.09085,-0.809183 0.94323,-1.477699 -0.1476,-0.668452 -0.80925,-1.090793 -1.4777,-0.943172 -1.91782,0.423395 -3.86962,0.682683 -5.83002,0.81176 -0.1175,-0.71755 -0.23796,-1.452444 -0.35885,-2.190191 1.93243,-0.509938 3.86424,-1.019973 5.79566,-1.52991 0.66189,-0.174772 1.05682,-0.853063 0.88205,-1.515014 -0.17479,-0.661951 -0.85308,-1.056817 -1.51494,-0.882045 -1.85494,0.48974 -3.71005,0.979416 -5.56551,1.469157 -0.28244,-1.723518 -0.57116,-3.486473 -0.87107,-5.318709 h -7e-5 c -0.22834,-1.391901 -1.08147,-6.609997 -2.30883,-11.5222 -0.61624,-2.46052 -1.31941,-4.839796 -2.12112,-6.68581 -0.40508,-0.925389 -0.82666,-1.718914 -1.34076,-2.360959 -0.25958,-0.32027 -0.54519,-0.607698 -0.90179,-0.839447 -0.35227,-0.229706 -0.80139,-0.402127 -1.29385,-0.401074 l -0.0509,5.84e-4 c -0.59272,0.02073 -1.02837,0.279713 -1.37633,0.548387 -0.52507,0.417332 -0.97077,0.956868 -1.52378,1.678049 -0.54701,0.720047 -1.17855,1.621008 -1.95164,2.722223 l -1.4e-4,3.08e-4 c -1.35597,1.933173 -2.38487,3.674715 -3.164,5.105439 -5.47398,-0.027 -10.94794,-0.05454 -16.42199,-0.08209 -1.33236,-1.372012 -3.22401,-3.405814 -5.37077,-6.034912 l 8e-5,8.1e-5 c -0.94567,-1.156831 -1.60618,-2.026767 -2.22136,-2.688945 -0.31066,-0.330935 -0.61218,-0.618056 -0.98297,-0.855559 -0.36408,-0.235833 -0.83891,-0.414155 -1.3369,-0.410832 l -0.22895,0.01143 c -0.53316,0.05122 -1.00355,0.287056 -1.36194,0.57865 -0.6301,0.518723 -1.02216,1.185213 -1.36936,1.925311 -0.50937,1.112108 -0.87692,2.433497 -1.18228,3.75573 -0.30271,1.318894 -0.5343,2.633557 -0.72132,3.668507 v 0 c -0.0136,0.0749 -0.38625,2.024497 -3.79449,17.619213 -2.02064,-0.393586 -4.00458,-0.978509 -5.90728,-1.763928 -0.63282,-0.261186 -1.35755,0.04002 -1.61874,0.672844 -0.26125,0.632822 0.04,1.357634 0.67283,1.618803 2.03811,0.841262 4.16074,1.468476 6.32356,1.89354 -0.11152,0.509338 -0.22532,1.029196 -0.34259,1.564404 -0.0775,6.81e-4 -0.15495,0.005 -0.23251,0.005 -1.68841,0 -3.3779,-0.170687 -5.0325,-0.508349 -0.6708,-0.136939 -1.32555,0.295906 -1.46243,0.966708 -0.13686,0.670802 0.29591,1.325556 0.96671,1.462429 1.71339,0.34969 3.45999,0.521901 5.2084,0.542325 -0.9297,4.065561 -2.04054,7.960742 -3.20494,11.565853 -2.73524,4.378503 -4.77397,7.33254 -6.35676,9.443904 -0.8405,1.121039 -2.63621,3.48965 -3.98362,7.054578 -0.38088,1.005367 -0.65491,1.974636 -0.8955,2.989908 -0.2642,1.114993 -0.40584,2.276297 -0.40598,3.44107 1.4e-4,1.551177 0.26428,3.118758 0.83474,4.574915 -0.0497,0.19278 -0.10025,0.37056 -0.1495,0.58114 -0.0696,0.29568 -0.16842,0.7329 -0.2773,1.29166 -4.943436,3.68167 -8.93667,7.08371 -11.953454,9.81773 -2.642941,2.39682 -4.690586,4.40929 -6.232913,6.43568 -1.541192,2.02155 -2.56546,4.08305 -3.071021,6.43378 -0.239091,1.10402 -0.329119,2.0935 -0.329038,2.95427 -0.0029,1.84609 0.422859,3.11407 0.61624,3.61963 l 1.46e-4,3.9e-4 c 1.252774,3.29596 3.875892,4.95018 5.201059,5.77917 0.649615,0.41007 1.422927,0.80758 2.753929,1.21049 1.34076,0.41044 3.298458,0.87342 6.581322,1.53589 h -2.27e-4 c 3.08e-4,0 0.08338,0.0168 0.251492,0.0522 1.172116,0.24658 6.296165,1.36566 12.066485,3.20299 l 7.6e-4,2.2e-4 c 0.75774,0.24038 1.47339,0.49323 2.11273,1.14679 0.56956,0.59998 0.70197,1.06884 0.8806,1.76097 0.0865,0.34183 0.16811,0.73414 0.34395,1.17583 0.17273,0.438 0.47105,0.92918 0.93296,1.31656 0.7985,0.67231 1.78444,0.88816 2.72466,0.88832 1.07278,-0.003 2.1597,-0.27035 3.19706,-0.66967 1.03601,-0.40229 2.01679,-0.94173 2.84125,-1.55435 0.22313,-0.16766 1.20874,-0.92168 2.17604,-2.17317 0.54497,-0.70749 1.08875,-1.59459 1.46349,-2.62834 1.62713,0.60231 3.20243,1.09077 4.6955,1.5035 -0.78369,2.7043 -2.0099,5.23194 -3.67501,7.44392 -3.04249,4.03628 -7.4769,7.05928 -13.19563,8.32474 -1.20669,0.26618 -2.4112,0.3914 -3.60957,0.39147 -5.95811,0.0102 -11.847301,-3.14411 -16.427127,-7.56444 l -4.9e-5,-1.1e-4 c -0.708926,-0.6739 -1.684339,-1.98962 -2.808782,-3.1653 -0.568811,-0.58991 -1.184759,-1.1548 -1.892243,-1.60044 -0.703561,-0.44177 -1.528095,-0.77467 -2.454165,-0.77566 -0.740325,-0.003 -1.508125,0.22806 -2.199496,0.67489 l 1.46e-4,-1.5e-4 c -0.677156,0.42944 -1.191486,1.01876 -1.498059,1.6686 -0.309976,0.64999 -0.420898,1.336 -0.420752,1.99249 0.0024,0.96617 0.22909,1.89195 0.512061,2.75106 0.284705,0.85752 0.634703,1.65005 0.923947,2.30187 2.344167,5.28104 6.064641,9.21979 10.452222,11.80999 4.388553,2.59285 9.435277,3.85122 14.484567,3.85161 5.6567,-9.9e-4 11.32851,-1.57789 16.11171,-4.67782 5.91431,-3.8329 10.29589,-8.39011 13.18186,-13.60706 1.30831,-2.36261 2.29105,-4.86317 2.99196,-7.47667 1.79033,0.32383 3.66933,0.58743 5.60569,0.71362 0.90126,4.35194 1.24762,8.15051 1.24801,11.43519 -8e-5,2.70906 -0.23098,5.07493 -0.57213,7.13144 -0.23128,1.40833 -0.6997,3.71064 -0.70121,6.12569 7.6e-4,1.24044 0.12287,2.52121 0.4911,3.75272 0.36702,1.22826 0.99439,2.41769 1.99659,3.37963 1.02669,0.98524 2.26478,1.56773 3.48903,1.90549 1.22742,0.33774 2.45486,0.43905 3.54139,0.4398 1.66853,8e-5 3.02842,-0.24636 3.47135,-0.32572 l -6.8e-4,8e-5 c 1.10167,-0.19967 2.45598,-0.47748 3.77547,-1.07165 1.3133,-0.58999 2.62698,-1.53702 3.45689,-3.05158 0.52054,-0.95029 0.76234,-2.01057 0.7631,-3.05998 -9.1e-4,-1.03661 -0.23591,-2.07028 -0.71901,-2.99461 -0.48142,-0.92147 -1.22727,-1.73872 -2.22394,-2.25526 -0.6189,-0.31656 -1.18959,-0.48989 -1.58975,-0.67677 -0.20019,-0.0906 -0.35378,-0.17871 -0.45488,-0.25642 l -0.19346,-0.20889 c -0.0815,-0.14271 -0.12181,-0.3214 -0.12227,-0.54544 -8.2e-4,-0.26541 0.0622,-0.55117 0.12128,-0.77778 2.81704,-11.05045 4.93073,-18.41123 6.3374,-23.00141 0.70334,-2.29506 1.22984,-3.89754 1.57901,-4.92218 0.17463,-0.51229 0.30484,-0.88023 0.39064,-1.11794 0.043,-0.11893 0.0747,-0.20526 0.0954,-0.26088 l 0.0287,-0.0764 c 0.61723,-1.60814 1.42649,-3.7596 2.35089,-6.33278 1.57758,-3.42556 2.65967,-6.84257 3.54851,-9.71627 1.16477,-3.75687 1.82923,-7.07977 1.8246,-11.73791 -5.2e-4,-0.61889 -0.0131,-1.26389 -0.0362,-1.93521 0.69146,-0.11538 1.37391,-0.27305 2.03616,-0.50063 1.50016,-0.51464 2.90712,-1.35318 4.07078,-2.5871 2.00234,-2.12695 2.8127,-4.974691 2.81286,-7.755398 -3e-5,-1.1656 -0.1419,-2.327649 -0.4064,-3.443323 z m -7.28382,11.441537 c -1.17605,0.40524 -2.50078,0.58546 -3.89602,0.58509 -2.24996,0.002 -4.6725,-0.47037 -6.88274,-1.12302 -4.82043,-1.41899 -9.4843,-3.38999 -13.29816,-6.439841 -3.81044,-3.040839 -6.75223,-7.283668 -7.53773,-11.948529 l -9e-5,-3.73e-4 c -0.11802,-0.69403 -0.18543,-1.396068 -0.18535,-2.082074 -1.6e-4,-1.145418 0.18741,-2.238464 0.61882,-3.206987 0.33471,-0.755075 0.8635,-1.456286 1.49306,-1.969644 0.63099,-0.515773 1.34864,-0.841343 2.08721,-0.92077 0.12227,-0.01329 0.24514,-0.01974 0.36832,-0.01974 0.69712,-6.81e-4 1.41764,0.210935 2.0823,0.596497 0.66377,0.383827 1.26245,0.940367 1.69886,1.57507 l -8e-5,-1.46e-4 c 0.93265,1.34598 1.32607,3.123151 1.32411,4.939274 l -0.003,0.273731 v -0.0012 c -0.004,0.198308 -0.0117,0.420282 -0.0117,0.660054 7.7e-4,0.364684 0.0154,0.771431 0.10866,1.21123 0.0925,0.436848 0.27509,0.918889 0.61768,1.348784 l 8.3e-4,0.0011 c 0.73518,0.912827 1.69001,1.169246 2.07042,1.281076 1.42928,0.399405 3.48723,0.78375 5.28596,1.089577 1.79411,0.304075 3.30935,0.521981 3.56939,0.558971 0.67775,0.09646 1.30542,-0.374749 1.4019,-1.052505 0.0965,-0.677836 -0.37475,-1.305423 -1.05251,-1.401968 -0.24598,-0.03495 -1.74441,-0.250503 -3.50448,-0.548824 -1.75545,-0.296587 -3.79222,-0.683656 -5.03099,-1.032373 -0.29733,-0.07808 -0.62781,-0.212751 -0.80062,-0.438826 -0.0499,-0.06378 -0.0957,-0.152143 -0.13331,-0.323673 -0.0371,-0.169018 -0.0545,-0.409617 -0.0537,-0.692506 -8e-5,-0.185973 0.006,-0.389647 0.0112,-0.606401 v -0.0011 l 0.003,-0.325035 c -0.002,-2.153574 -0.44699,-4.430325 -1.7618,-6.345942 l -8e-5,-2.27e-4 c -0.64826,-0.93886 -1.5039,-1.736161 -2.49662,-2.312769 -0.99174,-0.574857 -2.12981,-0.930301 -3.32584,-0.930982 -0.21041,0 -0.42232,0.01118 -0.63478,0.03412 -1.28682,0.139662 -2.44494,0.692961 -3.39038,1.46658 -0.94687,0.775969 -1.69522,1.774675 -2.18853,2.880882 -0.60384,1.358315 -0.8327,2.803271 -0.83286,4.21477 8e-5,0.84747 0.0825,1.685701 0.2204,2.497445 0.92638,5.423811 4.25025,10.124382 8.43437,13.470415 4.18049,3.338169 9.15019,5.407989 14.14493,6.881089 2.36731,0.6963 4.99346,1.22249 7.58351,1.2241 0.0654,0 0.13044,-0.006 0.19582,-0.006 0.019,0.59939 0.0281,1.17227 0.0276,1.7224 -0.005,4.43342 -0.59588,7.37242 -1.71414,11.00619 -0.4834,1.56683 -1.0236,3.27182 -1.65376,5.02461 -0.19491,0.14406 -0.36271,0.32768 -0.44762,0.57412 -1.50856,4.38228 -2.83368,7.92239 -3.74392,10.29379 -0.0245,0.0647 -2.86803,7.48849 -8.51897,29.65491 -0.066,0.2642 -0.19724,0.76915 -0.19808,1.38994 -4.4e-4,0.52108 0.0965,1.15494 0.44631,1.77088 0.2275,0.40161 0.53401,0.71877 0.84603,0.95543 0.47152,0.35606 0.94816,0.55588 1.36452,0.72512 0.41758,0.16599 0.78278,0.30082 1.03994,0.43617 l 5.2e-4,3.1e-4 c 0.49618,0.25807 0.88764,0.66919 1.17016,1.20562 0.28091,0.53363 0.4367,1.18756 0.43579,1.84382 6.8e-4,0.66505 -0.1582,1.32465 -0.45714,1.86691 -0.50653,0.91994 -1.30466,1.53028 -2.30444,1.9853 -0.99356,0.45086 -2.15357,0.70561 -3.19337,0.8909 l -6.8e-4,1.4e-4 c -0.4041,0.0733 -1.59673,0.2863 -3.03131,0.28638 -0.92788,6.8e-4 -1.94687,-0.0915 -2.88193,-0.35053 -0.93841,-0.25894 -1.77883,-0.67627 -2.43109,-1.30356 -0.63645,-0.61248 -1.06255,-1.38495 -1.33925,-2.30369 -0.27546,-0.91547 -0.38746,-1.9667 -0.38669,-3.04068 -0.002,-2.10264 0.42195,-4.251 0.66777,-5.72001 0.36202,-2.18142 0.60565,-4.68696 0.60557,-7.53714 7.6e-4,-6.789 -1.38359,-15.52465 -5.78841,-26.53834 -0.25422,-0.6357 -0.97556,-0.94499 -1.61125,-0.69078 -0.6357,0.25414 -0.94493,0.97556 -0.69078,1.61125 1.69909,4.25003 2.91684,8.11858 3.78579,11.65785 -3.09206,-0.26472 -6.09559,-0.90012 -8.88054,-1.49829 -2.87309,-0.61481 -6.76532,-1.46282 -10.85064,-3.01458 9.9e-4,-0.0466 0.008,-0.0906 0.008,-0.13763 0,-0.25573 -0.0135,-0.51607 -0.0416,-0.78012 -0.14443,-1.37028 -0.66179,-2.51471 -1.2747,-3.4348 -0.61346,-0.92237 -1.31935,-1.64211 -1.88606,-2.22825 -1.02911,-1.06439 -2.14918,-1.85736 -3.48457,-2.56358 -0.99083,-0.525 -2.10357,-1.01346 -3.43593,-1.56919 0.006,-0.003 0.0125,-0.005 0.0188,-0.008 l -2.3e-4,8e-5 c 1.48981,-0.76318 2.36504,-1.85775 2.81416,-2.52764 0.38086,-0.5689 0.22849,-1.33888 -0.3404,-1.71974 -0.56889,-0.38088 -1.3388,-0.22841 -1.71966,0.34046 -0.31111,0.46561 -0.91033,1.20382 -1.88279,1.69953 l -2.3e-4,1.6e-4 c -0.76272,0.38957 -1.52658,0.52213 -2.2399,0.52304 -0.54422,0.001 -1.04562,-0.0815 -1.46386,-0.18319 -0.44549,-0.15555 -0.86373,-0.29825 -1.21698,-0.41415 -0.62548,-0.2052 -1.30233,0.11432 -1.54141,0.72761 -0.23909,0.61329 0.0429,1.30656 0.64228,1.57887 0.18483,0.082 0.68813,0.30005 1.39932,0.48384 0.88824,0.31171 1.92886,0.69652 3.10446,1.17929 l 4.6e-4,2.3e-4 c 2.02419,0.82975 3.52567,1.45478 4.69982,2.07883 1.17697,0.62691 2.02435,1.23392 2.8669,2.09947 0.56683,0.58294 1.14866,1.19126 1.60019,1.87341 0.45205,0.68458 0.77694,1.42125 0.87516,2.32675 0.0187,0.17576 0.0276,0.34796 0.0276,0.51714 0.004,1.441 -0.66051,2.74 -1.42512,3.72926 -0.75765,0.98463 -1.58084,1.61661 -1.69302,1.69847 l -4.6e-4,3.1e-4 c -0.62024,0.46317 -1.43231,0.91305 -2.25624,1.23113 -0.82264,0.32118 -1.66262,0.50526 -2.30164,0.50231 -0.57508,1.4e-4 -0.93605,-0.13778 -1.12066,-0.29954 -0.10955,-0.0975 -0.1597,-0.16894 -0.23733,-0.3524 -0.11674,-0.26715 -0.2027,-0.78989 -0.40947,-1.47286 -0.20806,-0.67972 -0.59423,-1.51024 -1.33834,-2.26706 -1.0929,-1.12582 -2.35649,-1.53152 -3.13859,-1.78027 l 7.7e-4,2.9e-4 c -6.73673,-2.14419 -12.552,-3.31723 -12.579459,-3.32296 l -2.27e-4,-9e-5 c -3.248062,-0.65452 -5.154764,-1.11037 -6.344662,-1.47588 -1.199429,-0.37308 -1.62305,-0.60862 -2.169378,-0.94416 l -3.73e-4,-2.9e-4 c -1.278872,-0.79314 -3.268714,-2.10718 -4.193876,-4.55379 -0.132335,-0.35357 -0.452523,-1.25763 -0.455328,-2.74116 8.1e-5,-0.68842 0.0715,-1.49874 0.272905,-2.42966 0.431402,-1.97569 1.246259,-3.6433 2.62161,-5.45793 1.374201,-1.80993 3.32039,-3.74075 5.924137,-6.09907 3.153641,-2.85804 7.397151,-6.45996 12.693331,-10.34666 3e-4,3e-4 4.5e-4,6e-4 7.6e-4,9e-4 1.16349,1.23423 2.57061,2.07292 4.07094,2.58764 1.50222,0.51637 3.09804,0.71975 4.7036,0.72021 2.58968,-0.002 5.2156,-0.52766 7.58267,-1.22417 4.99452,-1.47361 9.96368,-3.54283 14.14433,-6.881084 4.18389,-3.346504 7.50785,-8.046475 8.43423,-13.470351 0.13809,-0.812425 0.22063,-1.651418 0.22077,-2.499714 -1.4e-4,-1.410527 -0.22901,-2.854785 -0.83324,-4.212501 -0.49322,-1.105981 -1.2412,-2.104767 -2.188,-2.880818 -0.94529,-0.773765 -2.10363,-1.327063 -3.39084,-1.46666 -0.21252,-0.023 -0.42444,-0.03412 -0.63493,-0.03412 -1.19602,6.81e-4 -2.33401,0.356125 -3.32583,0.930982 -0.99266,0.576607 -1.84822,1.373828 -2.49647,2.312687 -1.31566,1.915326 -1.75999,4.192142 -1.76203,6.345797 l 0.004,0.325862 c 0.005,0.217143 0.011,0.421271 0.011,0.60747 7.7e-4,0.282971 -0.0166,0.523343 -0.0536,0.692053 -0.0377,0.17174 -0.0834,0.259742 -0.13385,0.323965 l -1.6e-4,1.62e-4 c -0.17159,0.225232 -0.50078,0.359302 -0.80153,0.438972 -1.23846,0.348555 -3.27439,0.735494 -5.02932,1.031919 -1.7603,0.298321 -3.25865,0.513795 -3.50469,0.548905 -0.67776,0.09654 -1.14889,0.724293 -1.05228,1.402049 0.0966,0.677837 0.72429,1.148968 1.40211,1.052359 0.25936,-0.03701 1.77497,-0.254896 3.56918,-0.558971 1.79887,-0.305811 3.85689,-0.690172 5.28603,-1.089577 l 0.002,-5.19e-4 c 0.37709,-0.111667 1.33336,-0.367325 2.06838,-1.281141 0.3429,-0.429976 0.5259,-0.912308 0.61851,-1.349238 0.0932,-0.440042 0.10774,-0.846627 0.10857,-1.210938 -8e-5,-0.23961 -0.007,-0.461454 -0.0115,-0.659455 l -0.003,-0.273877 c -0.002,-1.81682 0.39108,-3.593537 1.32389,-4.938447 l 1.6e-4,-2.27e-4 c 0.43641,-0.634703 1.0351,-1.191259 1.69887,-1.57507 0.66467,-0.385562 1.38509,-0.597178 2.08222,-0.596497 0.12324,0 0.24612,0.0065 0.36854,0.01974 0.73919,0.07944 1.45659,0.405013 2.08744,0.920705 0.62933,0.513277 1.1579,1.214488 1.49269,1.969644 l 2.3e-4,6e-4 c 0.43156,0.967615 0.61904,2.059542 0.61889,3.204183 9e-5,0.686606 -0.0675,1.389486 -0.18566,2.084343 l -8e-5,3.73e-4 c -0.7855,4.664861 -3.72722,8.90709 -7.53774,11.948529 -3.81384,3.049836 -8.47705,5.020246 -13.29762,6.439846 -2.20979,0.65271 -4.63204,1.12453 -6.8817,1.12302 -1.39562,3.9e-4 -2.72072,-0.17991 -3.89692,-0.5853 -1.17801,-0.40689 -2.2069,-1.02783 -3.07488,-1.94528 -1.45622,-1.53664 -2.13723,-3.738712 -2.13701,-6.054803 -1.4e-4,-0.96285 0.11811,-1.937485 0.33911,-2.869163 0.22548,-0.950596 0.46834,-1.803269 0.80169,-2.683871 1.22864,-3.23845 2.82248,-5.34278 3.64891,-6.445519 1.83255,-2.444714 4.2137,-5.920213 7.50135,-11.271 0.25421,-0.413783 0.22494,-0.912909 -0.0151,-1.29907 1.00651,-3.298684 1.95589,-6.800735 2.75311,-10.437017 4.66009,-21.259579 4.98626,-23.06421 4.99709,-23.12057 v -3.3e-5 c 0.28438,-1.582721 0.66412,-3.726391 1.19223,-5.422968 0.25974,-0.844666 0.56504,-1.575313 0.84906,-2.015274 0.13929,-0.220467 0.27064,-0.362706 0.34736,-0.422779 l 0.0336,-0.0224 c 0.12082,0.06537 0.44458,0.358329 0.87538,0.87394 0.44056,0.51835 1.00748,1.244524 1.7472,2.150997 l 8e-5,8.1e-5 c 2.40317,2.94316 4.50522,5.171638 5.88094,6.572552 0.23206,0.236288 0.54703,0.369368 0.87825,0.371038 5.89418,0.02966 11.78836,0.05931 17.68263,0.08838 0.46265,0.0023 0.88726,-0.252546 1.10288,-0.66187 0.76787,-1.45781 1.86691,-3.371158 3.36208,-5.502866 l -1.4e-4,3.08e-4 c 1.0282,-1.466287 1.79835,-2.559106 2.353,-3.224526 0.24136,-0.292129 0.43096,-0.48157 0.5595,-0.590823 0.12265,0.110468 0.32149,0.325715 0.52758,0.668078 0.55488,0.88023 1.17174,2.417175 1.72603,4.204104 1.68387,5.386286 2.9483,13.067381 3.22702,14.780022 l -8e-5,-8.1e-5 c 1.39524,8.511706 2.59655,15.818067 3.62083,22.148659 -0.16274,0.06152 -0.31647,0.151544 -0.44646,0.283717 -0.47992,0.488233 -0.47309,1.273117 0.0151,1.752954 1.7848,1.753343 5.78713,5.804753 9.25302,10.411892 1.44184,1.918049 2.71784,3.844867 3.69967,6.531153 l 2.3e-4,6e-4 c 0.33463,0.916458 0.54476,1.735561 0.74864,2.595351 0.22131,0.932278 0.33972,1.90761 0.33964,2.87114 1.5e-4,2.315638 -0.68056,4.517177 -2.13641,6.053367 -0.86804,0.91718 -1.89693,1.53796 -3.0748,1.94478 z m -84.239879,62.06195 c -3.971529,-2.35013 -7.308857,-5.87406 -9.448054,-10.68238 -0.285548,-0.64182 -0.600209,-1.36248 -0.836334,-2.07557 -0.237957,-0.71144 -0.388511,-1.41363 -0.386015,-1.97064 1.46e-4,-0.38178 0.06447,-0.68524 0.179019,-0.92471 0.117876,-0.23961 0.277216,-0.43965 0.596886,-0.64809 l 1.46e-4,-8e-5 c 0.354017,-0.22236 0.607924,-0.28039 0.862901,-0.28373 0.313234,-0.001 0.687222,0.11494 1.136325,0.39645 0.67064,0.41523 1.430578,1.18596 2.153428,2.02315 0.731556,0.83846 1.4227,1.72738 2.145032,2.42768 4.905461,4.7223 11.301185,8.2484 18.147625,8.25861 1.37134,8e-5 2.75742,-0.14374 4.14381,-0.44972 6.27778,-1.38199 11.26359,-4.76019 14.64216,-9.25483 1.86759,-2.48148 3.22984,-5.30571 4.09281,-8.31371 1.3621,0.32912 2.62289,0.60376 3.70708,0.83664 0.62699,0.13407 1.27555,0.27126 1.9334,0.40758 -0.64803,2.36496 -1.54247,4.62007 -2.72261,6.7539 -2.66807,4.81861 -6.72757,9.07302 -12.36149,12.72731 -4.34997,2.82217 -9.5664,4.27982 -14.76292,4.27884 -4.639,3.3e-4 -9.252578,-1.15923 -13.223199,-3.5067 z M 120.66653,37.953365 v 0 8.2e-5 z"
               id="path309-4-9-6-3"
               style="stroke-width:1.62096" /><polygon
               fill="#000000"
               points="56.86023,38.4725 56.86023,38.47245 56.86018,38.47226 "
               id="polygon311-5-4-1-1"
               transform="matrix(1.6209594,0,0,1.6209594,51.243728,23.960012)" /><polygon
               fill="#000000"
               points="42.37215,76.56866 42.37192,76.5688 42.37188,76.56885 "
               id="polygon313-0-7-2-9"
               transform="matrix(1.6209594,0,0,1.6209594,51.243728,23.960012)" /><polygon
               fill="#000000"
               points="20.97294,70.35883 20.97289,70.35878 20.97271,70.35869 "
               id="polygon315-3-8-9-4"
               transform="matrix(1.6209594,0,0,1.6209594,51.243728,23.960012)" /><polygon
               fill="#000000"
               points="56.20532,38.27921 56.20527,38.2794 56.20527,38.27945 "
               id="polygon317-6-4-3-7"
               transform="matrix(1.6209594,0,0,1.6209594,51.243728,23.960012)" /><polygon
               fill="#000000"
               points="48.40211,33.43655 48.40215,33.4365 48.4022,33.43641 "
               id="polygon319-1-5-1-84"
               transform="matrix(1.6209594,0,0,1.6209594,51.243728,23.960012)" /><polygon
               fill="#000000"
               points="55.82743,34.13851 55.82729,34.13813 "
               id="polygon321-0-0-9-5"
               transform="matrix(1.6209594,0,0,1.6209594,51.243728,23.960012)" /><polygon
               fill="#000000"
               points="48.40486,39.50669 48.40495,39.50655 "
               id="polygon323-6-3-4-0"
               transform="matrix(1.6209594,0,0,1.6209594,51.243728,23.960012)" /><path
               fill="#000000"
               d="m 134.22117,53.165697 c -0.80705,1.120974 -2.17317,1.892324 -3.55001,2.004446 -0.13135,0.01118 -0.26352,0.01679 -0.39615,0.01679 -1.25784,0.0036 -2.55056,-0.514947 -3.44334,-1.389114 -0.49064,-0.477405 -1.27546,-0.466674 -1.75287,0.02399 -0.47748,0.490649 -0.46674,1.275468 0.0239,1.752873 1.38381,1.341134 3.25714,2.087893 5.17232,2.09146 0.20217,0 0.4047,-0.0084 0.60724,-0.02581 2.12165,-0.186881 4.08941,-1.297935 5.34512,-3.018064 0.40221,-0.554061 0.27918,-1.329187 -0.2748,-1.731396 -0.554,-0.402257 -1.32921,-0.279161 -1.73142,0.274818 z"
               id="path325-3-6-7-3"
               style="stroke-width:1.62096" /><path
               fill="#000000"
               d="m 159.80356,52.652355 c -0.668,-0.149874 -1.331,0.2701 -1.48087,0.938098 -0.0272,0.122869 -0.0988,0.263065 -0.23039,0.404397 -0.12939,0.140051 -0.31627,0.270408 -0.51177,0.353337 -0.31798,0.136484 -0.71854,0.202311 -1.17855,0.201712 -0.15231,0 -0.31006,-0.007 -0.47099,-0.0196 l -6e-4,-8.1e-5 c -1.68576,-0.129758 -3.34733,-0.835361 -4.6113,-1.958897 -0.51215,-0.454257 -1.29559,-0.407282 -1.74993,0.10486 -0.45425,0.512223 -0.40728,1.295665 0.10494,1.749939 1.68002,1.48762 3.82664,2.399166 6.06291,2.575753 0.21564,0.01694 0.43769,0.02723 0.66497,0.02723 0.68252,-5.99e-4 1.42263,-0.09093 2.15145,-0.400474 l 0.002,-6.81e-4 c 0.50033,-0.214955 0.96261,-0.527881 1.34999,-0.941728 0.38533,-0.412648 0.69811,-0.936672 0.83672,-1.552912 0.14995,-0.667997 -0.2701,-1.331002 -0.9381,-1.480957 z"
               id="path327-2-1-8-61"
               style="stroke-width:1.62096" /><polygon
               fill="#000000"
               points="64.46413,20.38418 64.46385,20.38414 64.46376,20.38414 "
               id="polygon329-0-06-4-0"
               transform="matrix(1.6209594,0,0,1.6209594,51.243728,23.960012)" /><path
               fill="#000000"
               d="m 146.41478,61.333452 c -0.0679,0.08776 -0.24287,0.184076 -0.51184,0.185146 -0.19383,0.0016 -0.40433,-0.05879 -0.54362,-0.147151 l -6.8e-4,-4.54e-4 c -0.20813,-0.128169 -0.39713,-0.328439 -0.55412,-0.603467 -0.15631,-0.272678 -0.27186,-0.61504 -0.3264,-0.962542 -0.0974,-0.61329 -0.63433,-1.060286 -1.25513,-1.044789 -0.62077,0.0154 -1.13481,0.488606 -1.20155,1.105997 -0.0361,0.340774 -0.13807,0.68244 -0.28524,0.954518 -0.14776,0.274493 -0.33093,0.473709 -0.53355,0.599755 -0.13158,0.08421 -0.33321,0.142774 -0.52258,0.141185 -0.27322,-9.88e-4 -0.45199,-0.102898 -0.51592,-0.191646 -0.42513,-0.536651 -1.20473,-0.627133 -1.74138,-0.202004 -0.53665,0.425048 -0.62707,1.20473 -0.20201,1.741381 0.64372,0.804644 1.58885,1.132467 2.45932,1.131494 0.63509,-0.0015 1.26827,-0.166294 1.83345,-0.516146 0.3028,-0.188776 0.56261,-0.417413 0.79035,-0.6661 0.221,0.230014 0.46599,0.445034 0.7526,0.622075 0.56819,0.348571 1.20487,0.515465 1.84646,0.517135 0.84807,0.0011 1.76907,-0.308842 2.41452,-1.074891 0.43891,-0.525385 0.36877,-1.307174 -0.15662,-1.746065 -0.52538,-0.438939 -1.30717,-0.368882 -1.74606,0.156569 z"
               id="path331-6-3-5-6"
               style="stroke-width:1.62096" /><polygon
               fill="#000000"
               points="57.25814,24.38122 57.2579,24.38103 57.25772,24.38094 "
               id="polygon333-1-20-0-3"
               transform="matrix(1.6209594,0,0,1.6209594,51.243728,23.960012)" /></g><text
             xml:space="preserve"
             transform="matrix(1.0478264,0,0,0.79891663,-183.47624,-111.44951)"
             id="text61-6-1-9-97-9-7-3-2"
             style="font-style:normal;font-variant:normal;font-weight:normal;font-stretch:normal;font-size:25.0095px;line-height:1.25;font-family:Overpass;-inkscape-font-specification:Overpass;white-space:pre;shape-inside:url(#rect63-3-1-2-2-3-36-5-59);display:inline;fill:#000000;fill-opacity:1;stroke:none"
             x="130.4599"
             y="0"><tspan
               x="204.17773"
               y="446.74736"
               id="tspan6">beyond simple os</tspan></text></g></g></g><text
       xml:space="preserve"
       transform="scale(0.26458333)"
       id="text454"
       style="font-style:normal;font-weight:normal;font-size:40px;line-height:1.25;font-family:sans-serif;white-space:pre;shape-inside:url(#rect456);display:inline;fill:#000000;fill-opacity:1;stroke:none" /></g></svg>
